test/top.vcd
$version Generated by VerilatedVcd $end
$date Fri Dec 16 22:42:59 2022 $end
$timescale 1ps $end

 $scope module TOP $end
  $var wire 32 !" a0 [31:0] $end
  $var wire  1 }! clk $end
  $var wire  1 ~! rst $end
  $scope module top $end
   $var wire 32 H ALUResult_E [31:0] $end
   $var wire 32 J ALUResult_M [31:0] $end
   $var wire 32 T ALUResult_W [31:0] $end
   $var wire  4 4 ALUctrl_D [3:0] $end
   $var wire  4 F ALUctrl_E [3:0] $end
   $var wire  1 , ALUsrc_D $end
   $var wire  1 = ALUsrc_E $end
   $var wire  3 3 DMem_size_D [2:0] $end
   $var wire  3 E DMem_size_E [2:0] $end
   $var wire  3 Q DMem_size_M [2:0] $end
   $var wire 32 ) ImmExt_D [31:0] $end
   $var wire 32 8 ImmExt_E [31:0] $end
   $var wire 32 ( PCPlus4_D [31:0] $end
   $var wire 32 9 PCPlus4_E [31:0] $end
   $var wire 32 % PCPlus4_F [31:0] $end
   $var wire 32 L PCPlus4_M [31:0] $end
   $var wire 32 V PCPlus4_W [31:0] $end
   $var wire 32 I PCTarget_E [31:0] $end
   $var wire 32 ' PC_D [31:0] $end
   $var wire 32 : PC_E [31:0] $end
   $var wire 32 $ PC_F [31:0] $end
   $var wire  1 > PCsrc_E $end
   $var wire 32 "" RD1_D [31:0] $end
   $var wire 32 6 RD1_E [31:0] $end
   $var wire 32 #" RD2_D [31:0] $end
   $var wire 32 7 RD2_E [31:0] $end
   $var wire  3 2 R_size_D [2:0] $end
   $var wire  3 D R_size_E [2:0] $end
   $var wire  3 P R_size_M [2:0] $end
   $var wire  5 5 Rd_D [4:0] $end
   $var wire  5 G Rd_E [4:0] $end
   $var wire  5 R Rd_M [4:0] $end
   $var wire  5 Y Rd_W [4:0] $end
   $var wire 32 $" WIDTH [31:0] $end
   $var wire 32 !" a0 [31:0] $end
   $var wire  1 - branch_D $end
   $var wire  1 ? branch_E $end
   $var wire  1 }! clk $end
   $var wire 32 & instr_D [31:0] $end
   $var wire 32 # instr_F [31:0] $end
   $var wire  1 . jalr_D $end
   $var wire  1 @ jalr_E $end
   $var wire  1 + jump_D $end
   $var wire  1 < jump_E $end
   $var wire  1 0 load_extend_s_D $end
   $var wire  1 B load_extend_s_E $end
   $var wire  1 N load_extend_s_M $end
   $var wire  1 / lui_D $end
   $var wire  1 A lui_E $end
   $var wire 32 S readData_M [31:0] $end
   $var wire 32 U readData_W [31:0] $end
   $var wire  1 * regWrite_D $end
   $var wire  1 ; regWrite_E $end
   $var wire  1 M regWrite_M $end
   $var wire  1 W regWrite_W $end
   $var wire  2 1 resultSrc_D [1:0] $end
   $var wire  2 C resultSrc_E [1:0] $end
   $var wire  2 O resultSrc_M [1:0] $end
   $var wire  2 X resultSrc_W [1:0] $end
   $var wire 32 Z result_W [31:0] $end
   $var wire  1 ~! rst $end
   $var wire 32 7 writeData_E [31:0] $end
   $var wire 32 K writeData_M [31:0] $end
   $scope module decode_execute_reg $end
    $var wire  4 4 ALUctrl_D [3:0] $end
    $var wire  4 F ALUctrl_E [3:0] $end
    $var wire  1 , ALUsrc_D $end
    $var wire  1 = ALUsrc_E $end
    $var wire  3 3 DMem_size_D [2:0] $end
    $var wire  3 E DMem_size_E [2:0] $end
    $var wire 32 ) ImmExt_D [31:0] $end
    $var wire 32 8 ImmExt_E [31:0] $end
    $var wire 32 ( PCPlus4_D [31:0] $end
    $var wire 32 9 PCPlus4_E [31:0] $end
    $var wire 32 ' PC_D [31:0] $end
    $var wire 32 : PC_E [31:0] $end
    $var wire 32 "" RD1_D [31:0] $end
    $var wire 32 6 RD1_E [31:0] $end
    $var wire 32 #" RD2_D [31:0] $end
    $var wire 32 7 RD2_E [31:0] $end
    $var wire  3 2 R_size_D [2:0] $end
    $var wire  3 D R_size_E [2:0] $end
    $var wire  5 5 Rd_D [4:0] $end
    $var wire  5 G Rd_E [4:0] $end
    $var wire 32 $" WIDTH [31:0] $end
    $var wire  1 - branch_D $end
    $var wire  1 ? branch_E $end
    $var wire  1 }! clk $end
    $var wire  1 . jalr_D $end
    $var wire  1 @ jalr_E $end
    $var wire  1 + jump_D $end
    $var wire  1 < jump_E $end
    $var wire  1 0 load_extend_s_D $end
    $var wire  1 B load_extend_s_E $end
    $var wire  1 / lui_D $end
    $var wire  1 A lui_E $end
    $var wire  1 * regWrite_D $end
    $var wire  1 ; regWrite_E $end
    $var wire  2 1 resultSrc_D [1:0] $end
    $var wire  2 C resultSrc_E [1:0] $end
    $var wire  1 ~! rst $end
   $upscope $end
   $scope module execute_memory_reg $end
    $var wire 32 H ALUResult_E [31:0] $end
    $var wire 32 J ALUResult_M [31:0] $end
    $var wire  3 E DMem_size_E [2:0] $end
    $var wire  3 Q DMem_size_M [2:0] $end
    $var wire 32 9 PCPlus4_E [31:0] $end
    $var wire 32 L PCPlus4_M [31:0] $end
    $var wire  3 D R_size_E [2:0] $end
    $var wire  3 P R_size_M [2:0] $end
    $var wire  5 G Rd_E [4:0] $end
    $var wire  5 R Rd_M [4:0] $end
    $var wire 32 $" WIDTH [31:0] $end
    $var wire  1 }! clk $end
    $var wire  1 B load_extend_s_E $end
    $var wire  1 N load_extend_s_M $end
    $var wire  1 ; regWrite_E $end
    $var wire  1 M regWrite_M $end
    $var wire  2 C resultSrc_E [1:0] $end
    $var wire  2 O resultSrc_M [1:0] $end
    $var wire  1 ~! rst $end
    $var wire 32 7 writeData_E [31:0] $end
    $var wire 32 K writeData_M [31:0] $end
   $upscope $end
   $scope module fetch_decode_reg $end
    $var wire 32 ( PCPlus4_D [31:0] $end
    $var wire 32 % PCPlus4_F [31:0] $end
    $var wire 32 ' PC_D [31:0] $end
    $var wire 32 $ PC_F [31:0] $end
    $var wire 32 $" WIDTH [31:0] $end
    $var wire  1 }! clk $end
    $var wire 32 & instr_D [31:0] $end
    $var wire 32 # instr_F [31:0] $end
    $var wire  1 ~! rst $end
   $upscope $end
   $scope module memory_writeback_reg $end
    $var wire 32 J ALUResult_M [31:0] $end
    $var wire 32 T ALUResult_W [31:0] $end
    $var wire 32 L PCPlus4_M [31:0] $end
    $var wire 32 V PCPlus4_W [31:0] $end
    $var wire  5 R Rd_M [4:0] $end
    $var wire  5 Y Rd_W [4:0] $end
    $var wire 32 $" WIDTH [31:0] $end
    $var wire  1 }! clk $end
    $var wire 32 S readData_M [31:0] $end
    $var wire 32 U readData_W [31:0] $end
    $var wire  1 M regWrite_M $end
    $var wire  1 W regWrite_W $end
    $var wire  2 O resultSrc_M [1:0] $end
    $var wire  2 X resultSrc_W [1:0] $end
    $var wire  1 ~! rst $end
   $upscope $end
   $scope module top_decode $end
    $var wire  4 4 ALUctrl_D [3:0] $end
    $var wire  1 , ALUsrc_D $end
    $var wire  3 3 DMem_size_D [2:0] $end
    $var wire 32 ) ImmExt_D [31:0] $end
    $var wire  3 [ ImmSrc_D [2:0] $end
    $var wire 32 "" RD1_D [31:0] $end
    $var wire 32 #" RD2_D [31:0] $end
    $var wire  3 2 R_size_D [2:0] $end
    $var wire  5 5 Rd_D [4:0] $end
    $var wire  5 Y Rd_W [4:0] $end
    $var wire 32 $" WIDTH [31:0] $end
    $var wire 32 !" a0 [31:0] $end
    $var wire  1 - branch_D $end
    $var wire  1 }! clk $end
    $var wire 32 & instr_D [31:0] $end
    $var wire  1 . jalr $end
    $var wire  1 + jump_D $end
    $var wire  1 0 load_extend_s $end
    $var wire  1 / lui $end
    $var wire  1 * regWrite_D $end
    $var wire  1 W regWrite_W $end
    $var wire  2 1 resultSrc_D [1:0] $end
    $var wire 32 Z result_W [31:0] $end
    $var wire  1 ~! rst $end
    $scope module SignExtend $end
     $var wire 32 ) ImmExtD [31:0] $end
     $var wire  3 [ ImmSrcD [2:0] $end
     $var wire 32 & InstrD [31:0] $end
     $var wire 32 $" data_width [31:0] $end
     $var wire 32 %" imm_width1 [31:0] $end
     $var wire 32 &" imm_width2 [31:0] $end
     $var wire 32 &" imm_width3 [31:0] $end
     $scope module unnamedblk1 $end
      $var wire 12 \ imm_type_1 [11:0] $end
      $var wire 20 ^ imm_type_jal [19:0] $end
      $var wire 20 ] imm_type_lui [19:0] $end
      $var wire  7 _ opcode [6:0] $end
     $upscope $end
    $upscope $end
    $scope module control_unit $end
     $var wire  4 4 ALUControlD [3:0] $end
     $var wire  1 , ALUsrcD $end
     $var wire  1 - BranchD $end
     $var wire  3 3 DMem_size [2:0] $end
     $var wire  3 [ ImmSrcD [2:0] $end
     $var wire  1 + JumpD $end
     $var wire  3 2 R_size [2:0] $end
     $var wire  1 * RegWriteD $end
     $var wire  2 1 ResultSrcD [1:0] $end
     $var wire  3 ` funct3 [2:0] $end
     $var wire  7 a funct7 [6:0] $end
     $var wire  2 b instr_type [1:0] $end
     $var wire  1 . jalr $end
     $var wire  1 0 load_extend_s $end
     $var wire  1 / lui $end
     $var wire  7 _ opcode [6:0] $end
     $scope module alu_control $end
      $var wire  4 4 ALUControlD [3:0] $end
      $var wire  2 b ALUOp [1:0] $end
      $var wire  3 ` funct3 [2:0] $end
      $var wire  1 c funct7_bit $end
     $upscope $end
     $scope module main_control $end
      $var wire  2 b ALUOp [1:0] $end
      $var wire  1 , ALUsrcD $end
      $var wire  1 - BranchD $end
      $var wire  3 3 DMem_size [2:0] $end
      $var wire  3 [ ImmSrcD [2:0] $end
      $var wire  1 + JumpD $end
      $var wire  3 2 R_size [2:0] $end
      $var wire  1 * RegWriteD $end
      $var wire  2 1 ResultSrcD [1:0] $end
      $var wire  3 ` funct3 [14:12] $end
      $var wire 32 d instr [31:0] $end
      $var wire  1 . jalr_o $end
      $var wire  1 0 load_extend_s $end
      $var wire  1 / lui_o $end
      $var wire  7 _ opcode [6:0] $end
     $upscope $end
    $upscope $end
    $scope module register $end
     $var wire 32 '" ADDRESS_WIDTH [31:0] $end
     $var wire 32 $" DATA_WIDTH [31:0] $end
     $var wire 32 "" RD1 [31:0] $end
     $var wire 32 #" RD2 [31:0] $end
     $var wire 32 Z WD3 [31:0] $end
     $var wire  1 W WE3 $end
     $var wire 32 !" a0 [31:0] $end
     $var wire  1 }! clk $end
     $var wire 32 |! i [31:0] $end
     $var wire  5 Y rd [4:0] $end
     $var wire 32 f! reg_array[10] [31:0] $end
     $var wire 32 g! reg_array[11] [31:0] $end
     $var wire 32 h! reg_array[12] [31:0] $end
     $var wire 32 i! reg_array[13] [31:0] $end
     $var wire 32 j! reg_array[14] [31:0] $end
     $var wire 32 k! reg_array[15] [31:0] $end
     $var wire 32 l! reg_array[16] [31:0] $end
     $var wire 32 m! reg_array[17] [31:0] $end
     $var wire 32 n! reg_array[18] [31:0] $end
     $var wire 32 o! reg_array[19] [31:0] $end
     $var wire 32 ]! reg_array[1] [31:0] $end
     $var wire 32 p! reg_array[20] [31:0] $end
     $var wire 32 q! reg_array[21] [31:0] $end
     $var wire 32 r! reg_array[22] [31:0] $end
     $var wire 32 s! reg_array[23] [31:0] $end
     $var wire 32 t! reg_array[24] [31:0] $end
     $var wire 32 u! reg_array[25] [31:0] $end
     $var wire 32 v! reg_array[26] [31:0] $end
     $var wire 32 w! reg_array[27] [31:0] $end
     $var wire 32 x! reg_array[28] [31:0] $end
     $var wire 32 y! reg_array[29] [31:0] $end
     $var wire 32 ^! reg_array[2] [31:0] $end
     $var wire 32 z! reg_array[30] [31:0] $end
     $var wire 32 {! reg_array[31] [31:0] $end
     $var wire 32 _! reg_array[3] [31:0] $end
     $var wire 32 `! reg_array[4] [31:0] $end
     $var wire 32 a! reg_array[5] [31:0] $end
     $var wire 32 b! reg_array[6] [31:0] $end
     $var wire 32 c! reg_array[7] [31:0] $end
     $var wire 32 d! reg_array[8] [31:0] $end
     $var wire 32 e! reg_array[9] [31:0] $end
     $var wire  5 e rs1 [4:0] $end
     $var wire  5 f rs2 [4:0] $end
     $var wire  1 ~! rst $end
    $upscope $end
   $upscope $end
   $scope module top_execute $end
    $var wire  4 F ALUctrl [3:0] $end
    $var wire 32 h ALUop2 [31:0] $end
    $var wire 32 i ALUout1 [31:0] $end
    $var wire 32 H ALUout2 [31:0] $end
    $var wire  1 = ALUsrc $end
    $var wire 32 $" DATA_WIDTH [31:0] $end
    $var wire  1 g EQ $end
    $var wire 32 8 ImmOp [31:0] $end
    $var wire 32 I PCTarget_E [31:0] $end
    $var wire 32 : PC_E [31:0] $end
    $var wire  1 > PCsrc_E $end
    $var wire 32 6 RD1 [31:0] $end
    $var wire 32 7 RD2 [31:0] $end
    $var wire  1 ? branch_E $end
    $var wire  1 @ jalr $end
    $var wire  1 < jump_E $end
    $var wire  1 A lui $end
    $var wire 32 7 writeData_E [31:0] $end
    $scope module ALU $end
     $var wire  4 F ALUctrl [3:0] $end
     $var wire 32 6 ALUop1 [31:0] $end
     $var wire 32 h ALUop2 [31:0] $end
     $var wire 32 $" DATA_WIDTH [31:0] $end
     $var wire  1 g EQ $end
     $var wire 32 i SUM [31:0] $end
    $upscope $end
    $scope module pc_src $end
     $var wire  1 ? BranchE $end
     $var wire  1 < JumpE $end
     $var wire  1 > PCSrcE $end
     $var wire  1 g ZeroE $end
     $var wire  1 j and_result $end
    $upscope $end
   $upscope $end
   $scope module top_fetch $end
    $var wire 32 % PCPlus4_F [31:0] $end
    $var wire 32 I PCTarget_E [31:0] $end
    $var wire 32 $ PC_F [31:0] $end
    $var wire  1 > PCsrc_E $end
    $var wire 32 $" WIDTH [31:0] $end
    $var wire  1 }! clk $end
    $var wire 32 # instr_F [31:0] $end
    $var wire 32 k next_PC [31:0] $end
    $var wire  1 ~! rst $end
    $scope module PC_Reg $end
     $var wire 32 $" DATA_LENGTH [31:0] $end
     $var wire 32 $ PC [31:0] $end
     $var wire  1 }! clk $end
     $var wire 32 k next_PC [31:0] $end
     $var wire  1 ~! rst $end
    $upscope $end
    $scope module add_inc $end
     $var wire 32 $" DATA_LENGTH [31:0] $end
     $var wire 32 (" N [31:0] $end
     $var wire 32 $ in [31:0] $end
     $var wire 32 % out [31:0] $end
    $upscope $end
    $scope module instr_mem $end
     $var wire 32 $ A [31:0] $end
     $var wire 32 $" ADDRESS_WIDTH [31:0] $end
     $var wire 32 )" DATA_WIDTH [31:0] $end
     $var wire 32 $" INSTRUCTION_WIDTH [31:0] $end
     $var wire 32 # RD [31:0] $end
     $var wire  8 l byte1 [7:0] $end
     $var wire  8 m byte2 [7:0] $end
     $var wire  8 n byte3 [7:0] $end
     $var wire  8 o byte4 [7:0] $end
    $upscope $end
    $scope module mux $end
     $var wire 32 $" WIDTH [31:0] $end
     $var wire 32 % d_0 [31:0] $end
     $var wire 32 I d_1 [31:0] $end
     $var wire 32 k dout [31:0] $end
     $var wire  1 > s $end
    $upscope $end
   $upscope $end
   $scope module top_memory $end
    $var wire 32 J ALUResult_M [31:0] $end
    $var wire 32 $" WIDTH [31:0] $end
    $var wire 32 | cache_addr_out [31:0] $end
    $var wire  1 y cache_evict $end
    $var wire  1 x cache_hit $end
    $var wire 32 z cache_out [31:0] $end
    $var wire 32 { cache_store [31:0] $end
    $var wire  1 }! clk $end
    $var wire  1 u lb $end
    $var wire  1 t lh $end
    $var wire  1 v loadIns $end
    $var wire  1 s lw $end
    $var wire 32 ~ memory_out [31:0] $end
    $var wire 32 } ram_out [31:0] $end
    $var wire 32 S readData_M [31:0] $end
    $var wire  1 N s $end
    $var wire  1 r sb $end
    $var wire  1 q sh $end
    $var wire  1 w storeIns $end
    $var wire  1 p sw $end
    $var wire 32 K writeData_M [31:0] $end
    $scope module cache $end
     $var wire 32 +" CACHE_DATA_WIDTH [31:0] $end
     $var wire 32 $" DATA_WIDTH [31:0] $end
     $var wire  1 !! LRU_array[0] $end
     $var wire  1 +! LRU_array[10] $end
     $var wire  1 ,! LRU_array[11] $end
     $var wire  1 -! LRU_array[12] $end
     $var wire  1 .! LRU_array[13] $end
     $var wire  1 /! LRU_array[14] $end
     $var wire  1 0! LRU_array[15] $end
     $var wire  1 1! LRU_array[16] $end
     $var wire  1 2! LRU_array[17] $end
     $var wire  1 3! LRU_array[18] $end
     $var wire  1 4! LRU_array[19] $end
     $var wire  1 "! LRU_array[1] $end
     $var wire  1 5! LRU_array[20] $end
     $var wire  1 6! LRU_array[21] $end
     $var wire  1 7! LRU_array[22] $end
     $var wire  1 8! LRU_array[23] $end
     $var wire  1 9! LRU_array[24] $end
     $var wire  1 :! LRU_array[25] $end
     $var wire  1 ;! LRU_array[26] $end
     $var wire  1 <! LRU_array[27] $end
     $var wire  1 =! LRU_array[28] $end
     $var wire  1 >! LRU_array[29] $end
     $var wire  1 #! LRU_array[2] $end
     $var wire  1 ?! LRU_array[30] $end
     $var wire  1 @! LRU_array[31] $end
     $var wire  1 $! LRU_array[3] $end
     $var wire  1 %! LRU_array[4] $end
     $var wire  1 &! LRU_array[5] $end
     $var wire  1 '! LRU_array[6] $end
     $var wire  1 (! LRU_array[7] $end
     $var wire  1 )! LRU_array[8] $end
     $var wire  1 *! LRU_array[9] $end
     $var wire 32 '" SET_WIDTH [31:0] $end
     $var wire 32 *" TAG_WIDTH [31:0] $end
     $var wire 32 J addr_in [31:0] $end
     $var wire 32 | addr_out [31:0] $end
     $var wire 59 E! cache_out [58:0] $end
     $var wire 59 A! cache_out1 [58:0] $end
     $var wire 59 C! cache_out2 [58:0] $end
     $var wire 32 { cache_store [31:0] $end
     $var wire  1 }! clk $end
     $var wire 32 P! din [31:0] $end
     $var wire  1 M! dirty_bit $end
     $var wire 32 z dout [31:0] $end
     $var wire  1 y evict $end
     $var wire  1 x hit $end
     $var wire  1 v loadIns $end
     $var wire  1 K! matching_tag $end
     $var wire 32 } ram_out [31:0] $end
     $var wire  5 N! set [4:0] $end
     $var wire  1 w storeIns $end
     $var wire 25 O! tag_in [24:0] $end
     $var wire 25 I! tag_out [24:0] $end
     $var wire 25 G! tag_out1 [24:0] $end
     $var wire 25 H! tag_out2 [24:0] $end
     $var wire  1 J! target_way $end
     $var wire  1 L! valid $end
    $upscope $end
    $scope module cache_store_input $end
     $var wire 32 $" WIDTH [31:0] $end
     $var wire 32 J addr [31:0] $end
     $var wire 32 { cache_store [31:0] $end
     $var wire 32 K din [31:0] $end
     $var wire 32 ~ mem_out [31:0] $end
     $var wire  1 r sb $end
     $var wire  1 q sh $end
     $var wire  1 p sw $end
    $upscope $end
    $scope module hbw $end
     $var wire 32 )" BYTE_LEN [31:0] $end
     $var wire 32 $" CPU_WORD [31:0] $end
     $var wire 32 ," HALF_LEN [31:0] $end
     $var wire  8 U! b [7:0] $end
     $var wire 32 S! be [31:0] $end
     $var wire 32 ~ data [31:0] $end
     $var wire 32 S dout [31:0] $end
     $var wire 16 T! h [15:0] $end
     $var wire 32 R! he [31:0] $end
     $var wire  1 u lb $end
     $var wire  1 t lh $end
     $var wire  1 s lw $end
     $var wire  2 Q! offset [1:0] $end
     $var wire  1 N s $end
     $scope module h_e $end
      $var wire 32 ," HALF_LEN [31:0] $end
      $var wire 32 $" WORD_LENGTH [31:0] $end
      $var wire 16 T! din [15:0] $end
      $var wire 32 R! dout [31:0] $end
      $var wire  1 N s $end
      $var wire  1 V! sign $end
     $upscope $end
     $scope module s_e $end
      $var wire 32 )" BYTE_LEN [31:0] $end
      $var wire 32 $" WORD_LENGTH [31:0] $end
      $var wire  8 U! din [7:0] $end
      $var wire 32 S! dout [31:0] $end
      $var wire  1 N s $end
      $var wire  1 W! sign $end
     $upscope $end
    $upscope $end
    $scope module ram $end
     $var wire 32 $" ADDRESS_LENGTH [31:0] $end
     $var wire 32 )" WORD_LENGTH [31:0] $end
     $var wire  1 }! clk $end
     $var wire  8 Y! d0 [7:0] $end
     $var wire  8 Z! d1 [7:0] $end
     $var wire  8 [! d2 [7:0] $end
     $var wire  8 \! d3 [7:0] $end
     $var wire 32 X! offset_ra [31:0] $end
     $var wire 32 J r_a [31:0] $end
     $var wire 32 } rd [31:0] $end
     $var wire  1 -" sb $end
     $var wire  1 -" sh $end
     $var wire  1 y sw $end
     $var wire 32 | w_a [31:0] $end
     $var wire 32 z wd [31:0] $end
    $upscope $end
   $upscope $end
   $scope module top_writeback $end
    $var wire 32 T ALUResult_W [31:0] $end
    $var wire 32 V PCPlus4_W [31:0] $end
    $var wire 32 $" WIDTH [31:0] $end
    $var wire 32 U readData_W [31:0] $end
    $var wire  2 X resultSrc_W [1:0] $end
    $var wire 32 Z result_W [31:0] $end
   $upscope $end
  $upscope $end
 $upscope $end
$enddefinitions $end


#0
b00000000000000000000000000000000 #
b00000000000000000000000000000000 $
b00000000000000000000000000000100 %
b00000000000000000000000000000000 &
b00000000000000000000000000000000 '
b00000000000000000000000000000000 (
b00000000000000000000000000000000 )
0*
0+
0,
0-
0.
0/
00
b00 1
b000 2
b000 3
b0000 4
b00000 5
b00000000000000000000000000000000 6
b00000000000000000000000000000000 7
b00000000000000000000000000000000 8
b00000000000000000000000000000000 9
b00000000000000000000000000000000 :
0;
0<
0=
0>
0?
0@
0A
0B
b00 C
b000 D
b000 E
b0000 F
b00000 G
b00000000000000000000000000000000 H
b00000000000000000000000000000000 I
b00000000000000000000000000000000 J
b00000000000000000000000000000000 K
b00000000000000000000000000000000 L
0M
0N
b00 O
b000 P
b000 Q
b00000 R
b00000000000000000000000000000000 S
b00000000000000000000000000000000 T
b00000000000000000000000000000000 U
b00000000000000000000000000000000 V
0W
b00 X
b00000 Y
b00000000000000000000000000000000 Z
b000 [
b000000000000 \
b00000000000000000000 ]
b00000000000000000000 ^
b0000000 _
b000 `
b0000000 a
b11 b
0c
b00000000000000000000000000000000 d
b00000 e
b00000 f
0g
b00000000000000000000000000000000 h
b00000000000000000000000000000000 i
0j
b00000000000000000000000000000100 k
b00000000 l
b00000000 m
b00000000 n
b00000000 o
0p
0q
0r
0s
0t
0u
0v
0w
0x
0y
b00000000000000000000000000000000 z
b00000000000000000000000000000000 {
b00000000000000000000000000000000 |
b00000000000000000000000000000000 }
b00000000000000000000000000000000 ~
0!!
0"!
0#!
0$!
0%!
0&!
0'!
0(!
0)!
0*!
0+!
0,!
0-!
0.!
0/!
00!
01!
02!
03!
04!
05!
06!
07!
08!
09!
0:!
0;!
0<!
0=!
0>!
0?!
0@!
b00000000000000000000000000000000000000000000000000000000000 A!
b00000000000000000000000000000000000000000000000000000000000 C!
b00000000000000000000000000000000000000000000000000000000000 E!
b0000000000000000000000000 G!
b0000000000000000000000000 H!
b0000000000000000000000000 I!
0J!
0K!
0L!
0M!
b00000 N!
b0000000000000000000000000 O!
b00000000000000000000000000000000 P!
b00 Q!
b00000000000000000000000000000000 R!
b00000000000000000000000000000000 S!
b0000000000000000 T!
b00000000 U!
0V!
0W!
b00000000000000000000000000000000 X!
b00000000 Y!
b00000000 Z!
b00000000 [!
b00000000 \!
b00000000000000000000000000000000 ]!
b00000000000000000000000000000000 ^!
b00000000000000000000000000000000 _!
b00000000000000000000000000000000 `!
b00000000000000000000000000000000 a!
b00000000000000000000000000000000 b!
b00000000000000000000000000000000 c!
b00000000000000000000000000000000 d!
b00000000000000000000000000000000 e!
b00000000000000000000000000000000 f!
b00000000000000000000000000000000 g!
b00000000000000000000000000000000 h!
b00000000000000000000000000000000 i!
b00000000000000000000000000000000 j!
b00000000000000000000000000000000 k!
b00000000000000000000000000000000 l!
b00000000000000000000000000000000 m!
b00000000000000000000000000000000 n!
b00000000000000000000000000000000 o!
b00000000000000000000000000000000 p!
b00000000000000000000000000000000 q!
b00000000000000000000000000000000 r!
b00000000000000000000000000000000 s!
b00000000000000000000000000000000 t!
b00000000000000000000000000000000 u!
b00000000000000000000000000000000 v!
b00000000000000000000000000000000 w!
b00000000000000000000000000000000 x!
b00000000000000000000000000000000 y!
b00000000000000000000000000000000 z!
b00000000000000000000000000000000 {!
b00000000000000000000000000000000 |!
1}!
0~!
b00000000000000000000000000000000 !"
b00000000000000000000000000000000 ""
b00000000000000000000000000000000 #"
b00000000000000000000000000100000 $"
b00000000000000000000000000001100 %"
b00000000000000000000000000010100 &"
b00000000000000000000000000000101 '"
b00000000000000000000000000000100 ("
b00000000000000000000000000001000 )"
b00000000000000000000000000011001 *"
b00000000000000000000000000111011 +"
b00000000000000000000000000010000 ,"
0-"
#1
b00000010100000000000000011101111 #
1g
b11101111 l
b10000000 n
b00000010 o
1K!
0}!
#2
b00000000000000000000000000010011 #
b00000000000000000000000000000100 $
b00000000000000000000000000001000 %
b00000010100000000000000011101111 &
b00000000000000000000000000000100 (
b00000000000000000000000000010100 )
1*
1+
b10 1
b00001 5
b100 [
b00000000000000010100 ^
b1101111 _
b0000001 a
b00000000000000000000000000001000 d
b01000 f
b00000000000000000000000000001000 k
b00010011 l
b00000000 n
b00000000 o
1}!
#3
0}!
#4
b00000000000000000000000000001000 $
b00000000000000000000000000001100 %
b00000000000000000000000000010011 &
b00000000000000000000000000000100 '
b00000000000000000000000000001000 (
b00000000000000000000000000000000 )
0+
1,
b00 1
b00000 5
b00000000000000000000000000010100 8
b00000000000000000000000000000100 9
1;
1<
1>
b10 C
b00001 G
b00000000000000000000000000101000 I
b000 [
b00000000000000000000 ^
b0010011 _
b0000000 a
b00000000000000000000000000000010 d
b00000 f
b00000000000000000000000000101000 k
1}!
#5
0}!
#6
b00001111111100000000010000010011 #
b00000000000000000000000000101000 $
b00000000000000000000000000101100 %
b00000000000000000000000000001000 '
b00000000000000000000000000001100 (
b00000000000000000000000000000000 8
b00000000000000000000000000001000 9
b00000000000000000000000000000100 :
0<
1=
0>
b00 C
b00000 G
b00000000000000000000000000000100 I
b00000000000000000000000000000100 L
1M
b10 O
b00001 R
b00000000000000000000000000101100 k
b00000100 m
b11110000 n
b00001111 o
1}!
#7
0}!
#8
b00000000100000000000010010010011 #
b00000000000000000000000000101100 $
b00000000000000000000000000110000 %
b00001111111100000000010000010011 &
b00000000000000000000000000101000 '
b00000000000000000000000000101100 (
b00000000000000000000000011111111 )
b01000 5
b00000000000000000000000000001100 9
b00000000000000000000000000001000 :
b00000000000000000000000000001000 I
b00000000000000000000000000001000 L
b00 O
b00000 R
b00000000000000000000000000000100 V
1W
b10 X
b00001 Y
b00000000000000000000000000000100 Z
b000011111111 \
b0000111 a
b11111 f
b00000000000000000000000000110000 k
b10010011 l
b10000000 n
b00000000 o
1}!
#9
b00000000000000000000000000000100 ]!
0}!
#10
b00000000000000001000000011100111 #
b00000000000000000000000000110000 $
b00000000000000000000000000110100 %
b00000000100000000000010010010011 &
b00000000000000000000000000101100 '
b00000000000000000000000000110000 (
b00000000000000000000000000001000 )
b01001 5
b00000000000000000000000011111111 8
b00000000000000000000000000101100 9
b00000000000000000000000000101000 :
b01000 G
b00000000000000000000000011111111 H
b00000000000000000000001000100110 I
b00000000000000000000000000001100 L
b00000000000000000000000000001000 V
b00 X
b00000 Y
b00000000000000000000000000000000 Z
b000000001000 \
b0000000 a
b01000 f
0g
b00000000000000000000000011111111 h
b00000000000000000000000011111111 i
b00000000000000000000000000110100 k
b11100111 l
b10000000 m
b00000000 n
1}!
#11
0}!
#12
b00000000000000000000000000010011 #
b00000000000000000000000000110100 $
b00000000000000000000000000111000 %
b00000000000000001000000011100111 &
b00000000000000000000000000110000 '
b00000000000000000000000000110100 (
b00000000000000000000000000000000 )
1+
0,
1.
b10 1
b00001 5
b00000000000000000000000000001000 8
b00000000000000000000000000110000 9
b00000000000000000000000000101100 :
b01001 G
b00000000000000000000000000001000 H
b00000000000000000000000000111100 I
b00000000000000000000000011111111 J
b00000000000000000000000000101100 L
b01000 R
b00000000000000000000000000001100 V
b000000000000 \
b1100111 _
b00000000000000000000000000001001 d
b00001 e
b00000 f
b00000000000000000000000000001000 h
b00000000000000000000000000001000 i
b00000000000000000000000000111000 k
b00010011 l
b00000000 m
b00000000000000000000000001111100 |
1J!
0K!
b11111 N!
b0000000000000000000000001 O!
b11 Q!
b00000000000000000000000011111100 X!
1}!
b00000000000000000000000000000100 ""
#13
0}!
#14
b00000000000000000000000000111000 $
b00000000000000000000000000111100 %
b00000000000000000000000000010011 &
b00000000000000000000000000110100 '
b00000000000000000000000000111000 (
0+
1,
0.
b00 1
b00000 5
b00000000000000000000000000000100 6
b00000000000000000000000000000000 8
b00000000000000000000000000110100 9
b00000000000000000000000000110000 :
1<
0=
1>
1@
b10 C
b00001 G
b00000000000000000000000000000100 H
b00000000000000000000000000000100 I
b00000000000000000000000000001000 J
b00000000000000000000000000110000 L
b01001 R
b00000000000000000000000011111111 T
b00000000000000000000000000101100 V
b01000 Y
b00000000000000000000000011111111 Z
b0010011 _
b00000000000000000000000000000010 d
b00000 e
b00000000000000000000000000000000 h
b00000000000000000000000000000100 i
b00000000000000000000000000000100 k
b00000000000000000000000000001000 |
0J!
1K!
b00010 N!
b0000000000000000000000000 O!
b00 Q!
b00000000000000000000000000001000 X!
1}!
b00000000000000000000000000000000 ""
#15
b00000000000000000000000011111111 d!
0}!
#16
b00000000000000000000000000000100 $
b00000000000000000000000000001000 %
b00000000000000000000000000111000 '
b00000000000000000000000000111100 (
b00000000000000000000000000000000 6
b00000000000000000000000000111000 9
b00000000000000000000000000110100 :
0<
1=
0>
0@
b00 C
b00000 G
b00000000000000000000000000000000 H
b00000000000000000000000000110100 I
b00000000000000000000000000000100 J
b00000000000000000000000000110100 L
b10 O
b00001 R
b00000000000000000000000000001000 T
b00000000000000000000000000110000 V
b01001 Y
b00000000000000000000000000001000 Z
1g
b00000000000000000000000000000000 i
b00000000000000000000000000001000 k
b00000000000000000000000000000100 |
b00001 N!
b00000000000000000000000000000100 X!
1}!
#17
b00000000000000000000000000001000 e!
0}!
