test/top_f1.vcd
$version Generated by VerilatedVcd $end
$date Fri Dec 16 22:41:30 2022 $end
$timescale 1ps $end

 $scope module TOP $end
  $var wire 32 ~ a0 [31:0] $end
  $var wire  1 | clk $end
  $var wire  1 } rst $end
  $scope module top $end
   $var wire 32 l ALUResult [31:0] $end
   $var wire  4 1 ALUctrl [3:0] $end
   $var wire  1 ) ALUsrc $end
   $var wire  3 0 DMem_size [2:0] $end
   $var wire 32 & ImmExt [31:0] $end
   $var wire 32 $ PC [31:0] $end
   $var wire 32 % PCPlus4 [31:0] $end
   $var wire 32 !! PCTarget [31:0] $end
   $var wire  1 k PCsrc $end
   $var wire 32 i RD1 [31:0] $end
   $var wire 32 j RD2 [31:0] $end
   $var wire  3 / R_size [2:0] $end
   $var wire  5 2 Rd [4:0] $end
   $var wire 32 %! WIDTH [31:0] $end
   $var wire 32 ~ a0 [31:0] $end
   $var wire  1 * branch $end
   $var wire  1 | clk $end
   $var wire 32 # instr [31:0] $end
   $var wire  1 + jalr $end
   $var wire  1 ( jump $end
   $var wire  1 - load_extend_s $end
   $var wire  1 , lui $end
   $var wire 32 "! readData [31:0] $end
   $var wire  1 ' regWrite $end
   $var wire 32 #! result [31:0] $end
   $var wire  2 . resultSrc [1:0] $end
   $var wire  1 } rst $end
   $var wire 32 j writeData [31:0] $end
   $scope module top_decode $end
    $var wire  4 1 ALUctrl_D [3:0] $end
    $var wire  1 ) ALUsrc_D $end
    $var wire  3 0 DMem_size_D [2:0] $end
    $var wire 32 & ImmExt_D [31:0] $end
    $var wire  3 3 ImmSrc_D [2:0] $end
    $var wire 32 i RD1_D [31:0] $end
    $var wire 32 j RD2_D [31:0] $end
    $var wire  3 / R_size_D [2:0] $end
    $var wire  5 2 Rd_D [4:0] $end
    $var wire  5 2 Rd_W [4:0] $end
    $var wire 32 %! WIDTH [31:0] $end
    $var wire 32 ~ a0 [31:0] $end
    $var wire  1 * branch_D $end
    $var wire  1 | clk $end
    $var wire 32 # instr_D [31:0] $end
    $var wire  1 + jalr $end
    $var wire  1 ( jump_D $end
    $var wire  1 - load_extend_s $end
    $var wire  1 , lui $end
    $var wire  1 ' regWrite_D $end
    $var wire  1 ' regWrite_W $end
    $var wire  2 . resultSrc_D [1:0] $end
    $var wire 32 #! result_W [31:0] $end
    $var wire  1 } rst $end
    $scope module SignExtend $end
     $var wire 32 & ImmExtD [31:0] $end
     $var wire  3 3 ImmSrcD [2:0] $end
     $var wire 32 # InstrD [31:0] $end
     $var wire 32 %! data_width [31:0] $end
     $var wire 32 &! imm_width1 [31:0] $end
     $var wire 32 '! imm_width2 [31:0] $end
     $var wire 32 '! imm_width3 [31:0] $end
     $scope module unnamedblk1 $end
      $var wire 12 4 imm_type_1 [11:0] $end
      $var wire 20 6 imm_type_jal [19:0] $end
      $var wire 20 5 imm_type_lui [19:0] $end
      $var wire  7 7 opcode [6:0] $end
     $upscope $end
    $upscope $end
    $scope module control_unit $end
     $var wire  4 1 ALUControlD [3:0] $end
     $var wire  1 ) ALUsrcD $end
     $var wire  1 * BranchD $end
     $var wire  3 0 DMem_size [2:0] $end
     $var wire  3 3 ImmSrcD [2:0] $end
     $var wire  1 ( JumpD $end
     $var wire  3 / R_size [2:0] $end
     $var wire  1 ' RegWriteD $end
     $var wire  2 . ResultSrcD [1:0] $end
     $var wire  3 8 funct3 [2:0] $end
     $var wire  7 9 funct7 [6:0] $end
     $var wire  2 : instr_type [1:0] $end
     $var wire  1 + jalr $end
     $var wire  1 - load_extend_s $end
     $var wire  1 , lui $end
     $var wire  7 7 opcode [6:0] $end
     $scope module alu_control $end
      $var wire  4 1 ALUControlD [3:0] $end
      $var wire  2 : ALUOp [1:0] $end
      $var wire  3 8 funct3 [2:0] $end
      $var wire  1 ; funct7_bit $end
     $upscope $end
     $scope module main_control $end
      $var wire  2 : ALUOp [1:0] $end
      $var wire  1 ) ALUsrcD $end
      $var wire  1 * BranchD $end
      $var wire  3 0 DMem_size [2:0] $end
      $var wire  3 3 ImmSrcD [2:0] $end
      $var wire  1 ( JumpD $end
      $var wire  3 / R_size [2:0] $end
      $var wire  1 ' RegWriteD $end
      $var wire  2 . ResultSrcD [1:0] $end
      $var wire  3 8 funct3 [14:12] $end
      $var wire 32 < instr [31:0] $end
      $var wire  1 + jalr_o $end
      $var wire  1 - load_extend_s $end
      $var wire  1 , lui_o $end
      $var wire  7 7 opcode [6:0] $end
     $upscope $end
    $upscope $end
    $scope module register $end
     $var wire 32 (! ADDRESS_WIDTH [31:0] $end
     $var wire 32 %! DATA_WIDTH [31:0] $end
     $var wire 32 i RD1 [31:0] $end
     $var wire 32 j RD2 [31:0] $end
     $var wire 32 #! WD3 [31:0] $end
     $var wire  1 ' WE3 $end
     $var wire 32 ~ a0 [31:0] $end
     $var wire  1 | clk $end
     $var wire 32 h i [31:0] $end
     $var wire  5 2 rd [4:0] $end
     $var wire 32 R reg_array[10] [31:0] $end
     $var wire 32 S reg_array[11] [31:0] $end
     $var wire 32 T reg_array[12] [31:0] $end
     $var wire 32 U reg_array[13] [31:0] $end
     $var wire 32 V reg_array[14] [31:0] $end
     $var wire 32 W reg_array[15] [31:0] $end
     $var wire 32 X reg_array[16] [31:0] $end
     $var wire 32 Y reg_array[17] [31:0] $end
     $var wire 32 Z reg_array[18] [31:0] $end
     $var wire 32 [ reg_array[19] [31:0] $end
     $var wire 32 I reg_array[1] [31:0] $end
     $var wire 32 \ reg_array[20] [31:0] $end
     $var wire 32 ] reg_array[21] [31:0] $end
     $var wire 32 ^ reg_array[22] [31:0] $end
     $var wire 32 _ reg_array[23] [31:0] $end
     $var wire 32 ` reg_array[24] [31:0] $end
     $var wire 32 a reg_array[25] [31:0] $end
     $var wire 32 b reg_array[26] [31:0] $end
     $var wire 32 c reg_array[27] [31:0] $end
     $var wire 32 d reg_array[28] [31:0] $end
     $var wire 32 e reg_array[29] [31:0] $end
     $var wire 32 J reg_array[2] [31:0] $end
     $var wire 32 f reg_array[30] [31:0] $end
     $var wire 32 g reg_array[31] [31:0] $end
     $var wire 32 K reg_array[3] [31:0] $end
     $var wire 32 L reg_array[4] [31:0] $end
     $var wire 32 M reg_array[5] [31:0] $end
     $var wire 32 N reg_array[6] [31:0] $end
     $var wire 32 O reg_array[7] [31:0] $end
     $var wire 32 P reg_array[8] [31:0] $end
     $var wire 32 Q reg_array[9] [31:0] $end
     $var wire  5 = rs1 [4:0] $end
     $var wire  5 > rs2 [4:0] $end
     $var wire  1 } rst $end
    $upscope $end
   $upscope $end
   $scope module top_execute $end
    $var wire  4 1 ALUctrl [3:0] $end
    $var wire 32 n ALUop2 [31:0] $end
    $var wire 32 o ALUout1 [31:0] $end
    $var wire 32 l ALUout2 [31:0] $end
    $var wire  1 ) ALUsrc $end
    $var wire 32 %! DATA_WIDTH [31:0] $end
    $var wire  1 m EQ $end
    $var wire 32 & ImmOp [31:0] $end
    $var wire 32 !! PCTarget_E [31:0] $end
    $var wire 32 $ PC_E [31:0] $end
    $var wire  1 k PCsrc_E $end
    $var wire 32 i RD1 [31:0] $end
    $var wire 32 j RD2 [31:0] $end
    $var wire  1 * branch_E $end
    $var wire  1 + jalr $end
    $var wire  1 ( jump_E $end
    $var wire  1 , lui $end
    $var wire 32 j writeData_E [31:0] $end
    $scope module ALU $end
     $var wire  4 1 ALUctrl [3:0] $end
     $var wire 32 i ALUop1 [31:0] $end
     $var wire 32 n ALUop2 [31:0] $end
     $var wire 32 %! DATA_WIDTH [31:0] $end
     $var wire  1 m EQ $end
     $var wire 32 o SUM [31:0] $end
    $upscope $end
    $scope module pc_src $end
     $var wire  1 * BranchE $end
     $var wire  1 ( JumpE $end
     $var wire  1 k PCSrcE $end
     $var wire  1 m ZeroE $end
     $var wire  1 p and_result $end
    $upscope $end
   $upscope $end
   $scope module top_fetch $end
    $var wire 32 % PCPlus4_F [31:0] $end
    $var wire 32 !! PCTarget_E [31:0] $end
    $var wire 32 $ PC_F [31:0] $end
    $var wire  1 k PCsrc_E $end
    $var wire 32 %! WIDTH [31:0] $end
    $var wire  1 | clk $end
    $var wire 32 # instr_F [31:0] $end
    $var wire 32 $! next_PC [31:0] $end
    $var wire  1 } rst $end
    $scope module PC_Reg $end
     $var wire 32 %! DATA_LENGTH [31:0] $end
     $var wire 32 $ PC [31:0] $end
     $var wire  1 | clk $end
     $var wire 32 $! next_PC [31:0] $end
     $var wire  1 } rst $end
    $upscope $end
    $scope module add_inc $end
     $var wire 32 %! DATA_LENGTH [31:0] $end
     $var wire 32 )! N [31:0] $end
     $var wire 32 $ in [31:0] $end
     $var wire 32 % out [31:0] $end
    $upscope $end
    $scope module instr_mem $end
     $var wire 32 $ A [31:0] $end
     $var wire 32 %! ADDRESS_WIDTH [31:0] $end
     $var wire 32 *! DATA_WIDTH [31:0] $end
     $var wire 32 %! INSTRUCTION_WIDTH [31:0] $end
     $var wire 32 # RD [31:0] $end
     $var wire  8 ? byte1 [7:0] $end
     $var wire  8 @ byte2 [7:0] $end
     $var wire  8 A byte3 [7:0] $end
     $var wire  8 B byte4 [7:0] $end
    $upscope $end
    $scope module mux $end
     $var wire 32 %! WIDTH [31:0] $end
     $var wire 32 % d_0 [31:0] $end
     $var wire 32 !! d_1 [31:0] $end
     $var wire 32 $! dout [31:0] $end
     $var wire  1 k s $end
    $upscope $end
   $upscope $end
   $scope module top_memory $end
    $var wire 32 l ALUResult_M [31:0] $end
    $var wire 32 %! WIDTH [31:0] $end
    $var wire  1 | clk $end
    $var wire 32 q dout [31:0] $end
    $var wire  1 H lb $end
    $var wire  1 G lh $end
    $var wire  1 F lw $end
    $var wire 32 "! readData_M [31:0] $end
    $var wire  1 - s $end
    $var wire  1 E sb $end
    $var wire  1 D sh $end
    $var wire  1 C sw $end
    $var wire 32 j writeData_M [31:0] $end
    $scope module hbw $end
     $var wire 32 *! BYTE_LEN [31:0] $end
     $var wire 32 %! CPU_WORD [31:0] $end
     $var wire 32 +! HALF_LEN [31:0] $end
     $var wire  8 u b [7:0] $end
     $var wire 32 s be [31:0] $end
     $var wire 32 q data [31:0] $end
     $var wire 32 "! dout [31:0] $end
     $var wire 16 t h [15:0] $end
     $var wire 32 r he [31:0] $end
     $var wire  1 H lb $end
     $var wire  1 G lh $end
     $var wire  1 F lw $end
     $var wire  1 - s $end
     $scope module h_e $end
      $var wire 32 +! HALF_LEN [31:0] $end
      $var wire 32 %! WORD_LENGTH [31:0] $end
      $var wire 16 t din [15:0] $end
      $var wire 32 r dout [31:0] $end
      $var wire  1 - s $end
      $var wire  1 v sign $end
     $upscope $end
     $scope module s_e $end
      $var wire 32 *! BYTE_LEN [31:0] $end
      $var wire 32 %! WORD_LENGTH [31:0] $end
      $var wire  8 u din [7:0] $end
      $var wire 32 s dout [31:0] $end
      $var wire  1 - s $end
      $var wire  1 w sign $end
     $upscope $end
    $upscope $end
    $scope module ram $end
     $var wire 32 %! ADDRESS_LENGTH [31:0] $end
     $var wire 32 *! WORD_LENGTH [31:0] $end
     $var wire 32 l a [31:0] $end
     $var wire  1 | clk $end
     $var wire  8 x d0 [7:0] $end
     $var wire  8 y d1 [7:0] $end
     $var wire  8 z d2 [7:0] $end
     $var wire  8 { d3 [7:0] $end
     $var wire 32 q rd [31:0] $end
     $var wire  1 E sb $end
     $var wire  1 D sh $end
     $var wire  1 C sw $end
     $var wire 32 j wd [31:0] $end
    $upscope $end
   $upscope $end
   $scope module top_writeback $end
    $var wire 32 l ALUResult_W [31:0] $end
    $var wire 32 % PCPlus4_W [31:0] $end
    $var wire 32 %! WIDTH [31:0] $end
    $var wire 32 "! readData_W [31:0] $end
    $var wire  2 . resultSrc_W [1:0] $end
    $var wire 32 #! result_W [31:0] $end
   $upscope $end
  $upscope $end
 $upscope $end
$enddefinitions $end


#0
b00000000000000000000000000000000 #
b00000000000000000000000000000000 $
b00000000000000000000000000000100 %
b00000000000000000000000000000000 &
0'
0(
0)
0*
0+
0,
0-
b00 .
b000 /
b000 0
b0000 1
b00000 2
b000 3
b000000000000 4
b00000000000000000000 5
b00000000000000000000 6
b0000000 7
b000 8
b0000000 9
b11 :
0;
b00000000000000000000000000000000 <
b00000 =
b00000 >
b00000000 ?
b00000000 @
b00000000 A
b00000000 B
0C
0D
0E
0F
0G
0H
b00000000000000000000000000000000 I
b00000000000000000000000000000000 J
b00000000000000000000000000000000 K
b00000000000000000000000000000000 L
b00000000000000000000000000000000 M
b00000000000000000000000000000000 N
b00000000000000000000000000000000 O
b00000000000000000000000000000000 P
b00000000000000000000000000000000 Q
b00000000000000000000000000000000 R
b00000000000000000000000000000000 S
b00000000000000000000000000000000 T
b00000000000000000000000000000000 U
b00000000000000000000000000000000 V
b00000000000000000000000000000000 W
b00000000000000000000000000000000 X
b00000000000000000000000000000000 Y
b00000000000000000000000000000000 Z
b00000000000000000000000000000000 [
b00000000000000000000000000000000 \
b00000000000000000000000000000000 ]
b00000000000000000000000000000000 ^
b00000000000000000000000000000000 _
b00000000000000000000000000000000 `
b00000000000000000000000000000000 a
b00000000000000000000000000000000 b
b00000000000000000000000000000000 c
b00000000000000000000000000000000 d
b00000000000000000000000000000000 e
b00000000000000000000000000000000 f
b00000000000000000000000000000000 g
b00000000000000000000000000000000 h
b00000000000000000000000000000000 i
b00000000000000000000000000000000 j
0k
b00000000000000000000000000000000 l
0m
b00000000000000000000000000000000 n
b00000000000000000000000000000000 o
0p
b00000000000000000000000000000000 q
b00000000000000000000000000000000 r
b00000000000000000000000000000000 s
b0000000000000000 t
b00000000 u
0v
0w
b00000000 x
b00000000 y
b00000000 z
b00000000 {
1|
0}
b00000000000000000000000000000000 ~
b00000000000000000000000000000000 !!
b00000000000000000000000000000000 "!
b00000000000000000000000000000000 #!
b00000000000000000000000000000100 $!
b00000000000000000000000000100000 %!
b00000000000000000000000000001100 &!
b00000000000000000000000000010100 '!
b00000000000000000000000000000101 (!
b00000000000000000000000000000100 )!
b00000000000000000000000000001000 *!
b00000000000000000000000000010000 +!
#1
b11101111000000000000000000000001 #
b11111111111111111111111011110000 &
b100 0
b111011110000 4
b0000001 7
b1110111 9
1;
b10000 >
b00000001 ?
b11101111 B
1F
1m
0|
b11111111111111111111110111100000 !!
#2
b11101111000000001000000000000001 #
b00000000000000000000000000000100 $
b00000000000000000000000000001000 %
b00001 =
b10000000 @
1|
b11111111111111111111110111100100 !!
b00000000000000000000000000001000 $!
#3
0|
#4
b00010011000001010000000000000000 #
b00000000000000000000000000001000 $
b00000000000000000000000000001100 %
b00000000000000000000000100110000 &
b000100110000 4
b0000000 7
b0001001 9
0;
b01010 =
b00000000 ?
b00000000 @
b00000101 A
b00010011 B
1|
b00000000000000000000001001101000 !!
b00000000000000000000000000001100 $!
#5
0|
#6
b11101111000000000000000000000000 #
b00000000000000000000000000001100 $
b00000000000000000000000000010000 %
b11111111111111111111111011110000 &
b111011110000 4
b1110111 9
1;
b00000 =
b00000000 A
b11101111 B
1|
b11111111111111111111110111101100 !!
b00000000000000000000000000010000 $!
#7
0|
#8
b00010011000001001111000000001111 #
b00000000000000000000000000010000 $
b00000000000000000000000000010100 %
b00000000000000000000000100110000 &
b0010 1
b000100110000 4
b0001111 7
b111 8
b0001001 9
0;
b01001 =
b00001111 ?
b11110000 @
b00000100 A
b00010011 B
1|
b00000000000000000000001001110000 !!
b00000000000000000000000000010100 $!
#9
0|
#10
b10010011000001001000000000000000 #
b00000000000000000000000000010100 $
b00000000000000000000000000011000 %
b11111111111111111111100100110000 &
b0000 1
b100100110000 4
b0000000 7
b000 8
b1001001 9
b00000000 ?
b10000000 @
b10010011 B
1|
b11111111111111111111001001110100 !!
b00000000000000000000000000011000 $!
#11
0|
#12
b11100111100000000000000000000000 #
b00000000000000000000000000011000 $
b00000000000000000000000000011100 %
b11111111111111111111111001111000 &
b111001111000 4
b1110011 9
1;
b00000 =
b11000 >
b00000000 @
b10000000 A
b11100111 B
1|
b11111111111111111111110100001000 !!
b00000000000000000000000000011100 $!
#13
0|
#14
b10010011000100100001010100000000 #
b00000000000000000000000000011100 $
b00000000000000000000000000100000 %
b11111111111111111111100100110001 &
b0001 1
b01010 2
b100100110001 4
b001 8
b1001001 9
0;
b00100 =
b10001 >
b00010101 @
b00010010 A
b10010011 B
0m
1|
b11111111111111111111001001111110 !!
b00000000000000000000000000100000 $!
#15
0|
#16
b00010011100001010001001000000000 #
b00000000000000000000000000100000 $
b00000000000000000000000000100100 %
b00000000000000000000000100111000 &
b00100 2
b000100111000 4
b0001001 9
b01010 =
b11000 >
b00010010 @
b10000101 A
b00010011 B
1|
b00000000000000000000001010010000 !!
b00000000000000000000000000100100 $!
#17
0|
#18
b10010011000000110000000000000000 #
b00000000000000000000000000100100 $
b00000000000000000000000000101000 %
b11111111111111111111100100110000 &
b0000 1
b00000 2
b100100110000 4
b000 8
b1001001 9
b00110 =
b10000 >
b00000000 @
b00000011 A
b10010011 B
1m
1|
b11111111111111111111001010000100 !!
b00000000000000000000000000101000 $!
#19
0|
#20
b01101111000000111100000000000000 #
b00000000000000000000000000101000 $
b00000000000000000000000000101100 %
b00000000000000000000011011110000 &
b1100 1
b011011110000 4
b100 8
b0110111 9
1;
b00111 =
b11000000 @
b01101111 B
0m
1|
b00000000000000000000111000001000 !!
b00000000000000000000000000101100 $!
#21
0|
#22
b11100011000110001000010111111110 #
b00000000000000000000000000101100 $
b00000000000000000000000000110000 %
b11111111111111111111111000110001 &
b0000 1
b01011 2
b111000110001 4
b1111110 7
b000 8
b1110001 9
b10001 =
b10001 >
b11111110 ?
b10000101 @
b00011000 A
b11100011 B
1m
1|
b11111111111111111111110010001110 !!
b00000000000000000000000000110000 $!
#23
0|
#24
b11100111100000000000000000000000 #
b00000000000000000000000000110000 $
b00000000000000000000000000110100 %
b11111111111111111111111001111000 &
b00000 2
b111001111000 4
b0000000 7
b1110011 9
b00000 =
b11000 >
b00000000 ?
b00000000 @
b10000000 A
b11100111 B
1|
b11111111111111111111110100100000 !!
b00000000000000000000000000110100 $!
#25
0|
#26
b10010011100000110001001100000000 #
b00000000000000000000000000110100 $
b00000000000000000000000000111000 %
b11111111111111111111100100111000 &
b0001 1
b00110 2
b100100111000 4
b001 8
b1001001 9
0;
b00110 =
b00010011 @
b10000011 A
b10010011 B
0m
1|
b11111111111111111111001010100100 !!
b00000000000000000000000000111000 $!
#27
0|
#28
b11100011100111101001001111111110 #
b00000000000000000000000000111000 $
b00000000000000000000000000111100 %
b11111111111111111111111000111001 &
b1001 1
b00111 2
b111000111001 4
b1111110 7
b1110001 9
1;
b11101 =
b11001 >
b11111110 ?
b10010011 @
b10011110 A
b11100011 B
1|
b11111111111111111111110010101010 !!
b00000000000000000000000000111100 $!
#29
0|
#30
b00000000000000110000001100000000 #
b00000000000000000000000000111100 $
b00000000000000000000000001000000 %
b00000000000000000000000000000000 &
b0000 1
b00110 2
b000000000000 4
b0000000 7
b000 8
b0000000 9
0;
b00110 =
b00000 >
b00000000 ?
b00000011 @
b00000011 A
b00000000 B
1m
1|
b00000000000000000000000000111100 !!
b00000000000000000000000001000000 $!
#31
0|
#32
b00000000000000000000000000000000 #
b00000000000000000000000001000000 $
b00000000000000000000000001000100 %
b00000 2
b00000 =
b00000000 @
b00000000 A
1|
b00000000000000000000000001000000 !!
b00000000000000000000000001000100 $!
#33
0|
#34
b00000000000000000000000001000100 $
b00000000000000000000000001001000 %
1|
b00000000000000000000000001000100 !!
b00000000000000000000000001001000 $!
#35
0|
#36
b00000000000000000000000001001000 $
b00000000000000000000000001001100 %
1|
b00000000000000000000000001001000 !!
b00000000000000000000000001001100 $!
#37
0|
#38
b00000000000000000000000001001100 $
b00000000000000000000000001010000 %
1|
b00000000000000000000000001001100 !!
b00000000000000000000000001010000 $!
#39
0|
#40
b00000000000000000000000001010000 $
b00000000000000000000000001010100 %
1|
b00000000000000000000000001010000 !!
b00000000000000000000000001010100 $!
#41
0|
#42
b00000000000000000000000001010100 $
b00000000000000000000000001011000 %
1|
b00000000000000000000000001010100 !!
b00000000000000000000000001011000 $!
#43
0|
#44
b00000000000000000000000001011000 $
b00000000000000000000000001011100 %
1|
b00000000000000000000000001011000 !!
b00000000000000000000000001011100 $!
#45
0|
#46
b00000000000000000000000001011100 $
b00000000000000000000000001100000 %
1|
b00000000000000000000000001011100 !!
b00000000000000000000000001100000 $!
#47
0|
#48
b00000000000000000000000001100000 $
b00000000000000000000000001100100 %
1|
b00000000000000000000000001100000 !!
b00000000000000000000000001100100 $!
#49
0|
#50
b00000000000000000000000001100100 $
b00000000000000000000000001101000 %
1|
b00000000000000000000000001100100 !!
b00000000000000000000000001101000 $!
#51
0|
#52
b00000000000000000000000001101000 $
b00000000000000000000000001101100 %
1|
b00000000000000000000000001101000 !!
b00000000000000000000000001101100 $!
#53
0|
#54
b00000000000000000000000001101100 $
b00000000000000000000000001110000 %
1|
b00000000000000000000000001101100 !!
b00000000000000000000000001110000 $!
#55
0|
#56
b00000000000000000000000001110000 $
b00000000000000000000000001110100 %
1|
b00000000000000000000000001110000 !!
b00000000000000000000000001110100 $!
#57
0|
#58
b00000000000000000000000001110100 $
b00000000000000000000000001111000 %
1|
b00000000000000000000000001110100 !!
b00000000000000000000000001111000 $!
#59
0|
#60
b00000000000000000000000001111000 $
b00000000000000000000000001111100 %
1|
b00000000000000000000000001111000 !!
b00000000000000000000000001111100 $!
#61
0|
#62
b00000000000000000000000001111100 $
b00000000000000000000000010000000 %
1|
b00000000000000000000000001111100 !!
b00000000000000000000000010000000 $!
#63
0|
#64
b00000000000000000000000010000000 $
b00000000000000000000000010000100 %
1|
b00000000000000000000000010000000 !!
b00000000000000000000000010000100 $!
#65
0|
#66
b00000000000000000000000010000100 $
b00000000000000000000000010001000 %
1|
b00000000000000000000000010000100 !!
b00000000000000000000000010001000 $!
#67
0|
#68
b00000000000000000000000010001000 $
b00000000000000000000000010001100 %
1|
b00000000000000000000000010001000 !!
b00000000000000000000000010001100 $!
#69
0|
#70
b00000000000000000000000010001100 $
b00000000000000000000000010010000 %
1|
b00000000000000000000000010001100 !!
b00000000000000000000000010010000 $!
#71
0|
#72
b00000000000000000000000010010000 $
b00000000000000000000000010010100 %
1|
b00000000000000000000000010010000 !!
b00000000000000000000000010010100 $!
#73
0|
#74
b00000000000000000000000010010100 $
b00000000000000000000000010011000 %
1|
b00000000000000000000000010010100 !!
b00000000000000000000000010011000 $!
#75
0|
#76
b00000000000000000000000010011000 $
b00000000000000000000000010011100 %
1|
b00000000000000000000000010011000 !!
b00000000000000000000000010011100 $!
#77
0|
#78
b00000000000000000000000010011100 $
b00000000000000000000000010100000 %
1|
b00000000000000000000000010011100 !!
b00000000000000000000000010100000 $!
#79
0|
#80
b00000000000000000000000010100000 $
b00000000000000000000000010100100 %
1|
b00000000000000000000000010100000 !!
b00000000000000000000000010100100 $!
#81
0|
#82
b00000000000000000000000010100100 $
b00000000000000000000000010101000 %
1|
b00000000000000000000000010100100 !!
b00000000000000000000000010101000 $!
#83
0|
#84
b00000000000000000000000010101000 $
b00000000000000000000000010101100 %
1|
b00000000000000000000000010101000 !!
b00000000000000000000000010101100 $!
#85
0|
#86
b00000000000000000000000010101100 $
b00000000000000000000000010110000 %
1|
b00000000000000000000000010101100 !!
b00000000000000000000000010110000 $!
#87
0|
#88
b00000000000000000000000010110000 $
b00000000000000000000000010110100 %
1|
b00000000000000000000000010110000 !!
b00000000000000000000000010110100 $!
#89
0|
#90
b00000000000000000000000010110100 $
b00000000000000000000000010111000 %
1|
b00000000000000000000000010110100 !!
b00000000000000000000000010111000 $!
#91
0|
#92
b00000000000000000000000010111000 $
b00000000000000000000000010111100 %
1|
b00000000000000000000000010111000 !!
b00000000000000000000000010111100 $!
#93
0|
#94
b00000000000000000000000010111100 $
b00000000000000000000000011000000 %
1|
b00000000000000000000000010111100 !!
b00000000000000000000000011000000 $!
#95
0|
#96
b00000000000000000000000011000000 $
b00000000000000000000000011000100 %
1|
b00000000000000000000000011000000 !!
b00000000000000000000000011000100 $!
#97
0|
#98
b00000000000000000000000011000100 $
b00000000000000000000000011001000 %
1|
b00000000000000000000000011000100 !!
b00000000000000000000000011001000 $!
#99
0|
#100
b00000000000000000000000011001000 $
b00000000000000000000000011001100 %
1|
b00000000000000000000000011001000 !!
b00000000000000000000000011001100 $!
#101
0|
#102
b00000000000000000000000011001100 $
b00000000000000000000000011010000 %
1|
b00000000000000000000000011001100 !!
b00000000000000000000000011010000 $!
#103
0|
#104
b00000000000000000000000011010000 $
b00000000000000000000000011010100 %
1|
b00000000000000000000000011010000 !!
b00000000000000000000000011010100 $!
#105
0|
#106
b00000000000000000000000011010100 $
b00000000000000000000000011011000 %
1|
b00000000000000000000000011010100 !!
b00000000000000000000000011011000 $!
#107
0|
#108
b00000000000000000000000011011000 $
b00000000000000000000000011011100 %
1|
b00000000000000000000000011011000 !!
b00000000000000000000000011011100 $!
#109
0|
#110
b00000000000000000000000011011100 $
b00000000000000000000000011100000 %
1|
b00000000000000000000000011011100 !!
b00000000000000000000000011100000 $!
#111
0|
#112
b00000000000000000000000011100000 $
b00000000000000000000000011100100 %
1|
b00000000000000000000000011100000 !!
b00000000000000000000000011100100 $!
#113
0|
#114
b00000000000000000000000011100100 $
b00000000000000000000000011101000 %
1|
b00000000000000000000000011100100 !!
b00000000000000000000000011101000 $!
#115
0|
#116
b00000000000000000000000011101000 $
b00000000000000000000000011101100 %
1|
b00000000000000000000000011101000 !!
b00000000000000000000000011101100 $!
#117
0|
#118
b00000000000000000000000011101100 $
b00000000000000000000000011110000 %
1|
b00000000000000000000000011101100 !!
b00000000000000000000000011110000 $!
#119
0|
#120
b00000000000000000000000011110000 $
b00000000000000000000000011110100 %
1|
b00000000000000000000000011110000 !!
b00000000000000000000000011110100 $!
#121
0|
#122
b00000000000000000000000011110100 $
b00000000000000000000000011111000 %
1|
b00000000000000000000000011110100 !!
b00000000000000000000000011111000 $!
#123
0|
#124
b00000000000000000000000011111000 $
b00000000000000000000000011111100 %
1|
b00000000000000000000000011111000 !!
b00000000000000000000000011111100 $!
#125
0|
#126
b00000000000000000000000011111100 $
b00000000000000000000000100000000 %
1|
b00000000000000000000000011111100 !!
b00000000000000000000000100000000 $!
#127
0|
#128
b00000000000000000000000100000000 $
b00000000000000000000000100000100 %
1|
b00000000000000000000000100000000 !!
b00000000000000000000000100000100 $!
#129
0|
#130
b00000000000000000000000100000100 $
b00000000000000000000000100001000 %
1|
b00000000000000000000000100000100 !!
b00000000000000000000000100001000 $!
#131
0|
#132
b00000000000000000000000100001000 $
b00000000000000000000000100001100 %
1|
b00000000000000000000000100001000 !!
b00000000000000000000000100001100 $!
#133
0|
#134
b00000000000000000000000100001100 $
b00000000000000000000000100010000 %
1|
b00000000000000000000000100001100 !!
b00000000000000000000000100010000 $!
#135
0|
#136
b00000000000000000000000100010000 $
b00000000000000000000000100010100 %
1|
b00000000000000000000000100010000 !!
b00000000000000000000000100010100 $!
#137
0|
#138
b00000000000000000000000100010100 $
b00000000000000000000000100011000 %
1|
b00000000000000000000000100010100 !!
b00000000000000000000000100011000 $!
#139
0|
#140
b00000000000000000000000100011000 $
b00000000000000000000000100011100 %
1|
b00000000000000000000000100011000 !!
b00000000000000000000000100011100 $!
#141
0|
#142
b00000000000000000000000100011100 $
b00000000000000000000000100100000 %
1|
b00000000000000000000000100011100 !!
b00000000000000000000000100100000 $!
#143
0|
#144
b00000000000000000000000100100000 $
b00000000000000000000000100100100 %
1|
b00000000000000000000000100100000 !!
b00000000000000000000000100100100 $!
#145
0|
#146
b00000000000000000000000100100100 $
b00000000000000000000000100101000 %
1|
b00000000000000000000000100100100 !!
b00000000000000000000000100101000 $!
#147
0|
#148
b00000000000000000000000100101000 $
b00000000000000000000000100101100 %
1|
b00000000000000000000000100101000 !!
b00000000000000000000000100101100 $!
#149
0|
#150
b00000000000000000000000100101100 $
b00000000000000000000000100110000 %
1|
b00000000000000000000000100101100 !!
b00000000000000000000000100110000 $!
#151
0|
#152
b00000000000000000000000100110000 $
b00000000000000000000000100110100 %
1|
b00000000000000000000000100110000 !!
b00000000000000000000000100110100 $!
#153
0|
#154
b00000000000000000000000100110100 $
b00000000000000000000000100111000 %
1|
b00000000000000000000000100110100 !!
b00000000000000000000000100111000 $!
#155
0|
#156
b00000000000000000000000100111000 $
b00000000000000000000000100111100 %
1|
b00000000000000000000000100111000 !!
b00000000000000000000000100111100 $!
#157
0|
#158
b00000000000000000000000100111100 $
b00000000000000000000000101000000 %
1|
b00000000000000000000000100111100 !!
b00000000000000000000000101000000 $!
#159
0|
#160
b00000000000000000000000101000000 $
b00000000000000000000000101000100 %
1|
b00000000000000000000000101000000 !!
b00000000000000000000000101000100 $!
#161
0|
#162
b00000000000000000000000101000100 $
b00000000000000000000000101001000 %
1|
b00000000000000000000000101000100 !!
b00000000000000000000000101001000 $!
#163
0|
#164
b00000000000000000000000101001000 $
b00000000000000000000000101001100 %
1|
b00000000000000000000000101001000 !!
b00000000000000000000000101001100 $!
#165
0|
#166
b00000000000000000000000101001100 $
b00000000000000000000000101010000 %
1|
b00000000000000000000000101001100 !!
b00000000000000000000000101010000 $!
#167
0|
#168
b00000000000000000000000101010000 $
b00000000000000000000000101010100 %
1|
b00000000000000000000000101010000 !!
b00000000000000000000000101010100 $!
#169
0|
#170
b00000000000000000000000101010100 $
b00000000000000000000000101011000 %
1|
b00000000000000000000000101010100 !!
b00000000000000000000000101011000 $!
#171
0|
#172
b00000000000000000000000101011000 $
b00000000000000000000000101011100 %
1|
b00000000000000000000000101011000 !!
b00000000000000000000000101011100 $!
#173
0|
#174
b00000000000000000000000101011100 $
b00000000000000000000000101100000 %
1|
b00000000000000000000000101011100 !!
b00000000000000000000000101100000 $!
#175
0|
