test/top_f1.vcd
$version Generated by VerilatedVcd $end
$date Fri Dec 16 22:50:35 2022 $end
$timescale 1ps $end

 $scope module TOP $end
  $var wire 32 ~ a0 [31:0] $end
  $var wire  1 | clk $end
  $var wire  1 } rst $end
  $scope module top $end
   $var wire 32 l ALUResult [31:0] $end
   $var wire  4 1 ALUctrl [3:0] $end
   $var wire  1 ) ALUsrc $end
   $var wire  3 0 DMem_size [2:0] $end
   $var wire 32 & ImmExt [31:0] $end
   $var wire 32 $ PC [31:0] $end
   $var wire 32 % PCPlus4 [31:0] $end
   $var wire 32 !! PCTarget [31:0] $end
   $var wire  1 k PCsrc $end
   $var wire 32 i RD1 [31:0] $end
   $var wire 32 j RD2 [31:0] $end
   $var wire  3 / R_size [2:0] $end
   $var wire  5 2 Rd [4:0] $end
   $var wire 32 %! WIDTH [31:0] $end
   $var wire 32 ~ a0 [31:0] $end
   $var wire  1 * branch $end
   $var wire  1 | clk $end
   $var wire 32 # instr [31:0] $end
   $var wire  1 + jalr $end
   $var wire  1 ( jump $end
   $var wire  1 - load_extend_s $end
   $var wire  1 , lui $end
   $var wire 32 "! readData [31:0] $end
   $var wire  1 ' regWrite $end
   $var wire 32 #! result [31:0] $end
   $var wire  2 . resultSrc [1:0] $end
   $var wire  1 } rst $end
   $var wire 32 j writeData [31:0] $end
   $scope module top_decode $end
    $var wire  4 1 ALUctrl_D [3:0] $end
    $var wire  1 ) ALUsrc_D $end
    $var wire  3 0 DMem_size_D [2:0] $end
    $var wire 32 & ImmExt_D [31:0] $end
    $var wire  3 3 ImmSrc_D [2:0] $end
    $var wire 32 i RD1_D [31:0] $end
    $var wire 32 j RD2_D [31:0] $end
    $var wire  3 / R_size_D [2:0] $end
    $var wire  5 2 Rd_D [4:0] $end
    $var wire  5 2 Rd_W [4:0] $end
    $var wire 32 %! WIDTH [31:0] $end
    $var wire 32 ~ a0 [31:0] $end
    $var wire  1 * branch_D $end
    $var wire  1 | clk $end
    $var wire 32 # instr_D [31:0] $end
    $var wire  1 + jalr $end
    $var wire  1 ( jump_D $end
    $var wire  1 - load_extend_s $end
    $var wire  1 , lui $end
    $var wire  1 ' regWrite_D $end
    $var wire  1 ' regWrite_W $end
    $var wire  2 . resultSrc_D [1:0] $end
    $var wire 32 #! result_W [31:0] $end
    $var wire  1 } rst $end
    $scope module SignExtend $end
     $var wire 32 & ImmExtD [31:0] $end
     $var wire  3 3 ImmSrcD [2:0] $end
     $var wire 32 # InstrD [31:0] $end
     $var wire 32 %! data_width [31:0] $end
     $var wire 32 &! imm_width1 [31:0] $end
     $var wire 32 '! imm_width2 [31:0] $end
     $var wire 32 '! imm_width3 [31:0] $end
     $scope module unnamedblk1 $end
      $var wire 12 4 imm_type_1 [11:0] $end
      $var wire 20 6 imm_type_jal [19:0] $end
      $var wire 20 5 imm_type_lui [19:0] $end
      $var wire  7 7 opcode [6:0] $end
     $upscope $end
    $upscope $end
    $scope module control_unit $end
     $var wire  4 1 ALUControlD [3:0] $end
     $var wire  1 ) ALUsrcD $end
     $var wire  1 * BranchD $end
     $var wire  3 0 DMem_size [2:0] $end
     $var wire  3 3 ImmSrcD [2:0] $end
     $var wire  1 ( JumpD $end
     $var wire  3 / R_size [2:0] $end
     $var wire  1 ' RegWriteD $end
     $var wire  2 . ResultSrcD [1:0] $end
     $var wire  3 8 funct3 [2:0] $end
     $var wire  7 9 funct7 [6:0] $end
     $var wire  2 : instr_type [1:0] $end
     $var wire  1 + jalr $end
     $var wire  1 - load_extend_s $end
     $var wire  1 , lui $end
     $var wire  7 7 opcode [6:0] $end
     $scope module alu_control $end
      $var wire  4 1 ALUControlD [3:0] $end
      $var wire  2 : ALUOp [1:0] $end
      $var wire  3 8 funct3 [2:0] $end
      $var wire  1 ; funct7_bit $end
     $upscope $end
     $scope module main_control $end
      $var wire  2 : ALUOp [1:0] $end
      $var wire  1 ) ALUsrcD $end
      $var wire  1 * BranchD $end
      $var wire  3 0 DMem_size [2:0] $end
      $var wire  3 3 ImmSrcD [2:0] $end
      $var wire  1 ( JumpD $end
      $var wire  3 / R_size [2:0] $end
      $var wire  1 ' RegWriteD $end
      $var wire  2 . ResultSrcD [1:0] $end
      $var wire  3 8 funct3 [14:12] $end
      $var wire 32 < instr [31:0] $end
      $var wire  1 + jalr_o $end
      $var wire  1 - load_extend_s $end
      $var wire  1 , lui_o $end
      $var wire  7 7 opcode [6:0] $end
     $upscope $end
    $upscope $end
    $scope module register $end
     $var wire 32 (! ADDRESS_WIDTH [31:0] $end
     $var wire 32 %! DATA_WIDTH [31:0] $end
     $var wire 32 i RD1 [31:0] $end
     $var wire 32 j RD2 [31:0] $end
     $var wire 32 #! WD3 [31:0] $end
     $var wire  1 ' WE3 $end
     $var wire 32 ~ a0 [31:0] $end
     $var wire  1 | clk $end
     $var wire 32 h i [31:0] $end
     $var wire  5 2 rd [4:0] $end
     $var wire 32 R reg_array[10] [31:0] $end
     $var wire 32 S reg_array[11] [31:0] $end
     $var wire 32 T reg_array[12] [31:0] $end
     $var wire 32 U reg_array[13] [31:0] $end
     $var wire 32 V reg_array[14] [31:0] $end
     $var wire 32 W reg_array[15] [31:0] $end
     $var wire 32 X reg_array[16] [31:0] $end
     $var wire 32 Y reg_array[17] [31:0] $end
     $var wire 32 Z reg_array[18] [31:0] $end
     $var wire 32 [ reg_array[19] [31:0] $end
     $var wire 32 I reg_array[1] [31:0] $end
     $var wire 32 \ reg_array[20] [31:0] $end
     $var wire 32 ] reg_array[21] [31:0] $end
     $var wire 32 ^ reg_array[22] [31:0] $end
     $var wire 32 _ reg_array[23] [31:0] $end
     $var wire 32 ` reg_array[24] [31:0] $end
     $var wire 32 a reg_array[25] [31:0] $end
     $var wire 32 b reg_array[26] [31:0] $end
     $var wire 32 c reg_array[27] [31:0] $end
     $var wire 32 d reg_array[28] [31:0] $end
     $var wire 32 e reg_array[29] [31:0] $end
     $var wire 32 J reg_array[2] [31:0] $end
     $var wire 32 f reg_array[30] [31:0] $end
     $var wire 32 g reg_array[31] [31:0] $end
     $var wire 32 K reg_array[3] [31:0] $end
     $var wire 32 L reg_array[4] [31:0] $end
     $var wire 32 M reg_array[5] [31:0] $end
     $var wire 32 N reg_array[6] [31:0] $end
     $var wire 32 O reg_array[7] [31:0] $end
     $var wire 32 P reg_array[8] [31:0] $end
     $var wire 32 Q reg_array[9] [31:0] $end
     $var wire  5 = rs1 [4:0] $end
     $var wire  5 > rs2 [4:0] $end
     $var wire  1 } rst $end
    $upscope $end
   $upscope $end
   $scope module top_execute $end
    $var wire  4 1 ALUctrl [3:0] $end
    $var wire 32 n ALUop2 [31:0] $end
    $var wire 32 o ALUout1 [31:0] $end
    $var wire 32 l ALUout2 [31:0] $end
    $var wire  1 ) ALUsrc $end
    $var wire 32 %! DATA_WIDTH [31:0] $end
    $var wire  1 m EQ $end
    $var wire 32 & ImmOp [31:0] $end
    $var wire 32 !! PCTarget_E [31:0] $end
    $var wire 32 $ PC_E [31:0] $end
    $var wire  1 k PCsrc_E $end
    $var wire 32 i RD1 [31:0] $end
    $var wire 32 j RD2 [31:0] $end
    $var wire  1 * branch_E $end
    $var wire  1 + jalr $end
    $var wire  1 ( jump_E $end
    $var wire  1 , lui $end
    $var wire 32 j writeData_E [31:0] $end
    $scope module ALU $end
     $var wire  4 1 ALUctrl [3:0] $end
     $var wire 32 i ALUop1 [31:0] $end
     $var wire 32 n ALUop2 [31:0] $end
     $var wire 32 %! DATA_WIDTH [31:0] $end
     $var wire  1 m EQ $end
     $var wire 32 o SUM [31:0] $end
    $upscope $end
    $scope module pc_src $end
     $var wire  1 * BranchE $end
     $var wire  1 ( JumpE $end
     $var wire  1 k PCSrcE $end
     $var wire  1 m ZeroE $end
     $var wire  1 p and_result $end
    $upscope $end
   $upscope $end
   $scope module top_fetch $end
    $var wire 32 % PCPlus4_F [31:0] $end
    $var wire 32 !! PCTarget_E [31:0] $end
    $var wire 32 $ PC_F [31:0] $end
    $var wire  1 k PCsrc_E $end
    $var wire 32 %! WIDTH [31:0] $end
    $var wire  1 | clk $end
    $var wire 32 # instr_F [31:0] $end
    $var wire 32 $! next_PC [31:0] $end
    $var wire  1 } rst $end
    $scope module PC_Reg $end
     $var wire 32 %! DATA_LENGTH [31:0] $end
     $var wire 32 $ PC [31:0] $end
     $var wire  1 | clk $end
     $var wire 32 $! next_PC [31:0] $end
     $var wire  1 } rst $end
    $upscope $end
    $scope module add_inc $end
     $var wire 32 %! DATA_LENGTH [31:0] $end
     $var wire 32 )! N [31:0] $end
     $var wire 32 $ in [31:0] $end
     $var wire 32 % out [31:0] $end
    $upscope $end
    $scope module instr_mem $end
     $var wire 32 $ A [31:0] $end
     $var wire 32 %! ADDRESS_WIDTH [31:0] $end
     $var wire 32 *! DATA_WIDTH [31:0] $end
     $var wire 32 %! INSTRUCTION_WIDTH [31:0] $end
     $var wire 32 # RD [31:0] $end
     $var wire  8 ? byte1 [7:0] $end
     $var wire  8 @ byte2 [7:0] $end
     $var wire  8 A byte3 [7:0] $end
     $var wire  8 B byte4 [7:0] $end
    $upscope $end
    $scope module mux $end
     $var wire 32 %! WIDTH [31:0] $end
     $var wire 32 % d_0 [31:0] $end
     $var wire 32 !! d_1 [31:0] $end
     $var wire 32 $! dout [31:0] $end
     $var wire  1 k s $end
    $upscope $end
   $upscope $end
   $scope module top_memory $end
    $var wire 32 l ALUResult_M [31:0] $end
    $var wire 32 %! WIDTH [31:0] $end
    $var wire  1 | clk $end
    $var wire 32 q dout [31:0] $end
    $var wire  1 H lb $end
    $var wire  1 G lh $end
    $var wire  1 F lw $end
    $var wire 32 "! readData_M [31:0] $end
    $var wire  1 - s $end
    $var wire  1 E sb $end
    $var wire  1 D sh $end
    $var wire  1 C sw $end
    $var wire 32 j writeData_M [31:0] $end
    $scope module hbw $end
     $var wire 32 *! BYTE_LEN [31:0] $end
     $var wire 32 %! CPU_WORD [31:0] $end
     $var wire 32 +! HALF_LEN [31:0] $end
     $var wire  8 u b [7:0] $end
     $var wire 32 s be [31:0] $end
     $var wire 32 q data [31:0] $end
     $var wire 32 "! dout [31:0] $end
     $var wire 16 t h [15:0] $end
     $var wire 32 r he [31:0] $end
     $var wire  1 H lb $end
     $var wire  1 G lh $end
     $var wire  1 F lw $end
     $var wire  1 - s $end
     $scope module h_e $end
      $var wire 32 +! HALF_LEN [31:0] $end
      $var wire 32 %! WORD_LENGTH [31:0] $end
      $var wire 16 t din [15:0] $end
      $var wire 32 r dout [31:0] $end
      $var wire  1 - s $end
      $var wire  1 v sign $end
     $upscope $end
     $scope module s_e $end
      $var wire 32 *! BYTE_LEN [31:0] $end
      $var wire 32 %! WORD_LENGTH [31:0] $end
      $var wire  8 u din [7:0] $end
      $var wire 32 s dout [31:0] $end
      $var wire  1 - s $end
      $var wire  1 w sign $end
     $upscope $end
    $upscope $end
    $scope module ram $end
     $var wire 32 %! ADDRESS_LENGTH [31:0] $end
     $var wire 32 *! WORD_LENGTH [31:0] $end
     $var wire 32 l a [31:0] $end
     $var wire  1 | clk $end
     $var wire  8 x d0 [7:0] $end
     $var wire  8 y d1 [7:0] $end
     $var wire  8 z d2 [7:0] $end
     $var wire  8 { d3 [7:0] $end
     $var wire 32 q rd [31:0] $end
     $var wire  1 E sb $end
     $var wire  1 D sh $end
     $var wire  1 C sw $end
     $var wire 32 j wd [31:0] $end
    $upscope $end
   $upscope $end
   $scope module top_writeback $end
    $var wire 32 l ALUResult_W [31:0] $end
    $var wire 32 % PCPlus4_W [31:0] $end
    $var wire 32 %! WIDTH [31:0] $end
    $var wire 32 "! readData_W [31:0] $end
    $var wire  2 . resultSrc_W [1:0] $end
    $var wire 32 #! result_W [31:0] $end
   $upscope $end
  $upscope $end
 $upscope $end
$enddefinitions $end


#0
b00000000000000000000000000000000 #
b00000000000000000000000000000000 $
b00000000000000000000000000000100 %
b00000000000000000000000000000000 &
0'
0(
0)
0*
0+
0,
0-
b00 .
b000 /
b000 0
b0000 1
b00000 2
b000 3
b000000000000 4
b00000000000000000000 5
b00000000000000000000 6
b0000000 7
b000 8
b0000000 9
b11 :
0;
b00000000000000000000000000000000 <
b00000 =
b00000 >
b00000000 ?
b00000000 @
b00000000 A
b00000000 B
0C
0D
0E
0F
0G
0H
b00000000000000000000000000000000 I
b00000000000000000000000000000000 J
b00000000000000000000000000000000 K
b00000000000000000000000000000000 L
b00000000000000000000000000000000 M
b00000000000000000000000000000000 N
b00000000000000000000000000000000 O
b00000000000000000000000000000000 P
b00000000000000000000000000000000 Q
b00000000000000000000000000000000 R
b00000000000000000000000000000000 S
b00000000000000000000000000000000 T
b00000000000000000000000000000000 U
b00000000000000000000000000000000 V
b00000000000000000000000000000000 W
b00000000000000000000000000000000 X
b00000000000000000000000000000000 Y
b00000000000000000000000000000000 Z
b00000000000000000000000000000000 [
b00000000000000000000000000000000 \
b00000000000000000000000000000000 ]
b00000000000000000000000000000000 ^
b00000000000000000000000000000000 _
b00000000000000000000000000000000 `
b00000000000000000000000000000000 a
b00000000000000000000000000000000 b
b00000000000000000000000000000000 c
b00000000000000000000000000000000 d
b00000000000000000000000000000000 e
b00000000000000000000000000000000 f
b00000000000000000000000000000000 g
b00000000000000000000000000000000 h
b00000000000000000000000000000000 i
b00000000000000000000000000000000 j
0k
b00000000000000000000000000000000 l
0m
b00000000000000000000000000000000 n
b00000000000000000000000000000000 o
0p
b00000000000000000000000000000000 q
b00000000000000000000000000000000 r
b00000000000000000000000000000000 s
b0000000000000000 t
b00000000 u
0v
0w
b00000000 x
b00000000 y
b00000000 z
b00000000 {
1|
0}
b00000000000000000000000000000000 ~
b00000000000000000000000000000000 !!
b00000000000000000000000000000000 "!
b00000000000000000000000000000000 #!
b00000000000000000000000000000100 $!
b00000000000000000000000000100000 %!
b00000000000000000000000000001100 &!
b00000000000000000000000000010100 '!
b00000000000000000000000000000101 (!
b00000000000000000000000000000100 )!
b00000000000000000000000000001000 *!
b00000000000000000000000000010000 +!
#1
b00000001000000000000000011101111 #
b00000000000000000000000000001000 &
1'
1(
b10 .
b100 0
b00001 2
b100 3
b00000000000000001000 6
b1101111 7
b00000000000000000000000000001000 <
b10000 >
b11101111 ?
b00000001 B
1F
1k
1m
0|
b00000000000000000000000000010000 !!
b00000000000000000000000000000100 #!
b00000000000000000000000000010000 $!
#2
b00000000111100000000010000010011 #
b00000000000000000000000000010000 $
b00000000000000000000000000010100 %
b00000000000000000000000000001111 &
0(
1)
b00 .
b01000 2
b000 3
b000000001111 4
b00000000000000000000 6
b0010011 7
b00000000000000000000000000000010 <
b01111 >
b00010011 ?
b00000100 @
b11110000 A
b00000000 B
0k
b00000000000000000000000000001111 l
0m
b00000000000000000000000000001111 n
b00000000000000000000000000001111 o
1|
b00000000000000000000000000101110 !!
b00000000000000000000000000001111 #!
b00000000000000000000000000010100 $!
#3
b00000000000000000000000000001111 P
0|
#4
b00000000100000000000010010010011 #
b00000000000000000000000000010100 $
b00000000000000000000000000011000 %
b00000000000000000000000000001000 &
b01001 2
b000000001000 4
b01000 >
b10010011 ?
b10000000 A
b00000000000000000000000000001000 l
b00000000000000000000000000001000 n
b00000000000000000000000000001000 o
1|
b00000000000000000000000000100100 !!
b00000000000000000000000000001000 #!
b00000000000000000000000000011000 $!
#5
b00000000000000000000000000001000 Q
0|
#6
b00000000000000001000000011100111 #
b00000000000000000000000000011000 $
b00000000000000000000000000011100 %
b00000000000000000000000000000000 &
1(
0)
1+
b10 .
b00001 2
b000000000000 4
b1100111 7
b00000000000000000000000000001001 <
b00001 =
b00000 >
b11100111 ?
b10000000 @
b00000000 A
1k
b00000000000000000000000000000000 l
1m
b00000000000000000000000000000000 n
b00000000000000000000000000000000 o
1|
b00000000000000000000000000000000 !!
b00000000000000000000000000011100 #!
b00000000000000000000000000000000 $!
#7
b00000000000000000000000000011100 I
b00000000000000000000000000011100 i
b00000000000000000000000000011100 l
0m
b00000000000000000000000000011100 o
0|
b00000000000000000000000000011100 !!
b00000000000000000000000000011100 $!
#8
b00000000000101010001001010010011 #
b00000000000000000000000000011100 $
b00000000000000000000000000100000 %
b00000000000000000000000000000001 &
0(
1)
0+
b00 .
b0001 1
b00101 2
b000000000001 4
b0010011 7
b001 8
b00000000000000000000000000000011 <
b01010 =
b00001 >
b10010011 ?
b00010010 @
b00010101 A
b00000000000000000000000000000000 i
b00000000000000000000000000011100 j
0k
b00000000000000000000000000000000 l
1m
b00000000000000000000000000000001 n
b00000000000000000000000000000000 o
b00011100 x
1|
b00000000000000000000000000011110 !!
b00000000000000000000000000000000 #!
b00000000000000000000000000100000 $!
#9
0|
#10
b00000000000100101000010100010011 #
b00000000000000000000000000100000 $
b00000000000000000000000000100100 %
b0000 1
b01010 2
b000 8
b00000000000000000000000000000010 <
b00101 =
b00010011 ?
b10000101 @
b00010010 A
b00000000000000000000000000000001 l
0m
b00000000000000000000000000000001 o
1|
b00000000000000000000000000100010 !!
b00000000000000000000000000000001 #!
b00000000000000000000000000100100 $!
#11
b00000000000000000000000000000001 R
0|
b00000000000000000000000000000001 ~
#12
b00000000000000000000001110010011 #
b00000000000000000000000000100100 $
b00000000000000000000000000101000 %
b00000000000000000000000000000000 &
b00111 2
b000000000000 4
b00000 =
b00000 >
b10010011 ?
b00000011 @
b00000000 A
b00000000000000000000000000000000 j
b00000000000000000000000000000000 l
1m
b00000000000000000000000000000000 n
b00000000000000000000000000000000 o
b00000000 x
1|
b00000000000000000000000000100100 !!
b00000000000000000000000000000000 #!
b00000000000000000000000000101000 $!
#13
0|
#14
b00000000110000000000001101101111 #
b00000000000000000000000000101000 $
b00000000000000000000000000101100 %
b00000000000000000000000000000110 &
1(
0)
b10 .
b00110 2
b100 3
b00000000000000000110 6
b1101111 7
b00000000000000000000000000001000 <
b01100 >
b01101111 ?
b11000000 A
1k
1|
b00000000000000000000000000110100 !!
b00000000000000000000000000101100 #!
b00000000000000000000000000110100 $!
#15
b00000000000000000000000000101100 N
0|
#16
b00000000000100111000001110010011 #
b00000000000000000000000000110100 $
b00000000000000000000000000111000 %
b00000000000000000000000000000001 &
0(
1)
b00 .
b00111 2
b000 3
b000000000001 4
b00000000000000000000 6
b0010011 7
b00000000000000000000000000000010 <
b00111 =
b00001 >
b10010011 ?
b10000011 @
b00010011 A
b00000000000000000000000000011100 j
0k
b00000000000000000000000000000001 l
0m
b00000000000000000000000000000001 n
b00000000000000000000000000000001 o
b00011100 x
1|
b00000000000000000000000000110110 !!
b00000000000000000000000000000001 #!
b00000000000000000000000000111000 $!
#17
b00000000000000000000000000000001 O
b00000000000000000000000000000001 i
b00000000000000000000000000000010 l
1m
b00000000000000000000000000000010 o
0|
b00000000000000000000000000000010 #!
#18
b11111110100100111001111011100011 #
b00000000000000000000000000111000 $
b00000000000000000000000000111100 %
b11111111111111111111111111111110 &
0'
0)
1*
b0001 1
b11101 2
b011 3
b111111111110 4
b1100011 7
b001 8
b1111111 9
b01 :
1;
b00000000000000000000000000000111 <
b01001 >
b11100011 ?
b10011110 @
b10010011 A
b11111110 B
b00000000000000000000000000001000 j
1k
b00000000000000000000000100000000 l
b00000000000000000000000000001000 n
b00000000000000000000000100000000 o
1p
b00001000 x
1|
b00000000000000000000000000110100 !!
b00000000000000000000000100000000 #!
b00000000000000000000000000110100 $!
#19
0|
#20
b00000000000100111000001110010011 #
b00000000000000000000000000110100 $
b00000000000000000000000000111000 %
b00000000000000000000000000000001 &
1'
1)
0*
b0000 1
b00111 2
b000 3
b000000000001 4
b0010011 7
b000 8
b0000000 9
b11 :
0;
b00000000000000000000000000000010 <
b00001 >
b10010011 ?
b10000011 @
b00010011 A
b00000000 B
b00000000000000000000000000011100 j
0k
b00000000000000000000000000000010 l
b00000000000000000000000000000001 n
b00000000000000000000000000000010 o
0p
b00011100 x
1|
b00000000000000000000000000110110 !!
b00000000000000000000000000000010 #!
b00000000000000000000000000111000 $!
#21
b00000000000000000000000000000010 O
b00000000000000000000000000000010 i
b00000000000000000000000000000011 l
0m
b00000000000000000000000000000011 o
0|
b00000000000000000000000000000011 #!
#22
b11111110100100111001111011100011 #
b00000000000000000000000000111000 $
b00000000000000000000000000111100 %
b11111111111111111111111111111110 &
0'
0)
1*
b0001 1
b11101 2
b011 3
b111111111110 4
b1100011 7
b001 8
b1111111 9
b01 :
1;
b00000000000000000000000000000111 <
b01001 >
b11100011 ?
b10011110 @
b10010011 A
b11111110 B
b00000000000000000000000000001000 j
1k
b00000000000000000000001000000000 l
1m
b00000000000000000000000000001000 n
b00000000000000000000001000000000 o
1p
b00001000 x
1|
b00000000000000000000000000110100 !!
b00000000000000000000001000000000 #!
b00000000000000000000000000110100 $!
#23
0|
#24
b00000000000100111000001110010011 #
b00000000000000000000000000110100 $
b00000000000000000000000000111000 %
b00000000000000000000000000000001 &
1'
1)
0*
b0000 1
b00111 2
b000 3
b000000000001 4
b0010011 7
b000 8
b0000000 9
b11 :
0;
b00000000000000000000000000000010 <
b00001 >
b10010011 ?
b10000011 @
b00010011 A
b00000000 B
b00000000000000000000000000011100 j
0k
b00000000000000000000000000000011 l
0m
b00000000000000000000000000000001 n
b00000000000000000000000000000011 o
0p
b00011100 x
1|
b00000000000000000000000000110110 !!
b00000000000000000000000000000011 #!
b00000000000000000000000000111000 $!
#25
b00000000000000000000000000000011 O
b00000000000000000000000000000011 i
b00000000000000000000000000000100 l
b00000000000000000000000000000100 o
0|
b00000000000000000000000000000100 #!
#26
b11111110100100111001111011100011 #
b00000000000000000000000000111000 $
b00000000000000000000000000111100 %
b11111111111111111111111111111110 &
0'
0)
1*
b0001 1
b11101 2
b011 3
b111111111110 4
b1100011 7
b001 8
b1111111 9
b01 :
1;
b00000000000000000000000000000111 <
b01001 >
b11100011 ?
b10011110 @
b10010011 A
b11111110 B
b00000000000000000000000000001000 j
1k
b00000000000000000000001100000000 l
1m
b00000000000000000000000000001000 n
b00000000000000000000001100000000 o
1p
b00001000 x
1|
b00000000000000000000000000110100 !!
b00000000000000000000001100000000 #!
b00000000000000000000000000110100 $!
#27
0|
#28
b00000000000100111000001110010011 #
b00000000000000000000000000110100 $
b00000000000000000000000000111000 %
b00000000000000000000000000000001 &
1'
1)
0*
b0000 1
b00111 2
b000 3
b000000000001 4
b0010011 7
b000 8
b0000000 9
b11 :
0;
b00000000000000000000000000000010 <
b00001 >
b10010011 ?
b10000011 @
b00010011 A
b00000000 B
b00000000000000000000000000011100 j
0k
b00000000000000000000000000000100 l
0m
b00000000000000000000000000000001 n
b00000000000000000000000000000100 o
0p
b00011100 x
1|
b00000000000000000000000000110110 !!
b00000000000000000000000000000100 #!
b00000000000000000000000000111000 $!
#29
b00000000000000000000000000000100 O
b00000000000000000000000000000100 i
b00000000000000000000000000000101 l
b00000000000000000000000000000101 o
0|
b00000000000000000000000000000101 #!
#30
b11111110100100111001111011100011 #
b00000000000000000000000000111000 $
b00000000000000000000000000111100 %
b11111111111111111111111111111110 &
0'
0)
1*
b0001 1
b11101 2
b011 3
b111111111110 4
b1100011 7
b001 8
b1111111 9
b01 :
1;
b00000000000000000000000000000111 <
b01001 >
b11100011 ?
b10011110 @
b10010011 A
b11111110 B
b00000000000000000000000000001000 j
1k
b00000000000000000000010000000000 l
1m
b00000000000000000000000000001000 n
b00000000000000000000010000000000 o
1p
b00001000 x
1|
b00000000000000000000000000110100 !!
b00000000000000000000010000000000 #!
b00000000000000000000000000110100 $!
#31
0|
#32
b00000000000100111000001110010011 #
b00000000000000000000000000110100 $
b00000000000000000000000000111000 %
b00000000000000000000000000000001 &
1'
1)
0*
b0000 1
b00111 2
b000 3
b000000000001 4
b0010011 7
b000 8
b0000000 9
b11 :
0;
b00000000000000000000000000000010 <
b00001 >
b10010011 ?
b10000011 @
b00010011 A
b00000000 B
b00000000000000000000000000011100 j
0k
b00000000000000000000000000000101 l
0m
b00000000000000000000000000000001 n
b00000000000000000000000000000101 o
0p
b00011100 x
1|
b00000000000000000000000000110110 !!
b00000000000000000000000000000101 #!
b00000000000000000000000000111000 $!
#33
b00000000000000000000000000000101 O
b00000000000000000000000000000101 i
b00000000000000000000000000000110 l
b00000000000000000000000000000110 o
0|
b00000000000000000000000000000110 #!
#34
b11111110100100111001111011100011 #
b00000000000000000000000000111000 $
b00000000000000000000000000111100 %
b11111111111111111111111111111110 &
0'
0)
1*
b0001 1
b11101 2
b011 3
b111111111110 4
b1100011 7
b001 8
b1111111 9
b01 :
1;
b00000000000000000000000000000111 <
b01001 >
b11100011 ?
b10011110 @
b10010011 A
b11111110 B
b00000000000000000000000000001000 j
1k
b00000000000000000000010100000000 l
1m
b00000000000000000000000000001000 n
b00000000000000000000010100000000 o
1p
b00001000 x
1|
b00000000000000000000000000110100 !!
b00000000000000000000010100000000 #!
b00000000000000000000000000110100 $!
#35
0|
#36
b00000000000100111000001110010011 #
b00000000000000000000000000110100 $
b00000000000000000000000000111000 %
b00000000000000000000000000000001 &
1'
1)
0*
b0000 1
b00111 2
b000 3
b000000000001 4
b0010011 7
b000 8
b0000000 9
b11 :
0;
b00000000000000000000000000000010 <
b00001 >
b10010011 ?
b10000011 @
b00010011 A
b00000000 B
b00000000000000000000000000011100 j
0k
b00000000000000000000000000000110 l
0m
b00000000000000000000000000000001 n
b00000000000000000000000000000110 o
0p
b00011100 x
1|
b00000000000000000000000000110110 !!
b00000000000000000000000000000110 #!
b00000000000000000000000000111000 $!
#37
b00000000000000000000000000000110 O
b00000000000000000000000000000110 i
b00000000000000000000000000000111 l
b00000000000000000000000000000111 o
0|
b00000000000000000000000000000111 #!
#38
b11111110100100111001111011100011 #
b00000000000000000000000000111000 $
b00000000000000000000000000111100 %
b11111111111111111111111111111110 &
0'
0)
1*
b0001 1
b11101 2
b011 3
b111111111110 4
b1100011 7
b001 8
b1111111 9
b01 :
1;
b00000000000000000000000000000111 <
b01001 >
b11100011 ?
b10011110 @
b10010011 A
b11111110 B
b00000000000000000000000000001000 j
1k
b00000000000000000000011000000000 l
1m
b00000000000000000000000000001000 n
b00000000000000000000011000000000 o
1p
b00001000 x
1|
b00000000000000000000000000110100 !!
b00000000000000000000011000000000 #!
b00000000000000000000000000110100 $!
#39
0|
#40
b00000000000100111000001110010011 #
b00000000000000000000000000110100 $
b00000000000000000000000000111000 %
b00000000000000000000000000000001 &
1'
1)
0*
b0000 1
b00111 2
b000 3
b000000000001 4
b0010011 7
b000 8
b0000000 9
b11 :
0;
b00000000000000000000000000000010 <
b00001 >
b10010011 ?
b10000011 @
b00010011 A
b00000000 B
b00000000000000000000000000011100 j
0k
b00000000000000000000000000000111 l
0m
b00000000000000000000000000000001 n
b00000000000000000000000000000111 o
0p
b00011100 x
1|
b00000000000000000000000000110110 !!
b00000000000000000000000000000111 #!
b00000000000000000000000000111000 $!
#41
b00000000000000000000000000000111 O
b00000000000000000000000000000111 i
b00000000000000000000000000001000 l
b00000000000000000000000000001000 o
0|
b00000000000000000000000000001000 #!
#42
b11111110100100111001111011100011 #
b00000000000000000000000000111000 $
b00000000000000000000000000111100 %
b11111111111111111111111111111110 &
0'
0)
1*
b0001 1
b11101 2
b011 3
b111111111110 4
b1100011 7
b001 8
b1111111 9
b01 :
1;
b00000000000000000000000000000111 <
b01001 >
b11100011 ?
b10011110 @
b10010011 A
b11111110 B
b00000000000000000000000000001000 j
1k
b00000000000000000000011100000000 l
1m
b00000000000000000000000000001000 n
b00000000000000000000011100000000 o
1p
b00001000 x
1|
b00000000000000000000000000110100 !!
b00000000000000000000011100000000 #!
b00000000000000000000000000110100 $!
#43
0|
#44
b00000000000100111000001110010011 #
b00000000000000000000000000110100 $
b00000000000000000000000000111000 %
b00000000000000000000000000000001 &
1'
1)
0*
b0000 1
b00111 2
b000 3
b000000000001 4
b0010011 7
b000 8
b0000000 9
b11 :
0;
b00000000000000000000000000000010 <
b00001 >
b10010011 ?
b10000011 @
b00010011 A
b00000000 B
b00000000000000000000000000011100 j
0k
b00000000000000000000000000001000 l
0m
b00000000000000000000000000000001 n
b00000000000000000000000000001000 o
0p
b00011100 x
1|
b00000000000000000000000000110110 !!
b00000000000000000000000000001000 #!
b00000000000000000000000000111000 $!
#45
b00000000000000000000000000001000 O
b00000000000000000000000000001000 i
b00000000000000000000000000001001 l
b00000000000000000000000000001001 o
0|
b00000000000000000000000000001001 #!
#46
b11111110100100111001111011100011 #
b00000000000000000000000000111000 $
b00000000000000000000000000111100 %
b11111111111111111111111111111110 &
0'
0)
1*
b0001 1
b11101 2
b011 3
b111111111110 4
b1100011 7
b001 8
b1111111 9
b01 :
1;
b00000000000000000000000000000111 <
b01001 >
b11100011 ?
b10011110 @
b10010011 A
b11111110 B
b00000000000000000000000000001000 j
b00000000000000000000100000000000 l
b00000000000000000000000000001000 n
b00000000000000000000100000000000 o
b00001000 x
1|
b00000000000000000000000000110100 !!
b00000000000000000000100000000000 #!
b00000000000000000000000000111100 $!
#47
0|
#48
b00000000000000110000001101100111 #
b00000000000000000000000000111100 $
b00000000000000000000000001000000 %
b00000000000000000000000000000000 &
1'
1(
0*
1+
b10 .
b0000 1
b00110 2
b000 3
b000000000000 4
b1100111 7
b000 8
b0000000 9
b11 :
0;
b00000000000000000000000000001001 <
b00110 =
b00000 >
b01100111 ?
b00000011 @
b00000011 A
b00000000 B
b00000000000000000000000000101100 i
b00000000000000000000000000000000 j
1k
b00000000000000000000000000101100 l
b00000000000000000000000000000000 n
b00000000000000000000000000101100 o
b00000000 x
1|
b00000000000000000000000000101100 !!
b00000000000000000000000001000000 #!
b00000000000000000000000000101100 $!
#49
b00000000000000000000000001000000 N
b00000000000000000000000001000000 i
b00000000000000000000000001000000 l
b00000000000000000000000001000000 o
0|
b00000000000000000000000001000000 !!
b00000000000000000000000001000000 $!
