test/top_reference.vcd
$version Generated by VerilatedVcd $end
$date Fri Dec 16 22:56:53 2022 $end
$timescale 1ps $end

 $scope module TOP $end
  $var wire 32 ~ a0 [31:0] $end
  $var wire  1 | clk $end
  $var wire  1 } rst $end
  $scope module top $end
   $var wire 32 l ALUResult [31:0] $end
   $var wire  4 1 ALUctrl [3:0] $end
   $var wire  1 ) ALUsrc $end
   $var wire  3 0 DMem_size [2:0] $end
   $var wire 32 & ImmExt [31:0] $end
   $var wire 32 $ PC [31:0] $end
   $var wire 32 % PCPlus4 [31:0] $end
   $var wire 32 !! PCTarget [31:0] $end
   $var wire  1 k PCsrc $end
   $var wire 32 i RD1 [31:0] $end
   $var wire 32 j RD2 [31:0] $end
   $var wire  3 / R_size [2:0] $end
   $var wire  5 2 Rd [4:0] $end
   $var wire 32 %! WIDTH [31:0] $end
   $var wire 32 ~ a0 [31:0] $end
   $var wire  1 * branch $end
   $var wire  1 | clk $end
   $var wire 32 # instr [31:0] $end
   $var wire  1 + jalr $end
   $var wire  1 ( jump $end
   $var wire  1 - load_extend_s $end
   $var wire  1 , lui $end
   $var wire 32 "! readData [31:0] $end
   $var wire  1 ' regWrite $end
   $var wire 32 #! result [31:0] $end
   $var wire  2 . resultSrc [1:0] $end
   $var wire  1 } rst $end
   $var wire 32 j writeData [31:0] $end
   $scope module top_decode $end
    $var wire  4 1 ALUctrl_D [3:0] $end
    $var wire  1 ) ALUsrc_D $end
    $var wire  3 0 DMem_size_D [2:0] $end
    $var wire 32 & ImmExt_D [31:0] $end
    $var wire  3 3 ImmSrc_D [2:0] $end
    $var wire 32 i RD1_D [31:0] $end
    $var wire 32 j RD2_D [31:0] $end
    $var wire  3 / R_size_D [2:0] $end
    $var wire  5 2 Rd_D [4:0] $end
    $var wire  5 2 Rd_W [4:0] $end
    $var wire 32 %! WIDTH [31:0] $end
    $var wire 32 ~ a0 [31:0] $end
    $var wire  1 * branch_D $end
    $var wire  1 | clk $end
    $var wire 32 # instr_D [31:0] $end
    $var wire  1 + jalr $end
    $var wire  1 ( jump_D $end
    $var wire  1 - load_extend_s $end
    $var wire  1 , lui $end
    $var wire  1 ' regWrite_D $end
    $var wire  1 ' regWrite_W $end
    $var wire  2 . resultSrc_D [1:0] $end
    $var wire 32 #! result_W [31:0] $end
    $var wire  1 } rst $end
    $scope module SignExtend $end
     $var wire 32 & ImmExtD [31:0] $end
     $var wire  3 3 ImmSrcD [2:0] $end
     $var wire 32 # InstrD [31:0] $end
     $var wire 32 %! data_width [31:0] $end
     $var wire 32 &! imm_width1 [31:0] $end
     $var wire 32 '! imm_width2 [31:0] $end
     $var wire 32 '! imm_width3 [31:0] $end
     $scope module unnamedblk1 $end
      $var wire 12 4 imm_type_1 [11:0] $end
      $var wire 20 6 imm_type_jal [19:0] $end
      $var wire 20 5 imm_type_lui [19:0] $end
      $var wire  7 7 opcode [6:0] $end
     $upscope $end
    $upscope $end
    $scope module control_unit $end
     $var wire  4 1 ALUControlD [3:0] $end
     $var wire  1 ) ALUsrcD $end
     $var wire  1 * BranchD $end
     $var wire  3 0 DMem_size [2:0] $end
     $var wire  3 3 ImmSrcD [2:0] $end
     $var wire  1 ( JumpD $end
     $var wire  3 / R_size [2:0] $end
     $var wire  1 ' RegWriteD $end
     $var wire  2 . ResultSrcD [1:0] $end
     $var wire  3 8 funct3 [2:0] $end
     $var wire  7 9 funct7 [6:0] $end
     $var wire  2 : instr_type [1:0] $end
     $var wire  1 + jalr $end
     $var wire  1 - load_extend_s $end
     $var wire  1 , lui $end
     $var wire  7 7 opcode [6:0] $end
     $scope module alu_control $end
      $var wire  4 1 ALUControlD [3:0] $end
      $var wire  2 : ALUOp [1:0] $end
      $var wire  3 8 funct3 [2:0] $end
      $var wire  1 ; funct7_bit $end
     $upscope $end
     $scope module main_control $end
      $var wire  2 : ALUOp [1:0] $end
      $var wire  1 ) ALUsrcD $end
      $var wire  1 * BranchD $end
      $var wire  3 0 DMem_size [2:0] $end
      $var wire  3 3 ImmSrcD [2:0] $end
      $var wire  1 ( JumpD $end
      $var wire  3 / R_size [2:0] $end
      $var wire  1 ' RegWriteD $end
      $var wire  2 . ResultSrcD [1:0] $end
      $var wire  3 8 funct3 [14:12] $end
      $var wire 32 < instr [31:0] $end
      $var wire  1 + jalr_o $end
      $var wire  1 - load_extend_s $end
      $var wire  1 , lui_o $end
      $var wire  7 7 opcode [6:0] $end
     $upscope $end
    $upscope $end
    $scope module register $end
     $var wire 32 (! ADDRESS_WIDTH [31:0] $end
     $var wire 32 %! DATA_WIDTH [31:0] $end
     $var wire 32 i RD1 [31:0] $end
     $var wire 32 j RD2 [31:0] $end
     $var wire 32 #! WD3 [31:0] $end
     $var wire  1 ' WE3 $end
     $var wire 32 ~ a0 [31:0] $end
     $var wire  1 | clk $end
     $var wire 32 h i [31:0] $end
     $var wire  5 2 rd [4:0] $end
     $var wire 32 R reg_array[10] [31:0] $end
     $var wire 32 S reg_array[11] [31:0] $end
     $var wire 32 T reg_array[12] [31:0] $end
     $var wire 32 U reg_array[13] [31:0] $end
     $var wire 32 V reg_array[14] [31:0] $end
     $var wire 32 W reg_array[15] [31:0] $end
     $var wire 32 X reg_array[16] [31:0] $end
     $var wire 32 Y reg_array[17] [31:0] $end
     $var wire 32 Z reg_array[18] [31:0] $end
     $var wire 32 [ reg_array[19] [31:0] $end
     $var wire 32 I reg_array[1] [31:0] $end
     $var wire 32 \ reg_array[20] [31:0] $end
     $var wire 32 ] reg_array[21] [31:0] $end
     $var wire 32 ^ reg_array[22] [31:0] $end
     $var wire 32 _ reg_array[23] [31:0] $end
     $var wire 32 ` reg_array[24] [31:0] $end
     $var wire 32 a reg_array[25] [31:0] $end
     $var wire 32 b reg_array[26] [31:0] $end
     $var wire 32 c reg_array[27] [31:0] $end
     $var wire 32 d reg_array[28] [31:0] $end
     $var wire 32 e reg_array[29] [31:0] $end
     $var wire 32 J reg_array[2] [31:0] $end
     $var wire 32 f reg_array[30] [31:0] $end
     $var wire 32 g reg_array[31] [31:0] $end
     $var wire 32 K reg_array[3] [31:0] $end
     $var wire 32 L reg_array[4] [31:0] $end
     $var wire 32 M reg_array[5] [31:0] $end
     $var wire 32 N reg_array[6] [31:0] $end
     $var wire 32 O reg_array[7] [31:0] $end
     $var wire 32 P reg_array[8] [31:0] $end
     $var wire 32 Q reg_array[9] [31:0] $end
     $var wire  5 = rs1 [4:0] $end
     $var wire  5 > rs2 [4:0] $end
     $var wire  1 } rst $end
    $upscope $end
   $upscope $end
   $scope module top_execute $end
    $var wire  4 1 ALUctrl [3:0] $end
    $var wire 32 n ALUop2 [31:0] $end
    $var wire 32 o ALUout1 [31:0] $end
    $var wire 32 l ALUout2 [31:0] $end
    $var wire  1 ) ALUsrc $end
    $var wire 32 %! DATA_WIDTH [31:0] $end
    $var wire  1 m EQ $end
    $var wire 32 & ImmOp [31:0] $end
    $var wire 32 !! PCTarget_E [31:0] $end
    $var wire 32 $ PC_E [31:0] $end
    $var wire  1 k PCsrc_E $end
    $var wire 32 i RD1 [31:0] $end
    $var wire 32 j RD2 [31:0] $end
    $var wire  1 * branch_E $end
    $var wire  1 + jalr $end
    $var wire  1 ( jump_E $end
    $var wire  1 , lui $end
    $var wire 32 j writeData_E [31:0] $end
    $scope module ALU $end
     $var wire  4 1 ALUctrl [3:0] $end
     $var wire 32 i ALUop1 [31:0] $end
     $var wire 32 n ALUop2 [31:0] $end
     $var wire 32 %! DATA_WIDTH [31:0] $end
     $var wire  1 m EQ $end
     $var wire 32 o SUM [31:0] $end
    $upscope $end
    $scope module pc_src $end
     $var wire  1 * BranchE $end
     $var wire  1 ( JumpE $end
     $var wire  1 k PCSrcE $end
     $var wire  1 m ZeroE $end
     $var wire  1 p and_result $end
    $upscope $end
   $upscope $end
   $scope module top_fetch $end
    $var wire 32 % PCPlus4_F [31:0] $end
    $var wire 32 !! PCTarget_E [31:0] $end
    $var wire 32 $ PC_F [31:0] $end
    $var wire  1 k PCsrc_E $end
    $var wire 32 %! WIDTH [31:0] $end
    $var wire  1 | clk $end
    $var wire 32 # instr_F [31:0] $end
    $var wire 32 $! next_PC [31:0] $end
    $var wire  1 } rst $end
    $scope module PC_Reg $end
     $var wire 32 %! DATA_LENGTH [31:0] $end
     $var wire 32 $ PC [31:0] $end
     $var wire  1 | clk $end
     $var wire 32 $! next_PC [31:0] $end
     $var wire  1 } rst $end
    $upscope $end
    $scope module add_inc $end
     $var wire 32 %! DATA_LENGTH [31:0] $end
     $var wire 32 )! N [31:0] $end
     $var wire 32 $ in [31:0] $end
     $var wire 32 % out [31:0] $end
    $upscope $end
    $scope module instr_mem $end
     $var wire 32 $ A [31:0] $end
     $var wire 32 %! ADDRESS_WIDTH [31:0] $end
     $var wire 32 *! DATA_WIDTH [31:0] $end
     $var wire 32 %! INSTRUCTION_WIDTH [31:0] $end
     $var wire 32 # RD [31:0] $end
     $var wire  8 ? byte1 [7:0] $end
     $var wire  8 @ byte2 [7:0] $end
     $var wire  8 A byte3 [7:0] $end
     $var wire  8 B byte4 [7:0] $end
    $upscope $end
    $scope module mux $end
     $var wire 32 %! WIDTH [31:0] $end
     $var wire 32 % d_0 [31:0] $end
     $var wire 32 !! d_1 [31:0] $end
     $var wire 32 $! dout [31:0] $end
     $var wire  1 k s $end
    $upscope $end
   $upscope $end
   $scope module top_memory $end
    $var wire 32 l ALUResult_M [31:0] $end
    $var wire 32 %! WIDTH [31:0] $end
    $var wire  1 | clk $end
    $var wire 32 q dout [31:0] $end
    $var wire  1 H lb $end
    $var wire  1 G lh $end
    $var wire  1 F lw $end
    $var wire 32 "! readData_M [31:0] $end
    $var wire  1 - s $end
    $var wire  1 E sb $end
    $var wire  1 D sh $end
    $var wire  1 C sw $end
    $var wire 32 j writeData_M [31:0] $end
    $scope module hbw $end
     $var wire 32 *! BYTE_LEN [31:0] $end
     $var wire 32 %! CPU_WORD [31:0] $end
     $var wire 32 +! HALF_LEN [31:0] $end
     $var wire  8 u b [7:0] $end
     $var wire 32 s be [31:0] $end
     $var wire 32 q data [31:0] $end
     $var wire 32 "! dout [31:0] $end
     $var wire 16 t h [15:0] $end
     $var wire 32 r he [31:0] $end
     $var wire  1 H lb $end
     $var wire  1 G lh $end
     $var wire  1 F lw $end
     $var wire  1 - s $end
     $scope module h_e $end
      $var wire 32 +! HALF_LEN [31:0] $end
      $var wire 32 %! WORD_LENGTH [31:0] $end
      $var wire 16 t din [15:0] $end
      $var wire 32 r dout [31:0] $end
      $var wire  1 - s $end
      $var wire  1 v sign $end
     $upscope $end
     $scope module s_e $end
      $var wire 32 *! BYTE_LEN [31:0] $end
      $var wire 32 %! WORD_LENGTH [31:0] $end
      $var wire  8 u din [7:0] $end
      $var wire 32 s dout [31:0] $end
      $var wire  1 - s $end
      $var wire  1 w sign $end
     $upscope $end
    $upscope $end
    $scope module ram $end
     $var wire 32 %! ADDRESS_LENGTH [31:0] $end
     $var wire 32 *! WORD_LENGTH [31:0] $end
     $var wire 32 l a [31:0] $end
     $var wire  1 | clk $end
     $var wire  8 x d0 [7:0] $end
     $var wire  8 y d1 [7:0] $end
     $var wire  8 z d2 [7:0] $end
     $var wire  8 { d3 [7:0] $end
     $var wire 32 q rd [31:0] $end
     $var wire  1 E sb $end
     $var wire  1 D sh $end
     $var wire  1 C sw $end
     $var wire 32 j wd [31:0] $end
    $upscope $end
   $upscope $end
   $scope module top_writeback $end
    $var wire 32 l ALUResult_W [31:0] $end
    $var wire 32 % PCPlus4_W [31:0] $end
    $var wire 32 %! WIDTH [31:0] $end
    $var wire 32 "! readData_W [31:0] $end
    $var wire  2 . resultSrc_W [1:0] $end
    $var wire 32 #! result_W [31:0] $end
   $upscope $end
  $upscope $end
 $upscope $end
$enddefinitions $end


#527574
b00000000000101011000010110010011 #
b00000000000000000000000011011100 $
b00000000000000000000000011100000 %
b00000000000000000000000000000001 &
1'
0(
1)
0*
0+
0,
0-
b00 .
b000 /
b100 0
b0000 1
b01011 2
b000 3
b000000000001 4
b00000000000000000000 5
b00000000000000000000 6
b0010011 7
b000 8
b0000000 9
b11 :
0;
b00000000000000000000000000000010 <
b01011 =
b00001 >
b10010011 ?
b10000101 @
b00010101 A
b00000000 B
0C
0D
0E
1F
0G
0H
b00000000000000000000000000011100 I
b00000000000000000000000000000000 J
b00000000000000000000000000000000 K
b00000000000000000000000000000000 L
b00000000000000000000000001101011 M
b00000000000000000000000011001000 N
b00000000000000000000000000000000 O
b00000000000000000000000000000000 P
b00000000000000000000000000000000 Q
b00000000000000000000000000000010 R
b00000000000000000000000000000101 S
b00000000000000000000000011111111 T
b00000000000000000000000100000000 U
b00000000000000000000000011001000 V
b00000000000000010011110000000010 W
b00000000000000000000000101101011 X
b00000000000000000000000000000000 Y
b00000000000000000000000000000000 Z
b00000000000000000000000000000000 [
b00000000000000000000000000000000 \
b00000000000000000000000000000000 ]
b00000000000000000000000000000000 ^
b00000000000000000000000000000000 _
b00000000000000000000000000000000 `
b00000000000000000000000000000000 a
b00000000000000000000000000000000 b
b00000000000000000000000000000000 c
b00000000000000000000000000000000 d
b00000000000000000000000000000000 e
b00000000000000000000000000000000 f
b00000000000000000000000000000000 g
b00000000000000000000000000000000 h
b00000000000000000000000000000101 i
b00000000000000000000000000011100 j
0k
b00000000000000000000000000000110 l
0m
b00000000000000000000000000000001 n
b00000000000000000000000000000110 o
0p
b00000000000000000000000000000000 q
b00000000000000000000000000000000 r
b00000000000000000000000000000000 s
b0000000000000000 t
b00000000 u
0v
0w
b00011100 x
b00000000 y
b00000000 z
b00000000 {
1|
0}
b00000000000000000000000000000010 ~
b00000000000000000000000011011110 !!
b00000000000000000000000000000000 "!
b00000000000000000000000000000110 #!
b00000000000000000000000011100000 $!
b00000000000000000000000000100000 %!
b00000000000000000000000000001100 &!
b00000000000000000000000000010100 '!
b00000000000000000000000000000101 (!
b00000000000000000000000000000100 )!
b00000000000000000000000000001000 *!
b00000000000000000000000000010000 +!
#527576
b00000000000000000000000000010011 #
b00000000000000000000000011100000 $
b00000000000000000000000011100100 %
b00000000000000000000000000000000 &
b00000 2
b000000000000 4
b00000 =
b00000 >
b00010011 ?
b00000000 @
b00000000 A
b00000000000000000000000000000110 S
b00000000000000000000000000000000 i
b00000000000000000000000000000000 j
b00000000000000000000000000000000 l
1m
b00000000000000000000000000000000 n
b00000000000000000000000000000000 o
b00000000 x
b00000000000000000000000011100000 !!
b00000000000000000000000000000000 #!
b00000000000000000000000011100100 $!
#527578
b00000000000000000000000011100100 $
b00000000000000000000000011101000 %
b00000000000000000000000011100100 !!
b00000000000000000000000011101000 $!
#527580
b11111110110001011001100011100011 #
b00000000000000000000000011101000 $
b00000000000000000000000011101100 %
b11111111111111111111111111111000 &
0'
0)
1*
b0001 1
b10001 2
b011 3
b111111111000 4
b1100011 7
b001 8
b1111111 9
b01 :
1;
b00000000000000000000000000000111 <
b01011 =
b01100 >
b11100011 ?
b10011000 @
b11000101 A
b11111110 B
b00000000000000000000000000000110 i
b00000000000000000000000011111111 j
1k
b00000000000000000000000011111111 n
1p
b11111111 x
b00000000000000000000000011011000 !!
b00000000000000000000000011011000 $!
#527582
b00010000000001011100010100000011 #
b00000000000000000000000011011000 $
b00000000000000000000000011011100 %
b00000000000000000000000100000000 &
1'
1)
0*
b01 .
b001 0
b0000 1
b01010 2
b000 3
b000100000000 4
b0000011 7
b100 8
b0001000 9
b00 :
0;
b00000000000000000000000000000100 <
b00000 >
b00000011 ?
b11000101 @
b00000101 A
b00010000 B
0F
1H
b00000000000000000000000000000000 j
0k
b00000000000000000000000100000110 l
0m
b00000000000000000000000100000000 n
b00000000000000000000000100000110 o
0p
b00000000000000000000000100000010 q
b00000000000000000000000100000010 r
b00000000000000000000000000000010 s
b0000000100000010 t
b00000010 u
b00000000 x
b00000000000000000000001011011000 !!
b00000000000000000000000000000010 "!
b00000000000000000000000000000010 #!
b00000000000000000000000011011100 $!
#527584
b00000000000101011000010110010011 #
b00000000000000000000000011011100 $
b00000000000000000000000011100000 %
b00000000000000000000000000000001 &
b00 .
b100 0
b01011 2
b000000000001 4
b0010011 7
b000 8
b0000000 9
b11 :
b00000000000000000000000000000010 <
b00001 >
b10010011 ?
b10000101 @
b00010101 A
b00000000 B
1F
0H
b00000000000000000000000000011100 j
b00000000000000000000000000000111 l
b00000000000000000000000000000001 n
b00000000000000000000000000000111 o
b00000000000000000000000000000000 q
b00000000000000000000000000000000 r
b00000000000000000000000000000000 s
b0000000000000000 t
b00000000 u
b00011100 x
b00000000000000000000000011011110 !!
b00000000000000000000000000000000 "!
b00000000000000000000000000000111 #!
b00000000000000000000000011100000 $!
#527586
b00000000000000000000000000010011 #
b00000000000000000000000011100000 $
b00000000000000000000000011100100 %
b00000000000000000000000000000000 &
b00000 2
b000000000000 4
b00000 =
b00000 >
b00010011 ?
b00000000 @
b00000000 A
b00000000000000000000000000000111 S
b00000000000000000000000000000000 i
b00000000000000000000000000000000 j
b00000000000000000000000000000000 l
1m
b00000000000000000000000000000000 n
b00000000000000000000000000000000 o
b00000000 x
b00000000000000000000000011100000 !!
b00000000000000000000000000000000 #!
b00000000000000000000000011100100 $!
#527588
b00000000000000000000000011100100 $
b00000000000000000000000011101000 %
b00000000000000000000000011100100 !!
b00000000000000000000000011101000 $!
#527590
b11111110110001011001100011100011 #
b00000000000000000000000011101000 $
b00000000000000000000000011101100 %
b11111111111111111111111111111000 &
0'
0)
1*
b0001 1
b10001 2
b011 3
b111111111000 4
b1100011 7
b001 8
b1111111 9
b01 :
1;
b00000000000000000000000000000111 <
b01011 =
b01100 >
b11100011 ?
b10011000 @
b11000101 A
b11111110 B
b00000000000000000000000000000111 i
b00000000000000000000000011111111 j
1k
b00000000000000000000000011111111 n
1p
b11111111 x
b00000000000000000000000011011000 !!
b00000000000000000000000011011000 $!
#527592
b00010000000001011100010100000011 #
b00000000000000000000000011011000 $
b00000000000000000000000011011100 %
b00000000000000000000000100000000 &
1'
1)
0*
b01 .
b001 0
b0000 1
b01010 2
b000 3
b000100000000 4
b0000011 7
b100 8
b0001000 9
b00 :
0;
b00000000000000000000000000000100 <
b00000 >
b00000011 ?
b11000101 @
b00000101 A
b00010000 B
0F
1H
b00000000000000000000000000000000 j
0k
b00000000000000000000000100000111 l
0m
b00000000000000000000000100000000 n
b00000000000000000000000100000111 o
0p
b00000001000000000000000000000001 q
b00000000000000000000000000000001 r
b00000000000000000000000000000001 s
b0000000000000001 t
b00000001 u
b00000000 x
b00000000000000000000001011011000 !!
b00000000000000000000000000000001 "!
b00000000000000000000000000000001 #!
b00000000000000000000000011011100 $!
#527594
b00000000000101011000010110010011 #
b00000000000000000000000011011100 $
b00000000000000000000000011100000 %
b00000000000000000000000000000001 &
b00 .
b100 0
b01011 2
b000000000001 4
b0010011 7
b000 8
b0000000 9
b11 :
b00000000000000000000000000000010 <
b00001 >
b10010011 ?
b10000101 @
b00010101 A
b00000000 B
1F
0H
b00000000000000000000000000000001 R
b00000000000000000000000000011100 j
b00000000000000000000000000001000 l
b00000000000000000000000000000001 n
b00000000000000000000000000001000 o
b00000000000000000000000000000000 q
b00000000000000000000000000000000 r
b00000000000000000000000000000000 s
b0000000000000000 t
b00000000 u
b00011100 x
b00000000000000000000000000000001 ~
b00000000000000000000000011011110 !!
b00000000000000000000000000000000 "!
b00000000000000000000000000001000 #!
b00000000000000000000000011100000 $!
#527596
b00000000000000000000000000010011 #
b00000000000000000000000011100000 $
b00000000000000000000000011100100 %
b00000000000000000000000000000000 &
b00000 2
b000000000000 4
b00000 =
b00000 >
b00010011 ?
b00000000 @
b00000000 A
b00000000000000000000000000001000 S
b00000000000000000000000000000000 i
b00000000000000000000000000000000 j
b00000000000000000000000000000000 l
1m
b00000000000000000000000000000000 n
b00000000000000000000000000000000 o
b00000000 x
b00000000000000000000000011100000 !!
b00000000000000000000000000000000 #!
b00000000000000000000000011100100 $!
#527598
b00000000000000000000000011100100 $
b00000000000000000000000011101000 %
b00000000000000000000000011100100 !!
b00000000000000000000000011101000 $!
#527600
b11111110110001011001100011100011 #
b00000000000000000000000011101000 $
b00000000000000000000000011101100 %
b11111111111111111111111111111000 &
0'
0)
1*
b0001 1
b10001 2
b011 3
b111111111000 4
b1100011 7
b001 8
b1111111 9
b01 :
1;
b00000000000000000000000000000111 <
b01011 =
b01100 >
b11100011 ?
b10011000 @
b11000101 A
b11111110 B
b00000000000000000000000000001000 i
b00000000000000000000000011111111 j
1k
b00000000000000000000000011111111 n
1p
b11111111 x
b00000000000000000000000011011000 !!
b00000000000000000000000011011000 $!
#527602
b00010000000001011100010100000011 #
b00000000000000000000000011011000 $
b00000000000000000000000011011100 %
b00000000000000000000000100000000 &
1'
1)
0*
b01 .
b001 0
b0000 1
b01010 2
b000 3
b000100000000 4
b0000011 7
b100 8
b0001000 9
b00 :
0;
b00000000000000000000000000000100 <
b00000 >
b00000011 ?
b11000101 @
b00000101 A
b00010000 B
0F
1H
b00000000000000000000000000000000 j
0k
b00000000000000000000000100001000 l
0m
b00000000000000000000000100000000 n
b00000000000000000000000100001000 o
0p
b00001000000000010000000000000000 q
b00000000 x
b00000000000000000000001011011000 !!
b00000000000000000000000011011100 $!
#527604
b00000000000101011000010110010011 #
b00000000000000000000000011011100 $
b00000000000000000000000011100000 %
b00000000000000000000000000000001 &
b00 .
b100 0
b01011 2
b000000000001 4
b0010011 7
b000 8
b0000000 9
b11 :
b00000000000000000000000000000010 <
b00001 >
b10010011 ?
b10000101 @
b00010101 A
b00000000 B
1F
0H
b00000000000000000000000000000000 R
b00000000000000000000000000011100 j
b00000000000000000000000000001001 l
b00000000000000000000000000000001 n
b00000000000000000000000000001001 o
b00000000000000000000000000000000 q
b00011100 x
b00000000000000000000000000000000 ~
b00000000000000000000000011011110 !!
b00000000000000000000000000001001 #!
b00000000000000000000000011100000 $!
#527606
b00000000000000000000000000010011 #
b00000000000000000000000011100000 $
b00000000000000000000000011100100 %
b00000000000000000000000000000000 &
b00000 2
b000000000000 4
b00000 =
b00000 >
b00010011 ?
b00000000 @
b00000000 A
b00000000000000000000000000001001 S
b00000000000000000000000000000000 i
b00000000000000000000000000000000 j
b00000000000000000000000000000000 l
1m
b00000000000000000000000000000000 n
b00000000000000000000000000000000 o
b00000000 x
b00000000000000000000000011100000 !!
b00000000000000000000000000000000 #!
b00000000000000000000000011100100 $!
#527608
b00000000000000000000000011100100 $
b00000000000000000000000011101000 %
b00000000000000000000000011100100 !!
b00000000000000000000000011101000 $!
#527610
b11111110110001011001100011100011 #
b00000000000000000000000011101000 $
b00000000000000000000000011101100 %
b11111111111111111111111111111000 &
0'
0)
1*
b0001 1
b10001 2
b011 3
b111111111000 4
b1100011 7
b001 8
b1111111 9
b01 :
1;
b00000000000000000000000000000111 <
b01011 =
b01100 >
b11100011 ?
b10011000 @
b11000101 A
b11111110 B
b00000000000000000000000000001001 i
b00000000000000000000000011111111 j
1k
b00000000000000000000000011111111 n
1p
b11111111 x
b00000000000000000000000011011000 !!
b00000000000000000000000011011000 $!
#527612
b00010000000001011100010100000011 #
b00000000000000000000000011011000 $
b00000000000000000000000011011100 %
b00000000000000000000000100000000 &
1'
1)
0*
b01 .
b001 0
b0000 1
b01010 2
b000 3
b000100000000 4
b0000011 7
b100 8
b0001000 9
b00 :
0;
b00000000000000000000000000000100 <
b00000 >
b00000011 ?
b11000101 @
b00000101 A
b00010000 B
0F
1H
b00000000000000000000000000000000 j
0k
b00000000000000000000000100001001 l
0m
b00000000000000000000000100000000 n
b00000000000000000000000100001001 o
0p
b00000010000010000000000100000000 q
b00000000000000000000000100000000 r
b0000000100000000 t
b00000000 x
b00000000000000000000001011011000 !!
b00000000000000000000000011011100 $!
#527614
b00000000000101011000010110010011 #
b00000000000000000000000011011100 $
b00000000000000000000000011100000 %
b00000000000000000000000000000001 &
b00 .
b100 0
b01011 2
b000000000001 4
b0010011 7
b000 8
b0000000 9
b11 :
b00000000000000000000000000000010 <
b00001 >
b10010011 ?
b10000101 @
b00010101 A
b00000000 B
1F
0H
b00000000000000000000000000011100 j
b00000000000000000000000000001010 l
b00000000000000000000000000000001 n
b00000000000000000000000000001010 o
b00000000000000000000000000000000 q
b00000000000000000000000000000000 r
b0000000000000000 t
b00011100 x
b00000000000000000000000011011110 !!
b00000000000000000000000000001010 #!
b00000000000000000000000011100000 $!
#527616
b00000000000000000000000000010011 #
b00000000000000000000000011100000 $
b00000000000000000000000011100100 %
b00000000000000000000000000000000 &
b00000 2
b000000000000 4
b00000 =
b00000 >
b00010011 ?
b00000000 @
b00000000 A
b00000000000000000000000000001010 S
b00000000000000000000000000000000 i
b00000000000000000000000000000000 j
b00000000000000000000000000000000 l
1m
b00000000000000000000000000000000 n
b00000000000000000000000000000000 o
b00000000 x
b00000000000000000000000011100000 !!
b00000000000000000000000000000000 #!
b00000000000000000000000011100100 $!
#527618
b00000000000000000000000011100100 $
b00000000000000000000000011101000 %
b00000000000000000000000011100100 !!
b00000000000000000000000011101000 $!
#527620
b11111110110001011001100011100011 #
b00000000000000000000000011101000 $
b00000000000000000000000011101100 %
b11111111111111111111111111111000 &
0'
0)
1*
b0001 1
b10001 2
b011 3
b111111111000 4
b1100011 7
b001 8
b1111111 9
b01 :
1;
b00000000000000000000000000000111 <
b01011 =
b01100 >
b11100011 ?
b10011000 @
b11000101 A
b11111110 B
b00000000000000000000000000001010 i
b00000000000000000000000011111111 j
1k
b00000000000000000000000011111111 n
1p
b11111111 x
b00000000000000000000000011011000 !!
b00000000000000000000000011011000 $!
#527622
b00010000000001011100010100000011 #
b00000000000000000000000011011000 $
b00000000000000000000000011011100 %
b00000000000000000000000100000000 &
1'
1)
0*
b01 .
b001 0
b0000 1
b01010 2
b000 3
b000100000000 4
b0000011 7
b100 8
b0001000 9
b00 :
0;
b00000000000000000000000000000100 <
b00000 >
b00000011 ?
b11000101 @
b00000101 A
b00010000 B
0F
1H
b00000000000000000000000000000000 j
0k
b00000000000000000000000100001010 l
0m
b00000000000000000000000100000000 n
b00000000000000000000000100001010 o
0p
b00000101000000100000100000000001 q
b00000000000000000000100000000001 r
b00000000000000000000000000000001 s
b0000100000000001 t
b00000001 u
b00000000 x
b00000000000000000000001011011000 !!
b00000000000000000000000000000001 "!
b00000000000000000000000000000001 #!
b00000000000000000000000011011100 $!
#527624
b00000000000101011000010110010011 #
b00000000000000000000000011011100 $
b00000000000000000000000011100000 %
b00000000000000000000000000000001 &
b00 .
b100 0
b01011 2
b000000000001 4
b0010011 7
b000 8
b0000000 9
b11 :
b00000000000000000000000000000010 <
b00001 >
b10010011 ?
b10000101 @
b00010101 A
b00000000 B
1F
0H
b00000000000000000000000000000001 R
b00000000000000000000000000011100 j
b00000000000000000000000000001011 l
b00000000000000000000000000000001 n
b00000000000000000000000000001011 o
b00000000000000000000000000000000 q
b00000000000000000000000000000000 r
b00000000000000000000000000000000 s
b0000000000000000 t
b00000000 u
b00011100 x
b00000000000000000000000000000001 ~
b00000000000000000000000011011110 !!
b00000000000000000000000000000000 "!
b00000000000000000000000000001011 #!
b00000000000000000000000011100000 $!
#527626
b00000000000000000000000000010011 #
b00000000000000000000000011100000 $
b00000000000000000000000011100100 %
b00000000000000000000000000000000 &
b00000 2
b000000000000 4
b00000 =
b00000 >
b00010011 ?
b00000000 @
b00000000 A
b00000000000000000000000000001011 S
b00000000000000000000000000000000 i
b00000000000000000000000000000000 j
b00000000000000000000000000000000 l
1m
b00000000000000000000000000000000 n
b00000000000000000000000000000000 o
b00000000 x
b00000000000000000000000011100000 !!
b00000000000000000000000000000000 #!
b00000000000000000000000011100100 $!
#527628
b00000000000000000000000011100100 $
b00000000000000000000000011101000 %
b00000000000000000000000011100100 !!
b00000000000000000000000011101000 $!
#527630
b11111110110001011001100011100011 #
b00000000000000000000000011101000 $
b00000000000000000000000011101100 %
b11111111111111111111111111111000 &
0'
0)
1*
b0001 1
b10001 2
b011 3
b111111111000 4
b1100011 7
b001 8
b1111111 9
b01 :
1;
b00000000000000000000000000000111 <
b01011 =
b01100 >
b11100011 ?
b10011000 @
b11000101 A
b11111110 B
b00000000000000000000000000001011 i
b00000000000000000000000011111111 j
1k
b00000000000000000000000011111111 n
1p
b11111111 x
b00000000000000000000000011011000 !!
b00000000000000000000000011011000 $!
#527632
b00010000000001011100010100000011 #
b00000000000000000000000011011000 $
b00000000000000000000000011011100 %
b00000000000000000000000100000000 &
1'
1)
0*
b01 .
b001 0
b0000 1
b01010 2
b000 3
b000100000000 4
b0000011 7
b100 8
b0001000 9
b00 :
0;
b00000000000000000000000000000100 <
b00000 >
b00000011 ?
b11000101 @
b00000101 A
b00010000 B
0F
1H
b00000000000000000000000000000000 j
0k
b00000000000000000000000100001011 l
0m
b00000000000000000000000100000000 n
b00000000000000000000000100001011 o
0p
b00000110000001010000001000001000 q
b00000000000000000000001000001000 r
b00000000000000000000000000001000 s
b0000001000001000 t
b00001000 u
b00000000 x
b00000000000000000000001011011000 !!
b00000000000000000000000000001000 "!
b00000000000000000000000000001000 #!
b00000000000000000000000011011100 $!
