top.vcd
$version Generated by VerilatedVcd $end
$date Sun Dec  4 12:18:37 2022 $end
$timescale 1ps $end

 $scope module TOP $end
  $var wire 32 "! a0 [31:0] $end
  $var wire  1 ~ clk $end
  $var wire  1 !! rst $end
  $scope module top $end
   $var wire 32 K ALUResult [31:0] $end
   $var wire 32 K ALUResult_E [31:0] $end
   $var wire 32 K ALUResult_M [31:0] $end
   $var wire  4 &! ALUctrl [3:0] $end
   $var wire  4 &! ALUctrl_D [3:0] $end
   $var wire  4 &! ALUctrl_E [3:0] $end
   $var wire  1 @ ALUsrc $end
   $var wire  1 @ ALUsrc_D $end
   $var wire  1 @ ALUsrc_E $end
   $var wire  1 B EQ $end
   $var wire 32 G ImmExt_D [31:0] $end
   $var wire 32 G ImmExt_E [31:0] $end
   $var wire 32 G ImmOp [31:0] $end
   $var wire  1 $! ImmSrc $end
   $var wire 32 F PC [31:0] $end
   $var wire 32 J PCPlus4 [31:0] $end
   $var wire 32 J PCPlus4_D [31:0] $end
   $var wire 32 J PCPlus4_E [31:0] $end
   $var wire 32 J PCPlus4_F [31:0] $end
   $var wire 32 J PCPlus4_M [31:0] $end
   $var wire 32 P PCTarget_E [31:0] $end
   $var wire 32 F PC_D [31:0] $end
   $var wire 32 F PC_E [31:0] $end
   $var wire 32 F PC_F [31:0] $end
   $var wire  1 ? PCsrc $end
   $var wire  1 '! PCsrc_D $end
   $var wire  1 O PCsrc_E $end
   $var wire 32 H RD1 [31:0] $end
   $var wire 32 H RD1_D [31:0] $end
   $var wire 32 H RD1_E [31:0] $end
   $var wire 32 I RD2 [31:0] $end
   $var wire 32 I RD2_D [31:0] $end
   $var wire 32 I RD2_E [31:0] $end
   $var wire  5 D Rd [4:0] $end
   $var wire  5 D Rd_D [4:0] $end
   $var wire  5 D Rd_E [4:0] $end
   $var wire  5 D Rd_M [4:0] $end
   $var wire  5 D Rd_W [4:0] $end
   $var wire 32 #! WIDTH [31:0] $end
   $var wire 32 "! a0 [31:0] $end
   $var wire  3 C branch [2:0] $end
   $var wire  3 C branch_D [2:0] $end
   $var wire  3 C branch_E [2:0] $end
   $var wire  1 ~ clk $end
   $var wire 32 E instr [31:0] $end
   $var wire 32 E instr_D [31:0] $end
   $var wire 32 E instr_F [31:0] $end
   $var wire  1 %! jump $end
   $var wire  1 %! jump_D $end
   $var wire  1 %! jump_E $end
   $var wire  1 %! memWrite $end
   $var wire  1 %! memWrite_D $end
   $var wire  1 %! memWrite_E $end
   $var wire  1 %! memWrite_M $end
   $var wire 32 L readData [31:0] $end
   $var wire 32 L readData_M [31:0] $end
   $var wire  1 @ regWrite $end
   $var wire  1 @ regWrite_D $end
   $var wire  1 @ regWrite_E $end
   $var wire  1 @ regWrite_M $end
   $var wire  1 @ regWrite_W $end
   $var wire  1 A resultSrc $end
   $var wire  2 M resultSrc_D [1:0] $end
   $var wire  2 M resultSrc_E [1:0] $end
   $var wire  2 M resultSrc_M [1:0] $end
   $var wire 32 N result_W [31:0] $end
   $var wire  1 !! rst $end
   $var wire 32 I writeData [31:0] $end
   $var wire 32 I writeData_E [31:0] $end
   $var wire 32 I writeData_M [31:0] $end
   $scope module top_decode $end
    $var wire  4 &! ALUctrl_D [3:0] $end
    $var wire  1 @ ALUsrc_D $end
    $var wire  1 B EQ $end
    $var wire 32 G ImmExt_D [31:0] $end
    $var wire  3 C ImmSrc_D [2:0] $end
    $var wire 32 H RD1_D [31:0] $end
    $var wire 32 I RD2_D [31:0] $end
    $var wire  5 D Rd_D [4:0] $end
    $var wire  5 D Rd_W [4:0] $end
    $var wire 32 #! WIDTH [31:0] $end
    $var wire 32 "! a0 [31:0] $end
    $var wire  3 C branch_D [2:0] $end
    $var wire  1 ~ clk $end
    $var wire 32 E instr_D [31:0] $end
    $var wire  1 @ regWrite_D $end
    $var wire  1 @ regWrite_W $end
    $var wire  2 M resultSrc_D [1:0] $end
    $var wire 32 N result_W [31:0] $end
    $var wire  1 !! rst $end
    $scope module SignExtend $end
     $var wire 32 G ImmOp [31:0] $end
     $var wire  1 Q ImmSrc $end
     $var wire 32 #! data_width [31:0] $end
     $var wire 12 R imm [11:0] $end
     $var wire 32 (! imm_width [31:0] $end
     $var wire 32 E instruction [31:0] $end
    $upscope $end
    $scope module control_unit $end
     $var wire  3 )! ALUctrl [2:0] $end
     $var wire  1 @ ALUsrc $end
     $var wire  1 B EQ $end
     $var wire  1 Q ImmSrc $end
     $var wire  1 @ RegWrite $end
     $var wire  1 A RegWriteSrc $end
     $var wire  3 C branch [2:0] $end
     $var wire  3 S funct3 [14:12] $end
     $var wire 32 U instr [31:0] $end
     $var wire  7 T opcode [6:0] $end
    $upscope $end
    $scope module register $end
     $var wire 32 *! ADDRESS_WIDTH [31:0] $end
     $var wire 32 #! DATA_WIDTH [31:0] $end
     $var wire 32 H RD1 [31:0] $end
     $var wire 32 I RD2 [31:0] $end
     $var wire 32 N WD3 [31:0] $end
     $var wire  1 @ WE3 $end
     $var wire 32 "! a0 [31:0] $end
     $var wire  1 ~ clk $end
     $var wire  5 D rd [4:0] $end
     $var wire 32 X reg_array[0] [31:0] $end
     $var wire 32 b reg_array[10] [31:0] $end
     $var wire 32 c reg_array[11] [31:0] $end
     $var wire 32 d reg_array[12] [31:0] $end
     $var wire 32 e reg_array[13] [31:0] $end
     $var wire 32 f reg_array[14] [31:0] $end
     $var wire 32 g reg_array[15] [31:0] $end
     $var wire 32 h reg_array[16] [31:0] $end
     $var wire 32 i reg_array[17] [31:0] $end
     $var wire 32 j reg_array[18] [31:0] $end
     $var wire 32 k reg_array[19] [31:0] $end
     $var wire 32 Y reg_array[1] [31:0] $end
     $var wire 32 l reg_array[20] [31:0] $end
     $var wire 32 m reg_array[21] [31:0] $end
     $var wire 32 n reg_array[22] [31:0] $end
     $var wire 32 o reg_array[23] [31:0] $end
     $var wire 32 p reg_array[24] [31:0] $end
     $var wire 32 q reg_array[25] [31:0] $end
     $var wire 32 r reg_array[26] [31:0] $end
     $var wire 32 s reg_array[27] [31:0] $end
     $var wire 32 t reg_array[28] [31:0] $end
     $var wire 32 u reg_array[29] [31:0] $end
     $var wire 32 Z reg_array[2] [31:0] $end
     $var wire 32 v reg_array[30] [31:0] $end
     $var wire 32 w reg_array[31] [31:0] $end
     $var wire 32 [ reg_array[3] [31:0] $end
     $var wire 32 \ reg_array[4] [31:0] $end
     $var wire 32 ] reg_array[5] [31:0] $end
     $var wire 32 ^ reg_array[6] [31:0] $end
     $var wire 32 _ reg_array[7] [31:0] $end
     $var wire 32 ` reg_array[8] [31:0] $end
     $var wire 32 a reg_array[9] [31:0] $end
     $var wire  5 V rs1 [4:0] $end
     $var wire  5 W rs2 [4:0] $end
    $upscope $end
   $upscope $end
   $scope module top_execute $end
    $var wire  4 &! ALUctrl [3:0] $end
    $var wire 32 x ALUop2 [31:0] $end
    $var wire 32 K ALUout [31:0] $end
    $var wire  1 @ ALUsrc $end
    $var wire 32 #! DATA_WIDTH [31:0] $end
    $var wire  1 B EQ $end
    $var wire 32 G ImmOp [31:0] $end
    $var wire 32 H RD1 [31:0] $end
    $var wire 32 I RD2 [31:0] $end
    $var wire 32 "! a0 [31:0] $end
    $var wire  1 ~ clk $end
    $scope module ALU $end
     $var wire  3 )! ALUctrl [2:0] $end
     $var wire 32 H ALUop1 [31:0] $end
     $var wire 32 x ALUop2 [31:0] $end
     $var wire 32 #! DATA_WIDTH [31:0] $end
     $var wire  1 B EQ $end
     $var wire 32 K SUM [31:0] $end
    $upscope $end
   $upscope $end
   $scope module top_fetch $end
    $var wire 32 J PCPlus4_F [31:0] $end
    $var wire 32 P PCTarget_E [31:0] $end
    $var wire 32 F PC_F [31:0] $end
    $var wire  1 ? PCsrc_E $end
    $var wire 32 #! WIDTH [31:0] $end
    $var wire  1 ~ clk $end
    $var wire 32 E instr_F [31:0] $end
    $var wire 32 y next_PC [31:0] $end
    $var wire  1 !! rst $end
    $scope module PC_Reg $end
     $var wire 32 #! DATA_LENGTH [31:0] $end
     $var wire 32 F PC [31:0] $end
     $var wire  1 ~ clk $end
     $var wire 32 y next_PC [31:0] $end
     $var wire  1 !! rst $end
    $upscope $end
    $scope module add_inc $end
     $var wire 32 #! DATA_LENGTH [31:0] $end
     $var wire 32 +! N [31:0] $end
     $var wire 32 F in [31:0] $end
     $var wire 32 J out [31:0] $end
    $upscope $end
    $scope module instr_mem $end
     $var wire 32 F A [31:0] $end
     $var wire 32 #! ADDRESS_WIDTH [31:0] $end
     $var wire 32 ,! DATA_WIDTH [31:0] $end
     $var wire 32 #! INSTRUCTION_WIDTH [31:0] $end
     $var wire 32 E RD [31:0] $end
     $var wire  8 z byte1 [7:0] $end
     $var wire  8 { byte2 [7:0] $end
     $var wire  8 | byte3 [7:0] $end
     $var wire  8 } byte4 [7:0] $end
     $var wire  8 # rom_array[0] [7:0] $end
     $var wire  8 - rom_array[10] [7:0] $end
     $var wire  8 . rom_array[11] [7:0] $end
     $var wire  8 / rom_array[12] [7:0] $end
     $var wire  8 0 rom_array[13] [7:0] $end
     $var wire  8 1 rom_array[14] [7:0] $end
     $var wire  8 2 rom_array[15] [7:0] $end
     $var wire  8 3 rom_array[16] [7:0] $end
     $var wire  8 4 rom_array[17] [7:0] $end
     $var wire  8 5 rom_array[18] [7:0] $end
     $var wire  8 6 rom_array[19] [7:0] $end
     $var wire  8 $ rom_array[1] [7:0] $end
     $var wire  8 7 rom_array[20] [7:0] $end
     $var wire  8 8 rom_array[21] [7:0] $end
     $var wire  8 9 rom_array[22] [7:0] $end
     $var wire  8 : rom_array[23] [7:0] $end
     $var wire  8 ; rom_array[24] [7:0] $end
     $var wire  8 < rom_array[25] [7:0] $end
     $var wire  8 = rom_array[26] [7:0] $end
     $var wire  8 > rom_array[27] [7:0] $end
     $var wire  8 % rom_array[2] [7:0] $end
     $var wire  8 & rom_array[3] [7:0] $end
     $var wire  8 ' rom_array[4] [7:0] $end
     $var wire  8 ( rom_array[5] [7:0] $end
     $var wire  8 ) rom_array[6] [7:0] $end
     $var wire  8 * rom_array[7] [7:0] $end
     $var wire  8 + rom_array[8] [7:0] $end
     $var wire  8 , rom_array[9] [7:0] $end
    $upscope $end
    $scope module mux $end
     $var wire 32 #! WIDTH [31:0] $end
     $var wire 32 J d_0 [31:0] $end
     $var wire 32 P d_1 [31:0] $end
     $var wire 32 y dout [31:0] $end
     $var wire  1 ? s $end
    $upscope $end
   $upscope $end
   $scope module top_memory $end
    $var wire 32 K ALUResult_M [31:0] $end
    $var wire 32 #! WIDTH [31:0] $end
    $var wire  1 ~ clk $end
    $var wire 32 -! memWrite_M [31:0] $end
    $var wire 32 L readData_M [31:0] $end
    $var wire  1 !! rst $end
    $var wire 32 I writeData_M [31:0] $end
    $scope module ram $end
     $var wire 32 #! ADDRESS_LENGTH [31:0] $end
     $var wire 32 K a [31:0] $end
     $var wire  1 ~ clk $end
     $var wire 32 L rd [31:0] $end
     $var wire 32 I wd [31:0] $end
     $var wire  1 %! we $end
    $upscope $end
   $upscope $end
  $upscope $end
 $upscope $end
$enddefinitions $end


#0
b00000000 #
b00000000 $
b00000000 %
b00000000 &
b00000000 '
b00000000 (
b00000000 )
b00000000 *
b00000000 +
b00000000 ,
b00000000 -
b00000000 .
b00000000 /
b00000000 0
b00000000 1
b00000000 2
b00000000 3
b00000000 4
b00000000 5
b00000000 6
b00000000 7
b00000000 8
b00000000 9
b00000000 :
b00000000 ;
b00000000 <
b00000000 =
b00000000 >
0?
0@
0A
1B
b000 C
b00000 D
b00000000000000000000000000000000 E
b00000000000000000000000000000000 F
b00000000000000000000000000000000 G
b00000000000000000000000000000000 H
b00000000000000000000000000000000 I
b00000000000000000000000000000100 J
b00000000000000000000000000000000 K
b00000000000000000000000000000000 L
b00 M
b00000000000000000000000000000000 N
0O
b00000000000000000000000000000000 P
0Q
b000000000000 R
b000 S
b0000000 T
b00000000000000000000000000000000 U
b00000 V
b00000 W
b00000000000000000000000000000000 X
b00000000000000000000000000000000 Y
b00000000000000000000000000000000 Z
b00000000000000000000000000000000 [
b00000000000000000000000000000000 \
b00000000000000000000000000000000 ]
b00000000000000000000000000000000 ^
b00000000000000000000000000000000 _
b00000000000000000000000000000000 `
b00000000000000000000000000000000 a
b00000000000000000000000000000000 b
b00000000000000000000000000000000 c
b00000000000000000000000000000000 d
b00000000000000000000000000000000 e
b00000000000000000000000000000000 f
b00000000000000000000000000000000 g
b00000000000000000000000000000000 h
b00000000000000000000000000000000 i
b00000000000000000000000000000000 j
b00000000000000000000000000000000 k
b00000000000000000000000000000000 l
b00000000000000000000000000000000 m
b00000000000000000000000000000000 n
b00000000000000000000000000000000 o
b00000000000000000000000000000000 p
b00000000000000000000000000000000 q
b00000000000000000000000000000000 r
b00000000000000000000000000000000 s
b00000000000000000000000000000000 t
b00000000000000000000000000000000 u
b00000000000000000000000000000000 v
b00000000000000000000000000000000 w
b00000000000000000000000000000000 x
b00000000000000000000000000000100 y
b00000000 z
b00000000 {
b00000000 |
b00000000 }
1~
1!!
b00000000000000000000000000000000 "!
b00000000000000000000000000100000 #!
0$!
0%!
b0000 &!
0'!
b00000000000000000000000000001100 (!
b000 )!
b00000000000000000000000000000101 *!
b00000000000000000000000000000100 +!
b00000000000000000000000000001000 ,!
b00000000000000000000000000000000 -!
#1
b00001111 #
b11110000 $
b00000011 %
b00010011 &
b00000101 )
b00010011 *
b00000101 -
b10010011 .
b00000101 0
b10100101 1
b00000011 2
b00010101 4
b10000101 5
b10010011 6
b11111110 7
b01100101 8
b10011100 9
b11100011 :
b11111110 ;
b00000011 <
b00011000 =
b11100011 >
1@
0B
b00110 D
b00001111111100000000001100010011 E
b00000000000000000000000011111111 G
b00000000000000000000000011111111 K
b11111111111111111111111100000000 L
b00000000000000000000000011111111 N
b00000000000000000000000111111110 P
b000011111111 R
b0010011 T
b00000000000000000000000000000001 U
b11111 W
b00000000000000000000000011111111 x
b00001111 z
b11110000 {
b00000011 |
b00010011 }
0~
#2
b00000000000000000000000011111111 ^
1~
#3
0~
#4
1~
#5
0~
#6
1~
0!!
#7
0~
#8
1B
b01010 D
b00000000000000000000010100010011 E
b00000000000000000000000000000100 F
b00000000000000000000000000000000 G
b00000000000000000000000000001000 J
b00000000000000000000000000000000 K
b00000000000000000000000000000000 L
b00000000000000000000000000000000 N
b00000000000000000000000000000100 P
b000000000000 R
b00000 W
b00000000000000000000000000000000 x
b00000000000000000000000000001000 y
b00000000 z
b00000000 {
b00000101 |
1~
#9
0~
#10
b01011 D
b00000000000000000000010110010011 E
b00000000000000000000000000001000 F
b00000000000000000000000000001100 J
b00000000000000000000000000001000 P
b00000000000000000000000000001100 y
b10010011 }
1~
#11
0~
#12
1A
b01010 D
b00000000000001011010010100000011 E
b00000000000000000000000000001100 F
b00000000000000000000000000010000 J
b01 M
b00000000000000000000000000001100 P
b010 S
b0000011 T
b00000000000000000000000000000011 U
b01011 V
b00000000000000000000000000010000 y
b00000101 {
b10100101 |
b00000011 }
1~
#13
0~
#14
0A
0B
b01011 D
b00000000000101011000010110010011 E
b00000000000000000000000000010000 F
b00000000000000000000000000000001 G
b00000000000000000000000000010100 J
b00000000000000000000000000000001 K
b00000000000000000000000001001111 L
b00 M
b00000000000000000000000000000001 N
b00000000000000000000000000010010 P
b000000000001 R
b000 S
b0010011 T
b00000000000000000000000000000001 U
b00001 W
b00000000000000000000000000000001 x
b00000000000000000000000000010100 y
b00010101 {
b10000101 |
b10010011 }
1~
#15
0~
#16
1?
0@
b001 C
b11001 D
b11111110011001011001110011100011 E
b00000000000000000000000000010100 F
b11111111111111111111111111111100 G
b00000000000000000000000000000001 H
b00000000000000000000000011111111 I
b00000000000000000000000000011000 J
b00000000000000000000000100000000 K
b11111111111111111111111100001101 L
b00000000000000000000000100000000 N
1O
b00000000000000000000000000001100 P
1Q
b111111111100 R
b001 S
b1100011 T
b00000000000000000000000000000010 U
b00110 W
b00000000000000000000000000000001 c
b00000000000000000000000011111111 x
b00000000000000000000000000001100 y
b11111110 z
b01100101 {
b10011100 |
b11100011 }
1~
#17
0~
#18
0?
1@
1A
b000 C
b01010 D
b00000000000001011010010100000011 E
b00000000000000000000000000001100 F
b00000000000000000000000000000000 G
b00000000000000000000000000000000 I
b00000000000000000000000000010000 J
b00000000000000000000000000000001 K
b00000000000000000000000001001111 L
b01 M
b00000000000000000000000001001111 N
0O
0Q
b000000000000 R
b010 S
b0000011 T
b00000000000000000000000000000011 U
b00000 W
b00000000000000000000000000000000 x
b00000000000000000000000000010000 y
b00000000 z
b00000101 {
b10100101 |
b00000011 }
1~
#19
0~
#20
0A
1B
b01011 D
b00000000000101011000010110010011 E
b00000000000000000000000000010000 F
b00000000000000000000000000000001 G
b00000000000000000000000000010100 J
b00000000000000000000000000000010 K
b00000000000000000000000010010110 L
b00 M
b00000000000000000000000000000010 N
b00000000000000000000000000010010 P
b000000000001 R
b000 S
b0010011 T
b00000000000000000000000000000001 U
b00001 W
b00000000000000000000000001001111 b
b00000000000000000000000000000001 x
b00000000000000000000000000010100 y
b00010101 {
b10000101 |
b10010011 }
1~
b00000000000000000000000001001111 "!
#21
0~
#22
1?
0@
0B
b001 C
b11001 D
b11111110011001011001110011100011 E
b00000000000000000000000000010100 F
b11111111111111111111111111111100 G
b00000000000000000000000000000010 H
b00000000000000000000000011111111 I
b00000000000000000000000000011000 J
b00000000000000000000000100000001 K
b11111111111111111111111100110001 L
b00000000000000000000000100000001 N
1O
b00000000000000000000000000001100 P
1Q
b111111111100 R
b001 S
b1100011 T
b00000000000000000000000000000010 U
b00110 W
b00000000000000000000000000000010 c
b00000000000000000000000011111111 x
b00000000000000000000000000001100 y
b11111110 z
b01100101 {
b10011100 |
b11100011 }
1~
#23
0~
#24
0?
1@
1A
b000 C
b01010 D
b00000000000001011010010100000011 E
b00000000000000000000000000001100 F
b00000000000000000000000000000000 G
b00000000000000000000000000000000 I
b00000000000000000000000000010000 J
b00000000000000000000000000000010 K
b00000000000000000000000010010110 L
b01 M
b00000000000000000000000010010110 N
0O
0Q
b000000000000 R
b010 S
b0000011 T
b00000000000000000000000000000011 U
b00000 W
b00000000000000000000000000000000 x
b00000000000000000000000000010000 y
b00000000 z
b00000101 {
b10100101 |
b00000011 }
1~
#25
0~
#26
0A
b01011 D
b00000000000101011000010110010011 E
b00000000000000000000000000010000 F
b00000000000000000000000000000001 G
b00000000000000000000000000010100 J
b00000000000000000000000000000011 K
b00000000000000000000000011001111 L
b00 M
b00000000000000000000000000000011 N
b00000000000000000000000000010010 P
b000000000001 R
b000 S
b0010011 T
b00000000000000000000000000000001 U
b00001 W
b00000000000000000000000010010110 b
b00000000000000000000000000000001 x
b00000000000000000000000000010100 y
b00010101 {
b10000101 |
b10010011 }
1~
b00000000000000000000000010010110 "!
#27
0~
#28
1?
0@
b001 C
b11001 D
b11111110011001011001110011100011 E
b00000000000000000000000000010100 F
b11111111111111111111111111111100 G
b00000000000000000000000000000011 H
b00000000000000000000000011111111 I
b00000000000000000000000000011000 J
b00000000000000000000000100000010 K
b11111111111111111111111101101010 L
b00000000000000000000000100000010 N
1O
b00000000000000000000000000001100 P
1Q
b111111111100 R
b001 S
b1100011 T
b00000000000000000000000000000010 U
b00110 W
b00000000000000000000000000000011 c
b00000000000000000000000011111111 x
b00000000000000000000000000001100 y
b11111110 z
b01100101 {
b10011100 |
b11100011 }
1~
#29
0~
#30
0?
1@
1A
b000 C
b01010 D
b00000000000001011010010100000011 E
b00000000000000000000000000001100 F
b00000000000000000000000000000000 G
b00000000000000000000000000000000 I
b00000000000000000000000000010000 J
b00000000000000000000000000000011 K
b00000000000000000000000011001111 L
b01 M
b00000000000000000000000011001111 N
0O
0Q
b000000000000 R
b010 S
b0000011 T
b00000000000000000000000000000011 U
b00000 W
b00000000000000000000000000000000 x
b00000000000000000000000000010000 y
b00000000 z
b00000101 {
b10100101 |
b00000011 }
1~
#31
0~
#32
0A
b01011 D
b00000000000101011000010110010011 E
b00000000000000000000000000010000 F
b00000000000000000000000000000001 G
b00000000000000000000000000010100 J
b00000000000000000000000000000100 K
b00000000000000000000000011110011 L
b00 M
b00000000000000000000000000000100 N
b00000000000000000000000000010010 P
b000000000001 R
b000 S
b0010011 T
b00000000000000000000000000000001 U
b00001 W
b00000000000000000000000011001111 b
b00000000000000000000000000000001 x
b00000000000000000000000000010100 y
b00010101 {
b10000101 |
b10010011 }
1~
b00000000000000000000000011001111 "!
#33
0~
#34
1?
0@
b001 C
b11001 D
b11111110011001011001110011100011 E
b00000000000000000000000000010100 F
b11111111111111111111111111111100 G
b00000000000000000000000000000100 H
b00000000000000000000000011111111 I
b00000000000000000000000000011000 J
b00000000000000000000000100000011 K
b11111111111111111111111110110001 L
b00000000000000000000000100000011 N
1O
b00000000000000000000000000001100 P
1Q
b111111111100 R
b001 S
b1100011 T
b00000000000000000000000000000010 U
b00110 W
b00000000000000000000000000000100 c
b00000000000000000000000011111111 x
b00000000000000000000000000001100 y
b11111110 z
b01100101 {
b10011100 |
b11100011 }
1~
#35
0~
#36
0?
1@
1A
b000 C
b01010 D
b00000000000001011010010100000011 E
b00000000000000000000000000001100 F
b00000000000000000000000000000000 G
b00000000000000000000000000000000 I
b00000000000000000000000000010000 J
b00000000000000000000000000000100 K
b00000000000000000000000011110011 L
b01 M
b00000000000000000000000011110011 N
0O
0Q
b000000000000 R
b010 S
b0000011 T
b00000000000000000000000000000011 U
b00000 W
b00000000000000000000000000000000 x
b00000000000000000000000000010000 y
b00000000 z
b00000101 {
b10100101 |
b00000011 }
1~
#37
0~
#38
0A
b01011 D
b00000000000101011000010110010011 E
b00000000000000000000000000010000 F
b00000000000000000000000000000001 G
b00000000000000000000000000010100 J
b00000000000000000000000000000101 K
b00000000000000000000000100000000 L
b00 M
b00000000000000000000000000000101 N
b00000000000000000000000000010010 P
b000000000001 R
b000 S
b0010011 T
b00000000000000000000000000000001 U
b00001 W
b00000000000000000000000011110011 b
b00000000000000000000000000000001 x
b00000000000000000000000000010100 y
b00010101 {
b10000101 |
b10010011 }
1~
b00000000000000000000000011110011 "!
#39
0~
#40
1?
0@
b001 C
b11001 D
b11111110011001011001110011100011 E
b00000000000000000000000000010100 F
b11111111111111111111111111111100 G
b00000000000000000000000000000101 H
b00000000000000000000000011111111 I
b00000000000000000000000000011000 J
b00000000000000000000000100000100 K
b00000000000000000000000000000000 L
b00000000000000000000000100000100 N
1O
b00000000000000000000000000001100 P
1Q
b111111111100 R
b001 S
b1100011 T
b00000000000000000000000000000010 U
b00110 W
b00000000000000000000000000000101 c
b00000000000000000000000011111111 x
b00000000000000000000000000001100 y
b11111110 z
b01100101 {
b10011100 |
b11100011 }
1~
#41
0~
#42
0?
1@
1A
b000 C
b01010 D
b00000000000001011010010100000011 E
b00000000000000000000000000001100 F
b00000000000000000000000000000000 G
b00000000000000000000000000000000 I
b00000000000000000000000000010000 J
b00000000000000000000000000000101 K
b00000000000000000000000100000000 L
b01 M
b00000000000000000000000100000000 N
0O
0Q
b000000000000 R
b010 S
b0000011 T
b00000000000000000000000000000011 U
b00000 W
b00000000000000000000000000000000 x
b00000000000000000000000000010000 y
b00000000 z
b00000101 {
b10100101 |
b00000011 }
1~
#43
0~
#44
0A
b01011 D
b00000000000101011000010110010011 E
b00000000000000000000000000010000 F
b00000000000000000000000000000001 G
b00000000000000000000000000010100 J
b00000000000000000000000000000110 K
b00000000000000000000000011110011 L
b00 M
b00000000000000000000000000000110 N
b00000000000000000000000000010010 P
b000000000001 R
b000 S
b0010011 T
b00000000000000000000000000000001 U
b00001 W
b00000000000000000000000100000000 b
b00000000000000000000000000000001 x
b00000000000000000000000000010100 y
b00010101 {
b10000101 |
b10010011 }
1~
b00000000000000000000000100000000 "!
#45
0~
#46
1?
0@
b001 C
b11001 D
b11111110011001011001110011100011 E
b00000000000000000000000000010100 F
b11111111111111111111111111111100 G
b00000000000000000000000000000110 H
b00000000000000000000000011111111 I
b00000000000000000000000000011000 J
b00000000000000000000000100000101 K
b00000000000000000000000001001111 L
b00000000000000000000000100000101 N
1O
b00000000000000000000000000001100 P
1Q
b111111111100 R
b001 S
b1100011 T
b00000000000000000000000000000010 U
b00110 W
b00000000000000000000000000000110 c
b00000000000000000000000011111111 x
b00000000000000000000000000001100 y
b11111110 z
b01100101 {
b10011100 |
b11100011 }
1~
#47
0~
#48
0?
1@
1A
b000 C
b01010 D
b00000000000001011010010100000011 E
b00000000000000000000000000001100 F
b00000000000000000000000000000000 G
b00000000000000000000000000000000 I
b00000000000000000000000000010000 J
b00000000000000000000000000000110 K
b00000000000000000000000011110011 L
b01 M
b00000000000000000000000011110011 N
0O
0Q
b000000000000 R
b010 S
b0000011 T
b00000000000000000000000000000011 U
b00000 W
b00000000000000000000000000000000 x
b00000000000000000000000000010000 y
b00000000 z
b00000101 {
b10100101 |
b00000011 }
1~
#49
0~
#50
0A
b01011 D
b00000000000101011000010110010011 E
b00000000000000000000000000010000 F
b00000000000000000000000000000001 G
b00000000000000000000000000010100 J
b00000000000000000000000000000111 K
b00000000000000000000000011001111 L
b00 M
b00000000000000000000000000000111 N
b00000000000000000000000000010010 P
b000000000001 R
b000 S
b0010011 T
b00000000000000000000000000000001 U
b00001 W
b00000000000000000000000011110011 b
b00000000000000000000000000000001 x
b00000000000000000000000000010100 y
b00010101 {
b10000101 |
b10010011 }
1~
b00000000000000000000000011110011 "!
#51
0~
#52
1?
0@
b001 C
b11001 D
b11111110011001011001110011100011 E
b00000000000000000000000000010100 F
b11111111111111111111111111111100 G
b00000000000000000000000000000111 H
b00000000000000000000000011111111 I
b00000000000000000000000000011000 J
b00000000000000000000000100000110 K
b00000000000000000000000010010110 L
b00000000000000000000000100000110 N
1O
b00000000000000000000000000001100 P
1Q
b111111111100 R
b001 S
b1100011 T
b00000000000000000000000000000010 U
b00110 W
b00000000000000000000000000000111 c
b00000000000000000000000011111111 x
b00000000000000000000000000001100 y
b11111110 z
b01100101 {
b10011100 |
b11100011 }
1~
#53
0~
#54
0?
1@
1A
b000 C
b01010 D
b00000000000001011010010100000011 E
b00000000000000000000000000001100 F
b00000000000000000000000000000000 G
b00000000000000000000000000000000 I
b00000000000000000000000000010000 J
b00000000000000000000000000000111 K
b00000000000000000000000011001111 L
b01 M
b00000000000000000000000011001111 N
0O
0Q
b000000000000 R
b010 S
b0000011 T
b00000000000000000000000000000011 U
b00000 W
b00000000000000000000000000000000 x
b00000000000000000000000000010000 y
b00000000 z
b00000101 {
b10100101 |
b00000011 }
1~
#55
0~
#56
0A
b01011 D
b00000000000101011000010110010011 E
b00000000000000000000000000010000 F
b00000000000000000000000000000001 G
b00000000000000000000000000010100 J
b00000000000000000000000000001000 K
b00000000000000000000000010010110 L
b00 M
b00000000000000000000000000001000 N
b00000000000000000000000000010010 P
b000000000001 R
b000 S
b0010011 T
b00000000000000000000000000000001 U
b00001 W
b00000000000000000000000011001111 b
b00000000000000000000000000000001 x
b00000000000000000000000000010100 y
b00010101 {
b10000101 |
b10010011 }
1~
b00000000000000000000000011001111 "!
#57
0~
#58
1?
0@
b001 C
b11001 D
b11111110011001011001110011100011 E
b00000000000000000000000000010100 F
b11111111111111111111111111111100 G
b00000000000000000000000000001000 H
b00000000000000000000000011111111 I
b00000000000000000000000000011000 J
b00000000000000000000000100000111 K
b00000000000000000000000011001111 L
b00000000000000000000000100000111 N
1O
b00000000000000000000000000001100 P
1Q
b111111111100 R
b001 S
b1100011 T
b00000000000000000000000000000010 U
b00110 W
b00000000000000000000000000001000 c
b00000000000000000000000011111111 x
b00000000000000000000000000001100 y
b11111110 z
b01100101 {
b10011100 |
b11100011 }
1~
#59
0~
#60
0?
1@
1A
b000 C
b01010 D
b00000000000001011010010100000011 E
b00000000000000000000000000001100 F
b00000000000000000000000000000000 G
b00000000000000000000000000000000 I
b00000000000000000000000000010000 J
b00000000000000000000000000001000 K
b00000000000000000000000010010110 L
b01 M
b00000000000000000000000010010110 N
0O
0Q
b000000000000 R
b010 S
b0000011 T
b00000000000000000000000000000011 U
b00000 W
b00000000000000000000000000000000 x
b00000000000000000000000000010000 y
b00000000 z
b00000101 {
b10100101 |
b00000011 }
1~
#61
0~
#62
0A
b01011 D
b00000000000101011000010110010011 E
b00000000000000000000000000010000 F
b00000000000000000000000000000001 G
b00000000000000000000000000010100 J
b00000000000000000000000000001001 K
b00000000000000000000000001001111 L
b00 M
b00000000000000000000000000001001 N
b00000000000000000000000000010010 P
b000000000001 R
b000 S
b0010011 T
b00000000000000000000000000000001 U
b00001 W
b00000000000000000000000010010110 b
b00000000000000000000000000000001 x
b00000000000000000000000000010100 y
b00010101 {
b10000101 |
b10010011 }
1~
b00000000000000000000000010010110 "!
#63
0~
#64
1?
0@
b001 C
b11001 D
b11111110011001011001110011100011 E
b00000000000000000000000000010100 F
b11111111111111111111111111111100 G
b00000000000000000000000000001001 H
b00000000000000000000000011111111 I
b00000000000000000000000000011000 J
b00000000000000000000000100001000 K
b00000000000000000000000011110011 L
b00000000000000000000000100001000 N
1O
b00000000000000000000000000001100 P
1Q
b111111111100 R
b001 S
b1100011 T
b00000000000000000000000000000010 U
b00110 W
b00000000000000000000000000001001 c
b00000000000000000000000011111111 x
b00000000000000000000000000001100 y
b11111110 z
b01100101 {
b10011100 |
b11100011 }
1~
#65
0~
