top.vcd
$version Generated by VerilatedVcd $end
$date Sat Dec  3 22:41:42 2022 $end
$timescale 1ps $end

 $scope module TOP $end
  $var wire 32 !! a0 [31:0] $end
  $var wire  1 } clk $end
  $var wire  1 ~ rst $end
  $scope module top $end
   $var wire 32 I ALUResult [31:0] $end
   $var wire  4 $! ALUctrl [3:0] $end
   $var wire  4 $! ALUctrl_D [3:0] $end
   $var wire  1 @ ALUsrc $end
   $var wire  1 @ ALUsrc_D $end
   $var wire  1 N EQ $end
   $var wire 32 E ImmExt_D [31:0] $end
   $var wire 32 E ImmOp [31:0] $end
   $var wire  1 #! ImmSrc $end
   $var wire 32 D PC [31:0] $end
   $var wire 32 H PCPlus4 [31:0] $end
   $var wire 32 H PCPlus4_D [31:0] $end
   $var wire 32 H PCPlus4_F [31:0] $end
   $var wire 32 K PCTarget_E [31:0] $end
   $var wire 32 D PC_D [31:0] $end
   $var wire 32 D PC_F [31:0] $end
   $var wire  1 ? PCsrc $end
   $var wire  1 ? PCsrc_D $end
   $var wire  1 ? PCsrc_E $end
   $var wire 32 F RD1 [31:0] $end
   $var wire 32 F RD1_D [31:0] $end
   $var wire 32 G RD2 [31:0] $end
   $var wire 32 G RD2_D [31:0] $end
   $var wire  5 B Rd [4:0] $end
   $var wire  5 B Rd_D [4:0] $end
   $var wire  5 B Rd_W [4:0] $end
   $var wire 32 J ReadData [31:0] $end
   $var wire 32 "! WIDTH [31:0] $end
   $var wire 32 !! a0 [31:0] $end
   $var wire  1 } clk $end
   $var wire 32 C instr [31:0] $end
   $var wire 32 C instr_D [31:0] $end
   $var wire 32 C instr_F [31:0] $end
   $var wire  1 @ regWrite $end
   $var wire  1 @ regWrite_D $end
   $var wire  1 @ regWrite_W $end
   $var wire  1 A resultSrc $end
   $var wire  2 L resultSrc_D [1:0] $end
   $var wire 32 M result_W [31:0] $end
   $var wire  1 ~ rst $end
   $scope module aluTop $end
    $var wire  3 %! ALUctrl [2:0] $end
    $var wire 32 O ALUop2 [31:0] $end
    $var wire 32 I ALUout [31:0] $end
    $var wire  1 @ ALUsrc $end
    $var wire 32 "! DATA_WIDTH [31:0] $end
    $var wire  1 N EQ $end
    $var wire 32 E ImmOp [31:0] $end
    $var wire 32 F RD1 [31:0] $end
    $var wire 32 G RD2 [31:0] $end
    $var wire 32 !! a0 [31:0] $end
    $var wire  1 } clk $end
    $var wire 32 J memOut [31:0] $end
    $scope module ALU $end
     $var wire  3 %! ALUctrl [2:0] $end
     $var wire 32 F ALUop1 [31:0] $end
     $var wire 32 O ALUop2 [31:0] $end
     $var wire 32 "! DATA_WIDTH [31:0] $end
     $var wire  1 N EQ $end
     $var wire 32 I SUM [31:0] $end
    $upscope $end
    $scope module ram $end
     $var wire 32 "! ADDRESS_LENGTH [31:0] $end
     $var wire 32 I a [31:0] $end
     $var wire  1 } clk $end
     $var wire 32 J rd [31:0] $end
     $var wire 32 '! wd [31:0] $end
     $var wire  1 &! we $end
    $upscope $end
   $upscope $end
   $scope module top_decode $end
    $var wire  4 $! ALUctrl_D [3:0] $end
    $var wire  1 @ ALUsrc_D $end
    $var wire  1 N EQ $end
    $var wire 32 E ImmExt_D [31:0] $end
    $var wire  3 P ImmSrc_D [2:0] $end
    $var wire  1 ? PCsrc_D $end
    $var wire 32 F RD1_D [31:0] $end
    $var wire 32 G RD2_D [31:0] $end
    $var wire  5 B Rd_D [4:0] $end
    $var wire  5 B Rd_W [4:0] $end
    $var wire 32 "! WIDTH [31:0] $end
    $var wire 32 !! a0 [31:0] $end
    $var wire  1 } clk $end
    $var wire 32 C instr_D [31:0] $end
    $var wire  1 @ regWrite_D $end
    $var wire  1 @ regWrite_W $end
    $var wire  2 L resultSrc_D [1:0] $end
    $var wire 32 M result_W [31:0] $end
    $var wire  1 ~ rst $end
    $scope module SignExtend $end
     $var wire 32 E ImmOp [31:0] $end
     $var wire  1 Q ImmSrc $end
     $var wire 32 "! data_width [31:0] $end
     $var wire 12 R imm [11:0] $end
     $var wire 32 (! imm_width [31:0] $end
     $var wire 32 C instruction [31:0] $end
    $upscope $end
    $scope module control_unit $end
     $var wire  3 %! ALUctrl [2:0] $end
     $var wire  1 @ ALUsrc $end
     $var wire  1 N EQ $end
     $var wire  1 Q ImmSrc $end
     $var wire  1 ? PCsrc $end
     $var wire  1 @ RegWrite $end
     $var wire  1 A RegWriteSrc $end
     $var wire  3 S funct3 [14:12] $end
     $var wire 32 U instr [31:0] $end
     $var wire  7 T opcode [6:0] $end
    $upscope $end
    $scope module register $end
     $var wire 32 )! ADDRESS_WIDTH [31:0] $end
     $var wire 32 "! DATA_WIDTH [31:0] $end
     $var wire 32 F RD1 [31:0] $end
     $var wire 32 G RD2 [31:0] $end
     $var wire 32 M WD3 [31:0] $end
     $var wire  1 @ WE3 $end
     $var wire 32 !! a0 [31:0] $end
     $var wire  1 } clk $end
     $var wire  5 B rd [4:0] $end
     $var wire 32 X reg_array[0] [31:0] $end
     $var wire 32 b reg_array[10] [31:0] $end
     $var wire 32 c reg_array[11] [31:0] $end
     $var wire 32 d reg_array[12] [31:0] $end
     $var wire 32 e reg_array[13] [31:0] $end
     $var wire 32 f reg_array[14] [31:0] $end
     $var wire 32 g reg_array[15] [31:0] $end
     $var wire 32 h reg_array[16] [31:0] $end
     $var wire 32 i reg_array[17] [31:0] $end
     $var wire 32 j reg_array[18] [31:0] $end
     $var wire 32 k reg_array[19] [31:0] $end
     $var wire 32 Y reg_array[1] [31:0] $end
     $var wire 32 l reg_array[20] [31:0] $end
     $var wire 32 m reg_array[21] [31:0] $end
     $var wire 32 n reg_array[22] [31:0] $end
     $var wire 32 o reg_array[23] [31:0] $end
     $var wire 32 p reg_array[24] [31:0] $end
     $var wire 32 q reg_array[25] [31:0] $end
     $var wire 32 r reg_array[26] [31:0] $end
     $var wire 32 s reg_array[27] [31:0] $end
     $var wire 32 t reg_array[28] [31:0] $end
     $var wire 32 u reg_array[29] [31:0] $end
     $var wire 32 Z reg_array[2] [31:0] $end
     $var wire 32 v reg_array[30] [31:0] $end
     $var wire 32 w reg_array[31] [31:0] $end
     $var wire 32 [ reg_array[3] [31:0] $end
     $var wire 32 \ reg_array[4] [31:0] $end
     $var wire 32 ] reg_array[5] [31:0] $end
     $var wire 32 ^ reg_array[6] [31:0] $end
     $var wire 32 _ reg_array[7] [31:0] $end
     $var wire 32 ` reg_array[8] [31:0] $end
     $var wire 32 a reg_array[9] [31:0] $end
     $var wire  5 V rs1 [4:0] $end
     $var wire  5 W rs2 [4:0] $end
    $upscope $end
   $upscope $end
   $scope module top_fetch $end
    $var wire 32 H PCPlus4_F [31:0] $end
    $var wire 32 K PCTarget_E [31:0] $end
    $var wire 32 D PC_F [31:0] $end
    $var wire  1 ? PCsrc_E $end
    $var wire 32 "! WIDTH [31:0] $end
    $var wire  1 } clk $end
    $var wire 32 C instr_F [31:0] $end
    $var wire 32 x next_PC [31:0] $end
    $var wire  1 ~ rst $end
    $scope module PC_Reg $end
     $var wire 32 "! DATA_LENGTH [31:0] $end
     $var wire 32 D PC [31:0] $end
     $var wire  1 } clk $end
     $var wire 32 x next_PC [31:0] $end
     $var wire  1 ~ rst $end
    $upscope $end
    $scope module add_inc $end
     $var wire 32 "! DATA_LENGTH [31:0] $end
     $var wire 32 *! N [31:0] $end
     $var wire 32 D in [31:0] $end
     $var wire 32 H out [31:0] $end
    $upscope $end
    $scope module instr_mem $end
     $var wire 32 D A [31:0] $end
     $var wire 32 "! ADDRESS_WIDTH [31:0] $end
     $var wire 32 +! DATA_WIDTH [31:0] $end
     $var wire 32 "! INSTRUCTION_WIDTH [31:0] $end
     $var wire 32 C RD [31:0] $end
     $var wire  8 y byte1 [7:0] $end
     $var wire  8 z byte2 [7:0] $end
     $var wire  8 { byte3 [7:0] $end
     $var wire  8 | byte4 [7:0] $end
     $var wire  8 # rom_array[0] [7:0] $end
     $var wire  8 - rom_array[10] [7:0] $end
     $var wire  8 . rom_array[11] [7:0] $end
     $var wire  8 / rom_array[12] [7:0] $end
     $var wire  8 0 rom_array[13] [7:0] $end
     $var wire  8 1 rom_array[14] [7:0] $end
     $var wire  8 2 rom_array[15] [7:0] $end
     $var wire  8 3 rom_array[16] [7:0] $end
     $var wire  8 4 rom_array[17] [7:0] $end
     $var wire  8 5 rom_array[18] [7:0] $end
     $var wire  8 6 rom_array[19] [7:0] $end
     $var wire  8 $ rom_array[1] [7:0] $end
     $var wire  8 7 rom_array[20] [7:0] $end
     $var wire  8 8 rom_array[21] [7:0] $end
     $var wire  8 9 rom_array[22] [7:0] $end
     $var wire  8 : rom_array[23] [7:0] $end
     $var wire  8 ; rom_array[24] [7:0] $end
     $var wire  8 < rom_array[25] [7:0] $end
     $var wire  8 = rom_array[26] [7:0] $end
     $var wire  8 > rom_array[27] [7:0] $end
     $var wire  8 % rom_array[2] [7:0] $end
     $var wire  8 & rom_array[3] [7:0] $end
     $var wire  8 ' rom_array[4] [7:0] $end
     $var wire  8 ( rom_array[5] [7:0] $end
     $var wire  8 ) rom_array[6] [7:0] $end
     $var wire  8 * rom_array[7] [7:0] $end
     $var wire  8 + rom_array[8] [7:0] $end
     $var wire  8 , rom_array[9] [7:0] $end
    $upscope $end
    $scope module mux $end
     $var wire 32 "! WIDTH [31:0] $end
     $var wire 32 H d_0 [31:0] $end
     $var wire 32 K d_1 [31:0] $end
     $var wire 32 x dout [31:0] $end
     $var wire  1 ? s $end
    $upscope $end
   $upscope $end
  $upscope $end
 $upscope $end
$enddefinitions $end


#0
b00000000 #
b00000000 $
b00000000 %
b00000000 &
b00000000 '
b00000000 (
b00000000 )
b00000000 *
b00000000 +
b00000000 ,
b00000000 -
b00000000 .
b00000000 /
b00000000 0
b00000000 1
b00000000 2
b00000000 3
b00000000 4
b00000000 5
b00000000 6
b00000000 7
b00000000 8
b00000000 9
b00000000 :
b00000000 ;
b00000000 <
b00000000 =
b00000000 >
0?
0@
0A
b00000 B
b00000000000000000000000000000000 C
b00000000000000000000000000000000 D
b00000000000000000000000000000000 E
b00000000000000000000000000000000 F
b00000000000000000000000000000000 G
b00000000000000000000000000000100 H
b00000000000000000000000000000000 I
b00000000000000000000000000000000 J
b00000000000000000000000000000000 K
b00 L
b00000000000000000000000000000000 M
1N
b00000000000000000000000000000000 O
b000 P
0Q
b000000000000 R
b000 S
b0000000 T
b00000000000000000000000000000000 U
b00000 V
b00000 W
b00000000000000000000000000000000 X
b00000000000000000000000000000000 Y
b00000000000000000000000000000000 Z
b00000000000000000000000000000000 [
b00000000000000000000000000000000 \
b00000000000000000000000000000000 ]
b00000000000000000000000000000000 ^
b00000000000000000000000000000000 _
b00000000000000000000000000000000 `
b00000000000000000000000000000000 a
b00000000000000000000000000000000 b
b00000000000000000000000000000000 c
b00000000000000000000000000000000 d
b00000000000000000000000000000000 e
b00000000000000000000000000000000 f
b00000000000000000000000000000000 g
b00000000000000000000000000000000 h
b00000000000000000000000000000000 i
b00000000000000000000000000000000 j
b00000000000000000000000000000000 k
b00000000000000000000000000000000 l
b00000000000000000000000000000000 m
b00000000000000000000000000000000 n
b00000000000000000000000000000000 o
b00000000000000000000000000000000 p
b00000000000000000000000000000000 q
b00000000000000000000000000000000 r
b00000000000000000000000000000000 s
b00000000000000000000000000000000 t
b00000000000000000000000000000000 u
b00000000000000000000000000000000 v
b00000000000000000000000000000000 w
b00000000000000000000000000000100 x
b00000000 y
b00000000 z
b00000000 {
b00000000 |
1}
1~
b00000000000000000000000000000000 !!
b00000000000000000000000000100000 "!
0#!
b0000 $!
b000 %!
0&!
b00000000000000000000000000000000 '!
b00000000000000000000000000001100 (!
b00000000000000000000000000000101 )!
b00000000000000000000000000000100 *!
b00000000000000000000000000001000 +!
#1
b00001111 #
b11110000 $
b00000011 %
b00010011 &
b00000101 )
b00010011 *
b00000101 -
b10010011 .
b00000101 0
b10100101 1
b00000011 2
b00010101 4
b10000101 5
b10010011 6
b11111110 7
b01100101 8
b10011100 9
b11100011 :
b11111110 ;
b00000011 <
b00011000 =
b11100011 >
1@
b00110 B
b00001111111100000000001100010011 C
b00000000000000000000000011111111 E
b00000000000000000000000011111111 I
b11111111111111111111111100000000 J
b00000000000000000000000111111110 K
b00000000000000000000000011111111 M
0N
b00000000000000000000000011111111 O
b000011111111 R
b0010011 T
b00000000000000000000000000000001 U
b11111 W
b00001111 y
b11110000 z
b00000011 {
b00010011 |
0}
#2
b00000000000000000000000011111111 ^
1}
#3
0}
#4
1}
#5
0}
#6
1}
0~
#7
0}
#8
b01010 B
b00000000000000000000010100010011 C
b00000000000000000000000000000100 D
b00000000000000000000000000000000 E
b00000000000000000000000000001000 H
b00000000000000000000000000000000 I
b00000000000000000000000000000000 J
b00000000000000000000000000000100 K
b00000000000000000000000000000000 M
1N
b00000000000000000000000000000000 O
b000000000000 R
b00000 W
b00000000000000000000000000001000 x
b00000000 y
b00000000 z
b00000101 {
1}
#9
0}
#10
b01011 B
b00000000000000000000010110010011 C
b00000000000000000000000000001000 D
b00000000000000000000000000001100 H
b00000000000000000000000000001000 K
b00000000000000000000000000001100 x
b10010011 |
1}
#11
0}
#12
1A
b01010 B
b00000000000001011010010100000011 C
b00000000000000000000000000001100 D
b00000000000000000000000000010000 H
b00000000000000000000000000001100 K
b01 L
b010 S
b0000011 T
b00000000000000000000000000000011 U
b01011 V
b00000000000000000000000000010000 x
b00000101 z
b10100101 {
b00000011 |
1}
#13
0}
#14
0A
b01011 B
b00000000000101011000010110010011 C
b00000000000000000000000000010000 D
b00000000000000000000000000000001 E
b00000000000000000000000000010100 H
b00000000000000000000000000000001 I
b00000000000000000000000001001111 J
b00000000000000000000000000010010 K
b00 L
b00000000000000000000000000000001 M
0N
b00000000000000000000000000000001 O
b000000000001 R
b000 S
b0010011 T
b00000000000000000000000000000001 U
b00001 W
b00000000000000000000000000010100 x
b00010101 z
b10000101 {
b10010011 |
1}
#15
0}
#16
1?
0@
b11001 B
b11111110011001011001110011100011 C
b00000000000000000000000000010100 D
b11111111111111111111111111111100 E
b00000000000000000000000000000001 F
b00000000000000000000000011111111 G
b00000000000000000000000000011000 H
b00000000000000000000000100000000 I
b11111111111111111111111100001101 J
b00000000000000000000000000001100 K
b00000000000000000000000100000000 M
b00000000000000000000000011111111 O
b001 P
1Q
b111111111100 R
b001 S
b1100011 T
b00000000000000000000000000000010 U
b00110 W
b00000000000000000000000000000001 c
b00000000000000000000000000001100 x
b11111110 y
b01100101 z
b10011100 {
b11100011 |
1}
#17
0}
#18
0?
1@
1A
b01010 B
b00000000000001011010010100000011 C
b00000000000000000000000000001100 D
b00000000000000000000000000000000 E
b00000000000000000000000000000000 G
b00000000000000000000000000010000 H
b00000000000000000000000000000001 I
b00000000000000000000000001001111 J
b01 L
b00000000000000000000000001001111 M
b00000000000000000000000000000000 O
b000 P
0Q
b000000000000 R
b010 S
b0000011 T
b00000000000000000000000000000011 U
b00000 W
b00000000000000000000000000010000 x
b00000000 y
b00000101 z
b10100101 {
b00000011 |
1}
#19
0}
#20
0A
b01011 B
b00000000000101011000010110010011 C
b00000000000000000000000000010000 D
b00000000000000000000000000000001 E
b00000000000000000000000000010100 H
b00000000000000000000000000000010 I
b00000000000000000000000010010110 J
b00000000000000000000000000010010 K
b00 L
b00000000000000000000000000000010 M
1N
b00000000000000000000000000000001 O
b000000000001 R
b000 S
b0010011 T
b00000000000000000000000000000001 U
b00001 W
b00000000000000000000000001001111 b
b00000000000000000000000000010100 x
b00010101 z
b10000101 {
b10010011 |
1}
b00000000000000000000000001001111 !!
#21
0}
#22
1?
0@
b11001 B
b11111110011001011001110011100011 C
b00000000000000000000000000010100 D
b11111111111111111111111111111100 E
b00000000000000000000000000000010 F
b00000000000000000000000011111111 G
b00000000000000000000000000011000 H
b00000000000000000000000100000001 I
b11111111111111111111111100110001 J
b00000000000000000000000000001100 K
b00000000000000000000000100000001 M
0N
b00000000000000000000000011111111 O
b001 P
1Q
b111111111100 R
b001 S
b1100011 T
b00000000000000000000000000000010 U
b00110 W
b00000000000000000000000000000010 c
b00000000000000000000000000001100 x
b11111110 y
b01100101 z
b10011100 {
b11100011 |
1}
#23
0}
#24
0?
1@
1A
b01010 B
b00000000000001011010010100000011 C
b00000000000000000000000000001100 D
b00000000000000000000000000000000 E
b00000000000000000000000000000000 G
b00000000000000000000000000010000 H
b00000000000000000000000000000010 I
b00000000000000000000000010010110 J
b01 L
b00000000000000000000000010010110 M
b00000000000000000000000000000000 O
b000 P
0Q
b000000000000 R
b010 S
b0000011 T
b00000000000000000000000000000011 U
b00000 W
b00000000000000000000000000010000 x
b00000000 y
b00000101 z
b10100101 {
b00000011 |
1}
#25
0}
#26
0A
b01011 B
b00000000000101011000010110010011 C
b00000000000000000000000000010000 D
b00000000000000000000000000000001 E
b00000000000000000000000000010100 H
b00000000000000000000000000000011 I
b00000000000000000000000011001111 J
b00000000000000000000000000010010 K
b00 L
b00000000000000000000000000000011 M
b00000000000000000000000000000001 O
b000000000001 R
b000 S
b0010011 T
b00000000000000000000000000000001 U
b00001 W
b00000000000000000000000010010110 b
b00000000000000000000000000010100 x
b00010101 z
b10000101 {
b10010011 |
1}
b00000000000000000000000010010110 !!
#27
0}
#28
1?
0@
b11001 B
b11111110011001011001110011100011 C
b00000000000000000000000000010100 D
b11111111111111111111111111111100 E
b00000000000000000000000000000011 F
b00000000000000000000000011111111 G
b00000000000000000000000000011000 H
b00000000000000000000000100000010 I
b11111111111111111111111101101010 J
b00000000000000000000000000001100 K
b00000000000000000000000100000010 M
b00000000000000000000000011111111 O
b001 P
1Q
b111111111100 R
b001 S
b1100011 T
b00000000000000000000000000000010 U
b00110 W
b00000000000000000000000000000011 c
b00000000000000000000000000001100 x
b11111110 y
b01100101 z
b10011100 {
b11100011 |
1}
#29
0}
#30
0?
1@
1A
b01010 B
b00000000000001011010010100000011 C
b00000000000000000000000000001100 D
b00000000000000000000000000000000 E
b00000000000000000000000000000000 G
b00000000000000000000000000010000 H
b00000000000000000000000000000011 I
b00000000000000000000000011001111 J
b01 L
b00000000000000000000000011001111 M
b00000000000000000000000000000000 O
b000 P
0Q
b000000000000 R
b010 S
b0000011 T
b00000000000000000000000000000011 U
b00000 W
b00000000000000000000000000010000 x
b00000000 y
b00000101 z
b10100101 {
b00000011 |
1}
#31
0}
#32
0A
b01011 B
b00000000000101011000010110010011 C
b00000000000000000000000000010000 D
b00000000000000000000000000000001 E
b00000000000000000000000000010100 H
b00000000000000000000000000000100 I
b00000000000000000000000011110011 J
b00000000000000000000000000010010 K
b00 L
b00000000000000000000000000000100 M
b00000000000000000000000000000001 O
b000000000001 R
b000 S
b0010011 T
b00000000000000000000000000000001 U
b00001 W
b00000000000000000000000011001111 b
b00000000000000000000000000010100 x
b00010101 z
b10000101 {
b10010011 |
1}
b00000000000000000000000011001111 !!
#33
0}
#34
1?
0@
b11001 B
b11111110011001011001110011100011 C
b00000000000000000000000000010100 D
b11111111111111111111111111111100 E
b00000000000000000000000000000100 F
b00000000000000000000000011111111 G
b00000000000000000000000000011000 H
b00000000000000000000000100000011 I
b11111111111111111111111110110001 J
b00000000000000000000000000001100 K
b00000000000000000000000100000011 M
b00000000000000000000000011111111 O
b001 P
1Q
b111111111100 R
b001 S
b1100011 T
b00000000000000000000000000000010 U
b00110 W
b00000000000000000000000000000100 c
b00000000000000000000000000001100 x
b11111110 y
b01100101 z
b10011100 {
b11100011 |
1}
#35
0}
#36
0?
1@
1A
b01010 B
b00000000000001011010010100000011 C
b00000000000000000000000000001100 D
b00000000000000000000000000000000 E
b00000000000000000000000000000000 G
b00000000000000000000000000010000 H
b00000000000000000000000000000100 I
b00000000000000000000000011110011 J
b01 L
b00000000000000000000000011110011 M
b00000000000000000000000000000000 O
b000 P
0Q
b000000000000 R
b010 S
b0000011 T
b00000000000000000000000000000011 U
b00000 W
b00000000000000000000000000010000 x
b00000000 y
b00000101 z
b10100101 {
b00000011 |
1}
#37
0}
#38
0A
b01011 B
b00000000000101011000010110010011 C
b00000000000000000000000000010000 D
b00000000000000000000000000000001 E
b00000000000000000000000000010100 H
b00000000000000000000000000000101 I
b00000000000000000000000100000000 J
b00000000000000000000000000010010 K
b00 L
b00000000000000000000000000000101 M
b00000000000000000000000000000001 O
b000000000001 R
b000 S
b0010011 T
b00000000000000000000000000000001 U
b00001 W
b00000000000000000000000011110011 b
b00000000000000000000000000010100 x
b00010101 z
b10000101 {
b10010011 |
1}
b00000000000000000000000011110011 !!
#39
0}
#40
1?
0@
b11001 B
b11111110011001011001110011100011 C
b00000000000000000000000000010100 D
b11111111111111111111111111111100 E
b00000000000000000000000000000101 F
b00000000000000000000000011111111 G
b00000000000000000000000000011000 H
b00000000000000000000000100000100 I
b00000000000000000000000000000000 J
b00000000000000000000000000001100 K
b00000000000000000000000100000100 M
b00000000000000000000000011111111 O
b001 P
1Q
b111111111100 R
b001 S
b1100011 T
b00000000000000000000000000000010 U
b00110 W
b00000000000000000000000000000101 c
b00000000000000000000000000001100 x
b11111110 y
b01100101 z
b10011100 {
b11100011 |
1}
#41
0}
#42
0?
1@
1A
b01010 B
b00000000000001011010010100000011 C
b00000000000000000000000000001100 D
b00000000000000000000000000000000 E
b00000000000000000000000000000000 G
b00000000000000000000000000010000 H
b00000000000000000000000000000101 I
b00000000000000000000000100000000 J
b01 L
b00000000000000000000000100000000 M
b00000000000000000000000000000000 O
b000 P
0Q
b000000000000 R
b010 S
b0000011 T
b00000000000000000000000000000011 U
b00000 W
b00000000000000000000000000010000 x
b00000000 y
b00000101 z
b10100101 {
b00000011 |
1}
#43
0}
#44
0A
b01011 B
b00000000000101011000010110010011 C
b00000000000000000000000000010000 D
b00000000000000000000000000000001 E
b00000000000000000000000000010100 H
b00000000000000000000000000000110 I
b00000000000000000000000011110011 J
b00000000000000000000000000010010 K
b00 L
b00000000000000000000000000000110 M
b00000000000000000000000000000001 O
b000000000001 R
b000 S
b0010011 T
b00000000000000000000000000000001 U
b00001 W
b00000000000000000000000100000000 b
b00000000000000000000000000010100 x
b00010101 z
b10000101 {
b10010011 |
1}
b00000000000000000000000100000000 !!
#45
0}
#46
1?
0@
b11001 B
b11111110011001011001110011100011 C
b00000000000000000000000000010100 D
b11111111111111111111111111111100 E
b00000000000000000000000000000110 F
b00000000000000000000000011111111 G
b00000000000000000000000000011000 H
b00000000000000000000000100000101 I
b00000000000000000000000001001111 J
b00000000000000000000000000001100 K
b00000000000000000000000100000101 M
b00000000000000000000000011111111 O
b001 P
1Q
b111111111100 R
b001 S
b1100011 T
b00000000000000000000000000000010 U
b00110 W
b00000000000000000000000000000110 c
b00000000000000000000000000001100 x
b11111110 y
b01100101 z
b10011100 {
b11100011 |
1}
#47
0}
#48
0?
1@
1A
b01010 B
b00000000000001011010010100000011 C
b00000000000000000000000000001100 D
b00000000000000000000000000000000 E
b00000000000000000000000000000000 G
b00000000000000000000000000010000 H
b00000000000000000000000000000110 I
b00000000000000000000000011110011 J
b01 L
b00000000000000000000000011110011 M
b00000000000000000000000000000000 O
b000 P
0Q
b000000000000 R
b010 S
b0000011 T
b00000000000000000000000000000011 U
b00000 W
b00000000000000000000000000010000 x
b00000000 y
b00000101 z
b10100101 {
b00000011 |
1}
#49
0}
#50
0A
b01011 B
b00000000000101011000010110010011 C
b00000000000000000000000000010000 D
b00000000000000000000000000000001 E
b00000000000000000000000000010100 H
b00000000000000000000000000000111 I
b00000000000000000000000011001111 J
b00000000000000000000000000010010 K
b00 L
b00000000000000000000000000000111 M
b00000000000000000000000000000001 O
b000000000001 R
b000 S
b0010011 T
b00000000000000000000000000000001 U
b00001 W
b00000000000000000000000011110011 b
b00000000000000000000000000010100 x
b00010101 z
b10000101 {
b10010011 |
1}
b00000000000000000000000011110011 !!
#51
0}
#52
1?
0@
b11001 B
b11111110011001011001110011100011 C
b00000000000000000000000000010100 D
b11111111111111111111111111111100 E
b00000000000000000000000000000111 F
b00000000000000000000000011111111 G
b00000000000000000000000000011000 H
b00000000000000000000000100000110 I
b00000000000000000000000010010110 J
b00000000000000000000000000001100 K
b00000000000000000000000100000110 M
b00000000000000000000000011111111 O
b001 P
1Q
b111111111100 R
b001 S
b1100011 T
b00000000000000000000000000000010 U
b00110 W
b00000000000000000000000000000111 c
b00000000000000000000000000001100 x
b11111110 y
b01100101 z
b10011100 {
b11100011 |
1}
#53
0}
#54
0?
1@
1A
b01010 B
b00000000000001011010010100000011 C
b00000000000000000000000000001100 D
b00000000000000000000000000000000 E
b00000000000000000000000000000000 G
b00000000000000000000000000010000 H
b00000000000000000000000000000111 I
b00000000000000000000000011001111 J
b01 L
b00000000000000000000000011001111 M
b00000000000000000000000000000000 O
b000 P
0Q
b000000000000 R
b010 S
b0000011 T
b00000000000000000000000000000011 U
b00000 W
b00000000000000000000000000010000 x
b00000000 y
b00000101 z
b10100101 {
b00000011 |
1}
#55
0}
#56
0A
b01011 B
b00000000000101011000010110010011 C
b00000000000000000000000000010000 D
b00000000000000000000000000000001 E
b00000000000000000000000000010100 H
b00000000000000000000000000001000 I
b00000000000000000000000010010110 J
b00000000000000000000000000010010 K
b00 L
b00000000000000000000000000001000 M
b00000000000000000000000000000001 O
b000000000001 R
b000 S
b0010011 T
b00000000000000000000000000000001 U
b00001 W
b00000000000000000000000011001111 b
b00000000000000000000000000010100 x
b00010101 z
b10000101 {
b10010011 |
1}
b00000000000000000000000011001111 !!
#57
0}
#58
1?
0@
b11001 B
b11111110011001011001110011100011 C
b00000000000000000000000000010100 D
b11111111111111111111111111111100 E
b00000000000000000000000000001000 F
b00000000000000000000000011111111 G
b00000000000000000000000000011000 H
b00000000000000000000000100000111 I
b00000000000000000000000011001111 J
b00000000000000000000000000001100 K
b00000000000000000000000100000111 M
b00000000000000000000000011111111 O
b001 P
1Q
b111111111100 R
b001 S
b1100011 T
b00000000000000000000000000000010 U
b00110 W
b00000000000000000000000000001000 c
b00000000000000000000000000001100 x
b11111110 y
b01100101 z
b10011100 {
b11100011 |
1}
#59
0}
#60
0?
1@
1A
b01010 B
b00000000000001011010010100000011 C
b00000000000000000000000000001100 D
b00000000000000000000000000000000 E
b00000000000000000000000000000000 G
b00000000000000000000000000010000 H
b00000000000000000000000000001000 I
b00000000000000000000000010010110 J
b01 L
b00000000000000000000000010010110 M
b00000000000000000000000000000000 O
b000 P
0Q
b000000000000 R
b010 S
b0000011 T
b00000000000000000000000000000011 U
b00000 W
b00000000000000000000000000010000 x
b00000000 y
b00000101 z
b10100101 {
b00000011 |
1}
#61
0}
#62
0A
b01011 B
b00000000000101011000010110010011 C
b00000000000000000000000000010000 D
b00000000000000000000000000000001 E
b00000000000000000000000000010100 H
b00000000000000000000000000001001 I
b00000000000000000000000001001111 J
b00000000000000000000000000010010 K
b00 L
b00000000000000000000000000001001 M
b00000000000000000000000000000001 O
b000000000001 R
b000 S
b0010011 T
b00000000000000000000000000000001 U
b00001 W
b00000000000000000000000010010110 b
b00000000000000000000000000010100 x
b00010101 z
b10000101 {
b10010011 |
1}
b00000000000000000000000010010110 !!
#63
0}
#64
1?
0@
b11001 B
b11111110011001011001110011100011 C
b00000000000000000000000000010100 D
b11111111111111111111111111111100 E
b00000000000000000000000000001001 F
b00000000000000000000000011111111 G
b00000000000000000000000000011000 H
b00000000000000000000000100001000 I
b00000000000000000000000011110011 J
b00000000000000000000000000001100 K
b00000000000000000000000100001000 M
b00000000000000000000000011111111 O
b001 P
1Q
b111111111100 R
b001 S
b1100011 T
b00000000000000000000000000000010 U
b00110 W
b00000000000000000000000000001001 c
b00000000000000000000000000001100 x
b11111110 y
b01100101 z
b10011100 {
b11100011 |
1}
#65
0}
#66
0?
1@
1A
b01010 B
b00000000000001011010010100000011 C
b00000000000000000000000000001100 D
b00000000000000000000000000000000 E
b00000000000000000000000000000000 G
b00000000000000000000000000010000 H
b00000000000000000000000000001001 I
b00000000000000000000000001001111 J
b01 L
b00000000000000000000000001001111 M
b00000000000000000000000000000000 O
b000 P
0Q
b000000000000 R
b010 S
b0000011 T
b00000000000000000000000000000011 U
b00000 W
b00000000000000000000000000010000 x
b00000000 y
b00000101 z
b10100101 {
b00000011 |
1}
#67
0}
#68
0A
b01011 B
b00000000000101011000010110010011 C
b00000000000000000000000000010000 D
b00000000000000000000000000000001 E
b00000000000000000000000000010100 H
b00000000000000000000000000001010 I
b00000000000000000000000000000000 J
b00000000000000000000000000010010 K
b00 L
b00000000000000000000000000001010 M
b00000000000000000000000000000001 O
b000000000001 R
b000 S
b0010011 T
b00000000000000000000000000000001 U
b00001 W
b00000000000000000000000001001111 b
b00000000000000000000000000010100 x
b00010101 z
b10000101 {
b10010011 |
1}
b00000000000000000000000001001111 !!
#69
0}
#70
1?
0@
b11001 B
b11111110011001011001110011100011 C
b00000000000000000000000000010100 D
b11111111111111111111111111111100 E
b00000000000000000000000000001010 F
b00000000000000000000000011111111 G
b00000000000000000000000000011000 H
b00000000000000000000000100001001 I
b00000000000000000000000100000000 J
b00000000000000000000000000001100 K
b00000000000000000000000100001001 M
b00000000000000000000000011111111 O
b001 P
1Q
b111111111100 R
b001 S
b1100011 T
b00000000000000000000000000000010 U
b00110 W
b00000000000000000000000000001010 c
b00000000000000000000000000001100 x
b11111110 y
b01100101 z
b10011100 {
b11100011 |
1}
#71
0}
#72
0?
1@
1A
b01010 B
b00000000000001011010010100000011 C
b00000000000000000000000000001100 D
b00000000000000000000000000000000 E
b00000000000000000000000000000000 G
b00000000000000000000000000010000 H
b00000000000000000000000000001010 I
b00000000000000000000000000000000 J
b01 L
b00000000000000000000000000000000 M
b00000000000000000000000000000000 O
b000 P
0Q
b000000000000 R
b010 S
b0000011 T
b00000000000000000000000000000011 U
b00000 W
b00000000000000000000000000010000 x
b00000000 y
b00000101 z
b10100101 {
b00000011 |
1}
