top.vcd
$version Generated by VerilatedVcd $end
$date Tue Dec  6 21:43:06 2022 $end
$timescale 1ps $end

 $scope module TOP $end
  $var wire 32 ~ a0 [31:0] $end
  $var wire  1 | clk $end
  $var wire  1 } rst $end
  $scope module top $end
   $var wire 32 < ALUResult_E [31:0] $end
   $var wire 32 > ALUResult_M [31:0] $end
   $var wire 32 F ALUResult_W [31:0] $end
   $var wire  4 %! ALUctrl_D [3:0] $end
   $var wire  4 9 ALUctrl_E [3:0] $end
   $var wire  1 * ALUsrc_D $end
   $var wire  1 3 ALUsrc_E $end
   $var wire  1 ; EQ $end
   $var wire 32 ) ImmExt_D [31:0] $end
   $var wire 32 0 ImmExt_E [31:0] $end
   $var wire 32 ( PCPlus4_D [31:0] $end
   $var wire 32 1 PCPlus4_E [31:0] $end
   $var wire 32 % PCPlus4_F [31:0] $end
   $var wire 32 @ PCPlus4_M [31:0] $end
   $var wire 32 H PCPlus4_W [31:0] $end
   $var wire 32 = PCTarget_E [31:0] $end
   $var wire 32 ' PC_D [31:0] $end
   $var wire 32 2 PC_E [31:0] $end
   $var wire 32 $ PC_F [31:0] $end
   $var wire  1 6 PCsrc_E $end
   $var wire 32 !! RD1_D [31:0] $end
   $var wire 32 . RD1_E [31:0] $end
   $var wire 32 "! RD2_D [31:0] $end
   $var wire 32 / RD2_E [31:0] $end
   $var wire  5 - Rd_D [4:0] $end
   $var wire  5 : Rd_E [4:0] $end
   $var wire  5 D Rd_M [4:0] $end
   $var wire  5 K Rd_W [4:0] $end
   $var wire 32 #! WIDTH [31:0] $end
   $var wire 32 ~ a0 [31:0] $end
   $var wire  3 , branch_D [2:0] $end
   $var wire  3 8 branch_E [2:0] $end
   $var wire  1 | clk $end
   $var wire 32 & instr_D [31:0] $end
   $var wire 32 # instr_F [31:0] $end
   $var wire  1 $! jump_D $end
   $var wire  1 5 jump_E $end
   $var wire  1 $! memWrite_D $end
   $var wire  1 4 memWrite_E $end
   $var wire  1 B memWrite_M $end
   $var wire 32 E readData_M [31:0] $end
   $var wire 32 G readData_W [31:0] $end
   $var wire  1 * regWrite_D $end
   $var wire  1 3 regWrite_E $end
   $var wire  1 A regWrite_M $end
   $var wire  1 I regWrite_W $end
   $var wire  2 + resultSrc_D [1:0] $end
   $var wire  2 7 resultSrc_E [1:0] $end
   $var wire  2 C resultSrc_M [1:0] $end
   $var wire  2 J resultSrc_W [1:0] $end
   $var wire 32 L result_W [31:0] $end
   $var wire  1 } rst $end
   $var wire 32 / writeData_E [31:0] $end
   $var wire 32 ? writeData_M [31:0] $end
   $scope module decode_execute_reg $end
    $var wire  3 &! ALUctrl_D [2:0] $end
    $var wire  3 M ALUctrl_E [2:0] $end
    $var wire  1 * ALUsrc_D $end
    $var wire  1 3 ALUsrc_E $end
    $var wire 32 ) ImmExt_D [31:0] $end
    $var wire 32 0 ImmExt_E [31:0] $end
    $var wire 32 ( PCPlus4_D [31:0] $end
    $var wire 32 1 PCPlus4_E [31:0] $end
    $var wire 32 ' PC_D [31:0] $end
    $var wire 32 2 PC_E [31:0] $end
    $var wire 32 !! RD1_D [31:0] $end
    $var wire 32 . RD1_E [31:0] $end
    $var wire 32 "! RD2_D [31:0] $end
    $var wire 32 / RD2_E [31:0] $end
    $var wire  5 - Rd_D [4:0] $end
    $var wire  5 : Rd_E [4:0] $end
    $var wire 32 #! WIDTH [31:0] $end
    $var wire  3 , branch_D [2:0] $end
    $var wire  3 8 branch_E [2:0] $end
    $var wire  1 | clk $end
    $var wire  1 $! jump_D $end
    $var wire  1 5 jump_E $end
    $var wire  1 $! memWrite_D $end
    $var wire  1 4 memWrite_E $end
    $var wire  1 * regWrite_D $end
    $var wire  1 3 regWrite_E $end
    $var wire  2 + resultSrc_D [1:0] $end
    $var wire  2 7 resultSrc_E [1:0] $end
    $var wire  1 } rst $end
   $upscope $end
   $scope module execute_memory_reg $end
    $var wire 32 < ALUResult_E [31:0] $end
    $var wire 32 > ALUResult_M [31:0] $end
    $var wire 32 1 PCPlus4_E [31:0] $end
    $var wire 32 @ PCPlus4_M [31:0] $end
    $var wire  5 : Rd_E [4:0] $end
    $var wire  5 D Rd_M [4:0] $end
    $var wire 32 #! WIDTH [31:0] $end
    $var wire  1 | clk $end
    $var wire  1 4 memWrite_E $end
    $var wire  1 B memWrite_M $end
    $var wire  1 3 regWrite_E $end
    $var wire  1 A regWrite_M $end
    $var wire  2 7 resultSrc_E [1:0] $end
    $var wire  2 C resultSrc_M [1:0] $end
    $var wire  1 } rst $end
    $var wire 32 / writeData_E [31:0] $end
    $var wire 32 ? writeData_M [31:0] $end
   $upscope $end
   $scope module fetch_decode_reg $end
    $var wire 32 ( PCPlus4_D [31:0] $end
    $var wire 32 % PCPlus4_F [31:0] $end
    $var wire 32 ' PC_D [31:0] $end
    $var wire 32 $ PC_F [31:0] $end
    $var wire 32 #! WIDTH [31:0] $end
    $var wire  1 | clk $end
    $var wire 32 & instr_D [31:0] $end
    $var wire 32 # instr_F [31:0] $end
    $var wire  1 } rst $end
   $upscope $end
   $scope module memory_writeback_reg $end
    $var wire 32 > ALUResult_M [31:0] $end
    $var wire 32 F ALUResult_W [31:0] $end
    $var wire 32 @ PCPlus4_M [31:0] $end
    $var wire 32 H PCPlus4_W [31:0] $end
    $var wire  5 D Rd_M [4:0] $end
    $var wire  5 K Rd_W [4:0] $end
    $var wire 32 #! WIDTH [31:0] $end
    $var wire  1 | clk $end
    $var wire 32 E readData_M [31:0] $end
    $var wire 32 G readData_W [31:0] $end
    $var wire  1 A regWrite_M $end
    $var wire  1 I regWrite_W $end
    $var wire  2 C resultSrc_M [1:0] $end
    $var wire  2 J resultSrc_W [1:0] $end
    $var wire  1 } rst $end
   $upscope $end
   $scope module top_decode $end
    $var wire  4 %! ALUctrl_D [3:0] $end
    $var wire  1 * ALUsrc_D $end
    $var wire 32 ) ImmExt_D [31:0] $end
    $var wire  3 , ImmSrc_D [2:0] $end
    $var wire 32 !! RD1_D [31:0] $end
    $var wire 32 "! RD2_D [31:0] $end
    $var wire  5 - Rd_D [4:0] $end
    $var wire  5 K Rd_W [4:0] $end
    $var wire 32 #! WIDTH [31:0] $end
    $var wire 32 ~ a0 [31:0] $end
    $var wire  3 , branch_D [2:0] $end
    $var wire  1 | clk $end
    $var wire 32 & instr_D [31:0] $end
    $var wire  1 * regWrite_D $end
    $var wire  1 I regWrite_W $end
    $var wire  2 + resultSrc_D [1:0] $end
    $var wire 32 L result_W [31:0] $end
    $var wire  1 } rst $end
    $scope module SignExtend $end
     $var wire 32 ) ImmOp [31:0] $end
     $var wire  1 N ImmSrc $end
     $var wire 32 #! data_width [31:0] $end
     $var wire 12 O imm [11:0] $end
     $var wire 32 '! imm_width [31:0] $end
     $var wire 32 & instruction [31:0] $end
    $upscope $end
    $scope module control_unit $end
     $var wire  3 &! ALUctrl [2:0] $end
     $var wire  1 * ALUsrc $end
     $var wire  1 N ImmSrc $end
     $var wire  1 * RegWrite $end
     $var wire  1 R RegWriteSrc $end
     $var wire  3 , branch [2:0] $end
     $var wire  3 P funct3 [14:12] $end
     $var wire 32 S instr [31:0] $end
     $var wire  7 Q opcode [6:0] $end
    $upscope $end
    $scope module register $end
     $var wire 32 (! ADDRESS_WIDTH [31:0] $end
     $var wire 32 #! DATA_WIDTH [31:0] $end
     $var wire 32 !! RD1 [31:0] $end
     $var wire 32 "! RD2 [31:0] $end
     $var wire 32 L WD3 [31:0] $end
     $var wire  1 I WE3 $end
     $var wire 32 ~ a0 [31:0] $end
     $var wire  1 | clk $end
     $var wire  5 K rd [4:0] $end
     $var wire 32 \ reg_array[0] [31:0] $end
     $var wire 32 f reg_array[10] [31:0] $end
     $var wire 32 g reg_array[11] [31:0] $end
     $var wire 32 h reg_array[12] [31:0] $end
     $var wire 32 i reg_array[13] [31:0] $end
     $var wire 32 j reg_array[14] [31:0] $end
     $var wire 32 k reg_array[15] [31:0] $end
     $var wire 32 l reg_array[16] [31:0] $end
     $var wire 32 m reg_array[17] [31:0] $end
     $var wire 32 n reg_array[18] [31:0] $end
     $var wire 32 o reg_array[19] [31:0] $end
     $var wire 32 ] reg_array[1] [31:0] $end
     $var wire 32 p reg_array[20] [31:0] $end
     $var wire 32 q reg_array[21] [31:0] $end
     $var wire 32 r reg_array[22] [31:0] $end
     $var wire 32 s reg_array[23] [31:0] $end
     $var wire 32 t reg_array[24] [31:0] $end
     $var wire 32 u reg_array[25] [31:0] $end
     $var wire 32 v reg_array[26] [31:0] $end
     $var wire 32 w reg_array[27] [31:0] $end
     $var wire 32 x reg_array[28] [31:0] $end
     $var wire 32 y reg_array[29] [31:0] $end
     $var wire 32 ^ reg_array[2] [31:0] $end
     $var wire 32 z reg_array[30] [31:0] $end
     $var wire 32 { reg_array[31] [31:0] $end
     $var wire 32 _ reg_array[3] [31:0] $end
     $var wire 32 ` reg_array[4] [31:0] $end
     $var wire 32 a reg_array[5] [31:0] $end
     $var wire 32 b reg_array[6] [31:0] $end
     $var wire 32 c reg_array[7] [31:0] $end
     $var wire 32 d reg_array[8] [31:0] $end
     $var wire 32 e reg_array[9] [31:0] $end
     $var wire  5 T rs1 [4:0] $end
     $var wire  5 U rs2 [4:0] $end
    $upscope $end
   $upscope $end
   $scope module top_execute $end
    $var wire  4 9 ALUctrl [3:0] $end
    $var wire 32 V ALUop2 [31:0] $end
    $var wire 32 < ALUout [31:0] $end
    $var wire  1 3 ALUsrc $end
    $var wire 32 #! DATA_WIDTH [31:0] $end
    $var wire  1 ; EQ $end
    $var wire 32 0 ImmOp [31:0] $end
    $var wire 32 . RD1 [31:0] $end
    $var wire 32 / RD2 [31:0] $end
    $scope module ALU $end
     $var wire  3 M ALUctrl [2:0] $end
     $var wire 32 . ALUop1 [31:0] $end
     $var wire 32 V ALUop2 [31:0] $end
     $var wire 32 #! DATA_WIDTH [31:0] $end
     $var wire  1 ; EQ $end
     $var wire 32 < SUM [31:0] $end
    $upscope $end
   $upscope $end
   $scope module top_fetch $end
    $var wire 32 % PCPlus4_F [31:0] $end
    $var wire 32 = PCTarget_E [31:0] $end
    $var wire 32 $ PC_F [31:0] $end
    $var wire  1 6 PCsrc_E $end
    $var wire 32 #! WIDTH [31:0] $end
    $var wire  1 | clk $end
    $var wire 32 # instr_F [31:0] $end
    $var wire 32 W next_PC [31:0] $end
    $var wire  1 } rst $end
    $scope module PC_Reg $end
     $var wire 32 #! DATA_LENGTH [31:0] $end
     $var wire 32 $ PC [31:0] $end
     $var wire  1 | clk $end
     $var wire 32 W next_PC [31:0] $end
     $var wire  1 } rst $end
    $upscope $end
    $scope module add_inc $end
     $var wire 32 #! DATA_LENGTH [31:0] $end
     $var wire 32 )! N [31:0] $end
     $var wire 32 $ in [31:0] $end
     $var wire 32 % out [31:0] $end
    $upscope $end
    $scope module instr_mem $end
     $var wire 32 $ A [31:0] $end
     $var wire 32 #! ADDRESS_WIDTH [31:0] $end
     $var wire 32 *! DATA_WIDTH [31:0] $end
     $var wire 32 #! INSTRUCTION_WIDTH [31:0] $end
     $var wire 32 # RD [31:0] $end
     $var wire  8 X byte1 [7:0] $end
     $var wire  8 Y byte2 [7:0] $end
     $var wire  8 Z byte3 [7:0] $end
     $var wire  8 [ byte4 [7:0] $end
    $upscope $end
    $scope module mux $end
     $var wire 32 #! WIDTH [31:0] $end
     $var wire 32 % d_0 [31:0] $end
     $var wire 32 = d_1 [31:0] $end
     $var wire 32 W dout [31:0] $end
     $var wire  1 6 s $end
    $upscope $end
   $upscope $end
   $scope module top_memory $end
    $var wire 32 > ALUResult_M [31:0] $end
    $var wire 32 #! WIDTH [31:0] $end
    $var wire  1 | clk $end
    $var wire  1 B memWrite_M $end
    $var wire 32 E readData_M [31:0] $end
    $var wire  1 } rst $end
    $var wire 32 ? writeData_M [31:0] $end
    $scope module ram $end
     $var wire 32 #! ADDRESS_LENGTH [31:0] $end
     $var wire 32 > a [31:0] $end
     $var wire  1 | clk $end
     $var wire 32 E rd [31:0] $end
     $var wire 32 ? wd [31:0] $end
     $var wire  1 B we $end
    $upscope $end
   $upscope $end
   $scope module top_writeback $end
    $var wire 32 F ALUResult_W [31:0] $end
    $var wire 32 H PCPlus4_W [31:0] $end
    $var wire 32 #! WIDTH [31:0] $end
    $var wire 32 G readData_W [31:0] $end
    $var wire  2 J resultSrc_W [1:0] $end
    $var wire 32 L result_W [31:0] $end
   $upscope $end
  $upscope $end
 $upscope $end
$enddefinitions $end


#0
b00000000000000000000000000000000 #
b00000000000000000000000000000000 $
b00000000000000000000000000000100 %
b00000000000000000000000000000000 &
b00000000000000000000000000000000 '
b00000000000000000000000000000000 (
b00000000000000000000000000000000 )
0*
b00 +
b000 ,
b00000 -
b00000000000000000000000000000000 .
b00000000000000000000000000000000 /
b00000000000000000000000000000000 0
b00000000000000000000000000000000 1
b00000000000000000000000000000000 2
03
04
05
06
b00 7
b000 8
b0000 9
b00000 :
1;
b00000000000000000000000000000000 <
b00000000000000000000000000000000 =
b00000000000000000000000000000000 >
b00000000000000000000000000000000 ?
b00000000000000000000000000000000 @
0A
0B
b00 C
b00000 D
b00000000000000000000000000000000 E
b00000000000000000000000000000000 F
b00000000000000000000000000000000 G
b00000000000000000000000000000000 H
0I
b00 J
b00000 K
b00000000000000000000000000000000 L
b000 M
0N
b000000000000 O
b000 P
b0000000 Q
0R
b00000000000000000000000000000000 S
b00000 T
b00000 U
b00000000000000000000000000000000 V
b00000000000000000000000000000100 W
b00000000 X
b00000000 Y
b00000000 Z
b00000000 [
b00000000000000000000000000000000 \
b00000000000000000000000000000000 ]
b00000000000000000000000000000000 ^
b00000000000000000000000000000000 _
b00000000000000000000000000000000 `
b00000000000000000000000000000000 a
b00000000000000000000000000000000 b
b00000000000000000000000000000000 c
b00000000000000000000000000000000 d
b00000000000000000000000000000000 e
b00000000000000000000000000000000 f
b00000000000000000000000000000000 g
b00000000000000000000000000000000 h
b00000000000000000000000000000000 i
b00000000000000000000000000000000 j
b00000000000000000000000000000000 k
b00000000000000000000000000000000 l
b00000000000000000000000000000000 m
b00000000000000000000000000000000 n
b00000000000000000000000000000000 o
b00000000000000000000000000000000 p
b00000000000000000000000000000000 q
b00000000000000000000000000000000 r
b00000000000000000000000000000000 s
b00000000000000000000000000000000 t
b00000000000000000000000000000000 u
b00000000000000000000000000000000 v
b00000000000000000000000000000000 w
b00000000000000000000000000000000 x
b00000000000000000000000000000000 y
b00000000000000000000000000000000 z
b00000000000000000000000000000000 {
1|
1}
b00000000000000000000000000000000 ~
b00000000000000000000000000000000 !!
b00000000000000000000000000000000 "!
b00000000000000000000000000100000 #!
0$!
b0000 %!
b000 &!
b00000000000000000000000000001100 '!
b00000000000000000000000000000101 (!
b00000000000000000000000000000100 )!
b00000000000000000000000000001000 *!
#1
b00001111111100000000001100010011 #
b00001111 X
b11110000 Y
b00000011 Z
b00010011 [
0|
#2
1|
#3
0|
#4
1|
#5
0|
#6
1|
0}
#7
0|
#8
b00000000000000000000000000010011 #
b00000000000000000000000000000100 $
b00000000000000000000000000001000 %
b00001111111100000000001100010011 &
b00000000000000000000000000000100 (
b00000000000000000000000011111111 )
1*
b00110 -
b000011111111 O
b0010011 Q
b00000000000000000000000000000001 S
b11111 U
b00000000000000000000000000001000 W
b00000000 X
b00000000 Y
b00000000 Z
1|
#9
0|
#10
b00000000000000000000000000001000 $
b00000000000000000000000000001100 %
b00000000000000000000000000010011 &
b00000000000000000000000000000100 '
b00000000000000000000000000001000 (
b00000000000000000000000000000000 )
b00000 -
b00000000000000000000000011111111 0
b00000000000000000000000000000100 1
13
b00110 :
0;
b00000000000000000000000011111111 <
b00000000000000000000000111111110 =
b000000000000 O
b00000 U
b00000000000000000000000011111111 V
b00000000000000000000000000001100 W
1|
#11
0|
#12
b00000000000000000000000000001100 $
b00000000000000000000000000010000 %
b00000000000000000000000000001000 '
b00000000000000000000000000001100 (
b00000000000000000000000000000000 0
b00000000000000000000000000001000 1
b00000000000000000000000000000100 2
b00000 :
1;
b00000000000000000000000000000000 <
b00000000000000000000000000000100 =
b00000000000000000000000011111111 >
b00000000000000000000000000000100 @
1A
b00110 D
b11111111111111111111111100000000 E
b00000000000000000000000000000000 V
b00000000000000000000000000010000 W
1|
#13
0|
#14
b00000000000000000000000000010000 $
b00000000000000000000000000010100 %
b00000000000000000000000000001100 '
b00000000000000000000000000010000 (
b00000000000000000000000000001100 1
b00000000000000000000000000001000 2
b00000000000000000000000000001000 =
b00000000000000000000000000000000 >
b00000000000000000000000000001000 @
b00000 D
b00000000000000000000000000000000 E
b00000000000000000000000011111111 F
b11111111111111111111111100000000 G
b00000000000000000000000000000100 H
1I
b00110 K
b00000000000000000000000011111111 L
b00000000000000000000000000010100 W
1|
#15
b00000000000000000000000011111111 b
0|
#16
b00000000000000000000010100010011 #
b00000000000000000000000000010100 $
b00000000000000000000000000011000 %
b00000000000000000000000000010000 '
b00000000000000000000000000010100 (
b00000000000000000000000000010000 1
b00000000000000000000000000001100 2
b00000000000000000000000000001100 =
b00000000000000000000000000001100 @
b00000000000000000000000000000000 F
b00000000000000000000000000000000 G
b00000000000000000000000000001000 H
b00000 K
b00000000000000000000000000000000 L
b00000000000000000000000000011000 W
b00000101 Z
1|
#17
0|
#18
b00000000000000000000000000010011 #
b00000000000000000000000000011000 $
b00000000000000000000000000011100 %
b00000000000000000000010100010011 &
b00000000000000000000000000010100 '
b00000000000000000000000000011000 (
b01010 -
b00000000000000000000000000010100 1
b00000000000000000000000000010000 2
b00000000000000000000000000010000 =
b00000000000000000000000000010000 @
b00000000000000000000000000001100 H
b00000000000000000000000000011100 W
b00000000 Z
1|
#19
0|
#20
b00000000000000000000000000011100 $
b00000000000000000000000000100000 %
b00000000000000000000000000010011 &
b00000000000000000000000000011000 '
b00000000000000000000000000011100 (
b00000 -
b00000000000000000000000000011000 1
b00000000000000000000000000010100 2
b01010 :
b00000000000000000000000000010100 =
b00000000000000000000000000010100 @
b00000000000000000000000000010000 H
b00000000000000000000000000100000 W
1|
#21
0|
#22
b00000000000000000000000000100000 $
b00000000000000000000000000100100 %
b00000000000000000000000000011100 '
b00000000000000000000000000100000 (
b00000000000000000000000000011100 1
b00000000000000000000000000011000 2
b00000 :
b00000000000000000000000000011000 =
b00000000000000000000000000011000 @
b01010 D
b00000000000000000000000000010100 H
b00000000000000000000000000100100 W
1|
#23
0|
#24
b00000000000000000000000000100100 $
b00000000000000000000000000101000 %
b00000000000000000000000000100000 '
b00000000000000000000000000100100 (
b00000000000000000000000000100000 1
b00000000000000000000000000011100 2
b00000000000000000000000000011100 =
b00000000000000000000000000011100 @
b00000 D
b00000000000000000000000000011000 H
b01010 K
b00000000000000000000000000101000 W
1|
#25
0|
#26
b00000000000000000000010110010011 #
b00000000000000000000000000101000 $
b00000000000000000000000000101100 %
b00000000000000000000000000100100 '
b00000000000000000000000000101000 (
b00000000000000000000000000100100 1
b00000000000000000000000000100000 2
b00000000000000000000000000100000 =
b00000000000000000000000000100000 @
b00000000000000000000000000011100 H
b00000 K
b00000000000000000000000000101100 W
b00000101 Z
b10010011 [
1|
#27
0|
#28
b00000000000000000000000000010011 #
b00000000000000000000000000101100 $
b00000000000000000000000000110000 %
b00000000000000000000010110010011 &
b00000000000000000000000000101000 '
b00000000000000000000000000101100 (
b01011 -
b00000000000000000000000000101000 1
b00000000000000000000000000100100 2
b00000000000000000000000000100100 =
b00000000000000000000000000100100 @
b00000000000000000000000000100000 H
b00000000000000000000000000110000 W
b00000000 Z
b00010011 [
1|
#29
0|
#30
b00000000000000000000000000110000 $
b00000000000000000000000000110100 %
b00000000000000000000000000010011 &
b00000000000000000000000000101100 '
b00000000000000000000000000110000 (
b00000 -
b00000000000000000000000000101100 1
b00000000000000000000000000101000 2
b01011 :
b00000000000000000000000000101000 =
b00000000000000000000000000101000 @
b00000000000000000000000000100100 H
b00000000000000000000000000110100 W
1|
#31
0|
#32
b00000000000000000000000000110100 $
b00000000000000000000000000111000 %
b00000000000000000000000000110000 '
b00000000000000000000000000110100 (
b00000000000000000000000000110000 1
b00000000000000000000000000101100 2
b00000 :
b00000000000000000000000000101100 =
b00000000000000000000000000101100 @
b01011 D
b00000000000000000000000000101000 H
b00000000000000000000000000111000 W
1|
#33
0|
#34
b00000000000000000000000000111000 $
b00000000000000000000000000111100 %
b00000000000000000000000000110100 '
b00000000000000000000000000111000 (
b00000000000000000000000000110100 1
b00000000000000000000000000110000 2
b00000000000000000000000000110000 =
b00000000000000000000000000110000 @
b00000 D
b00000000000000000000000000101100 H
b01011 K
b00000000000000000000000000111100 W
1|
#35
0|
#36
b00000000000001011010010100000011 #
b00000000000000000000000000111100 $
b00000000000000000000000001000000 %
b00000000000000000000000000111000 '
b00000000000000000000000000111100 (
b00000000000000000000000000111000 1
b00000000000000000000000000110100 2
b00000000000000000000000000110100 =
b00000000000000000000000000110100 @
b00000000000000000000000000110000 H
b00000 K
b00000000000000000000000001000000 W
b00000101 Y
b10100101 Z
b00000011 [
1|
#37
0|
#38
b00000000000000000000000000010011 #
b00000000000000000000000001000000 $
b00000000000000000000000001000100 %
b00000000000001011010010100000011 &
b00000000000000000000000000111100 '
b00000000000000000000000001000000 (
b01 +
b01010 -
b00000000000000000000000000111100 1
b00000000000000000000000000111000 2
b00000000000000000000000000111000 =
b00000000000000000000000000111000 @
b00000000000000000000000000110100 H
b010 P
b0000011 Q
1R
b00000000000000000000000000000011 S
b01011 T
b00000000000000000000000001000100 W
b00000000 Y
b00000000 Z
b00010011 [
1|
#39
0|
#40
b00000000000000000000000001000100 $
b00000000000000000000000001001000 %
b00000000000000000000000000010011 &
b00000000000000000000000001000000 '
b00000000000000000000000001000100 (
b00 +
b00000 -
b00000000000000000000000001000000 1
b00000000000000000000000000111100 2
b01 7
b01010 :
b00000000000000000000000000111100 =
b00000000000000000000000000111100 @
b00000000000000000000000000111000 H
b000 P
b0010011 Q
0R
b00000000000000000000000000000001 S
b00000 T
b00000000000000000000000001001000 W
1|
#41
0|
#42
b00000000000000000000000001001000 $
b00000000000000000000000001001100 %
b00000000000000000000000001000100 '
b00000000000000000000000001001000 (
b00000000000000000000000001000100 1
b00000000000000000000000001000000 2
b00 7
b00000 :
b00000000000000000000000001000000 =
b00000000000000000000000001000000 @
b01 C
b01010 D
b00000000000000000000000000111100 H
b00000000000000000000000001001100 W
1|
#43
0|
#44
b00000000000000000000000001001100 $
b00000000000000000000000001010000 %
b00000000000000000000000001001000 '
b00000000000000000000000001001100 (
b00000000000000000000000001001000 1
b00000000000000000000000001000100 2
b00000000000000000000000001000100 =
b00000000000000000000000001000100 @
b00 C
b00000 D
b00000000000000000000000001000000 H
b01 J
b01010 K
b00000000000000000000000001010000 W
1|
#45
0|
#46
b00000000000101011000010110010011 #
b00000000000000000000000001010000 $
b00000000000000000000000001010100 %
b00000000000000000000000001001100 '
b00000000000000000000000001010000 (
b00000000000000000000000001001100 1
b00000000000000000000000001001000 2
b00000000000000000000000001001000 =
b00000000000000000000000001001000 @
b00000000000000000000000001000100 H
b00 J
b00000 K
b00000000000000000000000001010100 W
b00010101 Y
b10000101 Z
b10010011 [
1|
#47
0|
#48
b00000000000000000000000000010011 #
b00000000000000000000000001010100 $
b00000000000000000000000001011000 %
b00000000000101011000010110010011 &
b00000000000000000000000001010000 '
b00000000000000000000000001010100 (
b00000000000000000000000000000001 )
b01011 -
b00000000000000000000000001010000 1
b00000000000000000000000001001100 2
b00000000000000000000000001001100 =
b00000000000000000000000001001100 @
b00000000000000000000000001001000 H
b000000000001 O
b01011 T
b00001 U
b00000000000000000000000001011000 W
b00000000 Y
b00000000 Z
b00010011 [
1|
#49
0|
#50
b00000000000000000000000001011000 $
b00000000000000000000000001011100 %
b00000000000000000000000000010011 &
b00000000000000000000000001010100 '
b00000000000000000000000001011000 (
b00000000000000000000000000000000 )
b00000 -
b00000000000000000000000000000001 0
b00000000000000000000000001010100 1
b00000000000000000000000001010000 2
b01011 :
0;
b00000000000000000000000000000001 <
b00000000000000000000000001010010 =
b00000000000000000000000001010000 @
b00000000000000000000000001001100 H
b000000000000 O
b00000 T
b00000 U
b00000000000000000000000000000001 V
b00000000000000000000000001011100 W
1|
#51
0|
#52
b00000000000000000000000001011100 $
b00000000000000000000000001100000 %
b00000000000000000000000001011000 '
b00000000000000000000000001011100 (
b00000000000000000000000000000000 0
b00000000000000000000000001011000 1
b00000000000000000000000001010100 2
b00000 :
1;
b00000000000000000000000000000000 <
b00000000000000000000000001010100 =
b00000000000000000000000000000001 >
b00000000000000000000000001010100 @
b01011 D
b00000000000000000000000001001111 E
b00000000000000000000000001010000 H
b00000000000000000000000000000000 V
b00000000000000000000000001100000 W
1|
#53
0|
#54
b00000000000000000000000001100000 $
b00000000000000000000000001100100 %
b00000000000000000000000001011100 '
b00000000000000000000000001100000 (
b00000000000000000000000001011100 1
b00000000000000000000000001011000 2
b00000000000000000000000001011000 =
b00000000000000000000000000000000 >
b00000000000000000000000001011000 @
b00000 D
b00000000000000000000000000000000 E
b00000000000000000000000000000001 F
b00000000000000000000000001001111 G
b00000000000000000000000001010100 H
b01011 K
b00000000000000000000000000000001 L
b00000000000000000000000001100100 W
1|
#55
b00000000000000000000000000000001 g
0|
#56
b11111100011001010001110011100011 #
b00000000000000000000000001100100 $
b00000000000000000000000001101000 %
b00000000000000000000000001100000 '
b00000000000000000000000001100100 (
b00000000000000000000000001100000 1
b00000000000000000000000001011100 2
b00000000000000000000000001011100 =
b00000000000000000000000001011100 @
b00000000000000000000000000000000 F
b00000000000000000000000000000000 G
b00000000000000000000000001011000 H
b00000 K
b00000000000000000000000000000000 L
b00000000000000000000000001101000 W
b11111100 X
b01100101 Y
b00011100 Z
b11100011 [
1|
#57
0|
#58
b00000000000000000000000000010011 #
b00000000000000000000000001101000 $
b00000000000000000000000001101100 %
b11111100011001010001110011100011 &
b00000000000000000000000001100100 '
b00000000000000000000000001101000 (
b11111111111111111111111111101100 )
0*
b001 ,
b11001 -
b00000000000000000000000001100100 1
b00000000000000000000000001100000 2
b00000000000000000000000001100000 =
b00000000000000000000000001100000 @
b00000000000000000000000001011100 H
1N
b111111101100 O
b001 P
b1100011 Q
b00000000000000000000000000000010 S
b01010 T
b00110 U
b00000000000000000000000001101100 W
b00000000 X
b00000000 Y
b00000000 Z
b00010011 [
1|
b00000000000000000000000011111111 "!
#59
0|
#60
b00000000000000000000000001101100 $
b00000000000000000000000001110000 %
b00000000000000000000000000010011 &
b00000000000000000000000001101000 '
b00000000000000000000000001101100 (
b00000000000000000000000000000000 )
1*
b000 ,
b00000 -
b00000000000000000000000011111111 /
b11111111111111111111111111101100 0
b00000000000000000000000001101000 1
b00000000000000000000000001100100 2
03
16
b001 8
b11001 :
0;
b00000000000000000000000011111111 <
b00000000000000000000000000111100 =
b00000000000000000000000001100100 @
b00000000000000000000000001100000 H
0N
b000000000000 O
b000 P
b0010011 Q
b00000000000000000000000000000001 S
b00000 T
b00000 U
b00000000000000000000000011111111 V
b00000000000000000000000000111100 W
1|
b00000000000000000000000000000000 "!
#61
0|
#62
b00000000000001011010010100000011 #
b00000000000000000000000000111100 $
b00000000000000000000000001000000 %
b00000000000000000000000001101100 '
b00000000000000000000000001110000 (
b00000000000000000000000000000000 /
b00000000000000000000000000000000 0
b00000000000000000000000001101100 1
b00000000000000000000000001101000 2
13
06
b000 8
b00000 :
1;
b00000000000000000000000000000000 <
b00000000000000000000000001101000 =
b00000000000000000000000011111111 >
b00000000000000000000000011111111 ?
b00000000000000000000000001101000 @
0A
b11001 D
b11111111111111111111111100000000 E
b00000000000000000000000001100100 H
b00000000000000000000000000000000 V
b00000000000000000000000001000000 W
b00000101 Y
b10100101 Z
b00000011 [
1|
#63
0|
#64
b00000000000000000000000000010011 #
b00000000000000000000000001000000 $
b00000000000000000000000001000100 %
b00000000000001011010010100000011 &
b00000000000000000000000000111100 '
b00000000000000000000000001000000 (
b01 +
b01010 -
b00000000000000000000000001110000 1
b00000000000000000000000001101100 2
b00000000000000000000000001101100 =
b00000000000000000000000000000000 >
b00000000000000000000000000000000 ?
b00000000000000000000000001101100 @
1A
b00000 D
b00000000000000000000000000000000 E
b00000000000000000000000011111111 F
b11111111111111111111111100000000 G
b00000000000000000000000001101000 H
0I
b11001 K
b00000000000000000000000011111111 L
b010 P
b0000011 Q
1R
b00000000000000000000000000000011 S
b01011 T
b00000000000000000000000001000100 W
b00000000 Y
b00000000 Z
b00010011 [
1|
b00000000000000000000000000000001 !!
#65
0|
#66
b00000000000000000000000001000100 $
b00000000000000000000000001001000 %
b00000000000000000000000000010011 &
b00000000000000000000000001000000 '
b00000000000000000000000001000100 (
b00 +
b00000 -
b00000000000000000000000000000001 .
b00000000000000000000000001000000 1
b00000000000000000000000000111100 2
b01 7
b01010 :
0;
b00000000000000000000000000000001 <
b00000000000000000000000000111100 =
b00000000000000000000000001110000 @
b00000000000000000000000000000000 F
b00000000000000000000000000000000 G
b00000000000000000000000001101100 H
1I
b00000 K
b00000000000000000000000000000000 L
b000 P
b0010011 Q
0R
b00000000000000000000000000000001 S
b00000 T
b00000000000000000000000001001000 W
1|
b00000000000000000000000000000000 !!
#67
0|
#68
b00000000000000000000000001001000 $
b00000000000000000000000001001100 %
b00000000000000000000000001000100 '
b00000000000000000000000001001000 (
b00000000000000000000000000000000 .
b00000000000000000000000001000100 1
b00000000000000000000000001000000 2
b00 7
b00000 :
1;
b00000000000000000000000000000000 <
b00000000000000000000000001000000 =
b00000000000000000000000000000001 >
b00000000000000000000000001000000 @
b01 C
b01010 D
b00000000000000000000000001001111 E
b00000000000000000000000001110000 H
b00000000000000000000000001001100 W
1|
#69
0|
