top.vcd
$version Generated by VerilatedVcd $end
$date Tue Dec 13 13:26:45 2022 $end
$timescale 1ps $end

 $scope module TOP $end
  $var wire 32 >! a0 [31:0] $end
  $var wire  1 <! clk $end
  $var wire  1 =! rst $end
  $scope module top $end
   $var wire 32 C ALUResult_E [31:0] $end
   $var wire 32 E ALUResult_M [31:0] $end
   $var wire 32 N ALUResult_W [31:0] $end
   $var wire  4 1 ALUctrl_D [3:0] $end
   $var wire  4 A ALUctrl_E [3:0] $end
   $var wire  1 , ALUsrc_D $end
   $var wire  1 ; ALUsrc_E $end
   $var wire  3 0 DMem_size_D [2:0] $end
   $var wire  3 @ DMem_size_E [2:0] $end
   $var wire  3 K DMem_size_M [2:0] $end
   $var wire 32 ) ImmExt_D [31:0] $end
   $var wire 32 6 ImmExt_E [31:0] $end
   $var wire 32 ( PCPlus4_D [31:0] $end
   $var wire 32 7 PCPlus4_E [31:0] $end
   $var wire 32 % PCPlus4_F [31:0] $end
   $var wire 32 G PCPlus4_M [31:0] $end
   $var wire 32 P PCPlus4_W [31:0] $end
   $var wire 32 D PCTarget_E [31:0] $end
   $var wire 32 ' PC_D [31:0] $end
   $var wire 32 8 PC_E [31:0] $end
   $var wire 32 $ PC_F [31:0] $end
   $var wire  1 < PCsrc_E $end
   $var wire 32 ?! RD1_D [31:0] $end
   $var wire 32 4 RD1_E [31:0] $end
   $var wire 32 @! RD2_D [31:0] $end
   $var wire 32 5 RD2_E [31:0] $end
   $var wire  3 / R_size_D [2:0] $end
   $var wire  3 ? R_size_E [2:0] $end
   $var wire  3 J R_size_M [2:0] $end
   $var wire  5 2 Rd_D [4:0] $end
   $var wire  5 B Rd_E [4:0] $end
   $var wire  5 L Rd_M [4:0] $end
   $var wire  5 S Rd_W [4:0] $end
   $var wire 32 A! WIDTH [31:0] $end
   $var wire 32 >! a0 [31:0] $end
   $var wire  3 . branch_D [2:0] $end
   $var wire  3 > branch_E [2:0] $end
   $var wire  1 <! clk $end
   $var wire 32 & instr_D [31:0] $end
   $var wire 32 # instr_F [31:0] $end
   $var wire  1 3 jalr $end
   $var wire  1 + jump_D $end
   $var wire  1 : jump_E $end
   $var wire 32 M readData_M [31:0] $end
   $var wire 32 O readData_W [31:0] $end
   $var wire  1 * regWrite_D $end
   $var wire  1 9 regWrite_E $end
   $var wire  1 H regWrite_M $end
   $var wire  1 Q regWrite_W $end
   $var wire  2 - resultSrc_D [1:0] $end
   $var wire  2 = resultSrc_E [1:0] $end
   $var wire  2 I resultSrc_M [1:0] $end
   $var wire  2 R resultSrc_W [1:0] $end
   $var wire 32 T result_W [31:0] $end
   $var wire  1 =! rst $end
   $var wire 32 5 writeData_E [31:0] $end
   $var wire 32 F writeData_M [31:0] $end
   $scope module decode_execute_reg $end
    $var wire  4 1 ALUctrl_D [3:0] $end
    $var wire  4 A ALUctrl_E [3:0] $end
    $var wire  1 , ALUsrc_D $end
    $var wire  1 ; ALUsrc_E $end
    $var wire  3 0 DMem_size_D [2:0] $end
    $var wire  3 @ DMem_size_E [2:0] $end
    $var wire 32 ) ImmExt_D [31:0] $end
    $var wire 32 6 ImmExt_E [31:0] $end
    $var wire 32 ( PCPlus4_D [31:0] $end
    $var wire 32 7 PCPlus4_E [31:0] $end
    $var wire 32 ' PC_D [31:0] $end
    $var wire 32 8 PC_E [31:0] $end
    $var wire 32 ?! RD1_D [31:0] $end
    $var wire 32 4 RD1_E [31:0] $end
    $var wire 32 @! RD2_D [31:0] $end
    $var wire 32 5 RD2_E [31:0] $end
    $var wire  3 / R_size_D [2:0] $end
    $var wire  3 ? R_size_E [2:0] $end
    $var wire  5 2 Rd_D [4:0] $end
    $var wire  5 B Rd_E [4:0] $end
    $var wire 32 A! WIDTH [31:0] $end
    $var wire  3 . branch_D [2:0] $end
    $var wire  3 > branch_E [2:0] $end
    $var wire  1 <! clk $end
    $var wire  1 + jump_D $end
    $var wire  1 : jump_E $end
    $var wire  1 * regWrite_D $end
    $var wire  1 9 regWrite_E $end
    $var wire  2 - resultSrc_D [1:0] $end
    $var wire  2 = resultSrc_E [1:0] $end
    $var wire  1 =! rst $end
   $upscope $end
   $scope module execute_memory_reg $end
    $var wire 32 C ALUResult_E [31:0] $end
    $var wire 32 E ALUResult_M [31:0] $end
    $var wire  3 @ DMem_size_E [2:0] $end
    $var wire  3 K DMem_size_M [2:0] $end
    $var wire 32 7 PCPlus4_E [31:0] $end
    $var wire 32 G PCPlus4_M [31:0] $end
    $var wire  3 ? R_size_E [2:0] $end
    $var wire  3 J R_size_M [2:0] $end
    $var wire  5 B Rd_E [4:0] $end
    $var wire  5 L Rd_M [4:0] $end
    $var wire 32 A! WIDTH [31:0] $end
    $var wire  1 <! clk $end
    $var wire  1 9 regWrite_E $end
    $var wire  1 H regWrite_M $end
    $var wire  2 = resultSrc_E [1:0] $end
    $var wire  2 I resultSrc_M [1:0] $end
    $var wire  1 =! rst $end
    $var wire 32 5 writeData_E [31:0] $end
    $var wire 32 F writeData_M [31:0] $end
   $upscope $end
   $scope module fetch_decode_reg $end
    $var wire 32 ( PCPlus4_D [31:0] $end
    $var wire 32 % PCPlus4_F [31:0] $end
    $var wire 32 ' PC_D [31:0] $end
    $var wire 32 $ PC_F [31:0] $end
    $var wire 32 A! WIDTH [31:0] $end
    $var wire  1 <! clk $end
    $var wire 32 & instr_D [31:0] $end
    $var wire 32 # instr_F [31:0] $end
    $var wire  1 =! rst $end
   $upscope $end
   $scope module memory_writeback_reg $end
    $var wire 32 E ALUResult_M [31:0] $end
    $var wire 32 N ALUResult_W [31:0] $end
    $var wire 32 G PCPlus4_M [31:0] $end
    $var wire 32 P PCPlus4_W [31:0] $end
    $var wire  5 L Rd_M [4:0] $end
    $var wire  5 S Rd_W [4:0] $end
    $var wire 32 A! WIDTH [31:0] $end
    $var wire  1 <! clk $end
    $var wire 32 M readData_M [31:0] $end
    $var wire 32 O readData_W [31:0] $end
    $var wire  1 H regWrite_M $end
    $var wire  1 Q regWrite_W $end
    $var wire  2 I resultSrc_M [1:0] $end
    $var wire  2 R resultSrc_W [1:0] $end
    $var wire  1 =! rst $end
   $upscope $end
   $scope module top_decode $end
    $var wire  4 1 ALUctrl_D [3:0] $end
    $var wire  1 , ALUsrc_D $end
    $var wire  3 0 DMem_size_D [2:0] $end
    $var wire 32 ) ImmExt_D [31:0] $end
    $var wire  3 U ImmSrc_D [2:0] $end
    $var wire 32 ?! RD1_D [31:0] $end
    $var wire 32 @! RD2_D [31:0] $end
    $var wire  3 / R_size_D [2:0] $end
    $var wire  5 2 Rd_D [4:0] $end
    $var wire  5 S Rd_W [4:0] $end
    $var wire 32 A! WIDTH [31:0] $end
    $var wire 32 >! a0 [31:0] $end
    $var wire  3 . branch_D [2:0] $end
    $var wire  1 <! clk $end
    $var wire 32 & instr_D [31:0] $end
    $var wire  1 3 jalr $end
    $var wire  1 + jump_D $end
    $var wire  1 * regWrite_D $end
    $var wire  1 Q regWrite_W $end
    $var wire  2 - resultSrc_D [1:0] $end
    $var wire 32 T result_W [31:0] $end
    $var wire  1 =! rst $end
    $scope module SignExtend $end
     $var wire 32 ) ImmExtD [31:0] $end
     $var wire  3 U ImmSrcD [2:0] $end
     $var wire 32 & InstrD [31:0] $end
     $var wire 32 A! data_width [31:0] $end
     $var wire 32 B! imm_width1 [31:0] $end
     $var wire 32 C! imm_width2 [31:0] $end
     $var wire 32 C! imm_width3 [31:0] $end
     $scope module unnamedblk1 $end
      $var wire 12 V imm_type_1 [11:0] $end
      $var wire 20 X imm_type_jal [19:0] $end
      $var wire 20 W imm_type_lui [19:0] $end
      $var wire  7 Y opcode [6:0] $end
     $upscope $end
    $upscope $end
    $scope module control_unit $end
     $var wire  4 1 ALUControlD [3:0] $end
     $var wire  1 , ALUsrcD $end
     $var wire  1 \ BranchD $end
     $var wire  3 0 DMem_size [2:0] $end
     $var wire  3 U ImmSrcD [2:0] $end
     $var wire  1 + JumpD $end
     $var wire  3 / R_size [2:0] $end
     $var wire  1 * RegWriteD $end
     $var wire  2 - ResultSrcD [1:0] $end
     $var wire  3 Z funct3 [2:0] $end
     $var wire  7 [ funct7 [6:0] $end
     $var wire  2 ] instr_type [1:0] $end
     $var wire  1 3 jalr $end
     $var wire  7 Y opcode [6:0] $end
     $scope module alu_control $end
      $var wire  4 1 ALUControlD [3:0] $end
      $var wire  2 ] ALUOp [1:0] $end
      $var wire  3 Z funct3 [2:0] $end
      $var wire  1 ^ funct7_bit $end
     $upscope $end
     $scope module main_control $end
      $var wire  2 ] ALUOp [1:0] $end
      $var wire  1 , ALUsrcD $end
      $var wire  1 \ BranchD $end
      $var wire  3 0 DMem_size [2:0] $end
      $var wire  3 U ImmSrcD [2:0] $end
      $var wire  1 + JumpD $end
      $var wire  3 / R_size [2:0] $end
      $var wire  1 * RegWriteD $end
      $var wire  2 - ResultSrcD [1:0] $end
      $var wire  3 Z funct3 [14:12] $end
      $var wire 32 _ instr [31:0] $end
      $var wire  1 3 jalr_o $end
      $var wire  7 Y opcode [6:0] $end
     $upscope $end
    $upscope $end
    $scope module register $end
     $var wire 32 D! ADDRESS_WIDTH [31:0] $end
     $var wire 32 A! DATA_WIDTH [31:0] $end
     $var wire 32 ?! RD1 [31:0] $end
     $var wire 32 @! RD2 [31:0] $end
     $var wire 32 T WD3 [31:0] $end
     $var wire  1 Q WE3 $end
     $var wire 32 >! a0 [31:0] $end
     $var wire  1 <! clk $end
     $var wire  5 S rd [4:0] $end
     $var wire 32 z reg_array[0] [31:0] $end
     $var wire 32 &! reg_array[10] [31:0] $end
     $var wire 32 '! reg_array[11] [31:0] $end
     $var wire 32 (! reg_array[12] [31:0] $end
     $var wire 32 )! reg_array[13] [31:0] $end
     $var wire 32 *! reg_array[14] [31:0] $end
     $var wire 32 +! reg_array[15] [31:0] $end
     $var wire 32 ,! reg_array[16] [31:0] $end
     $var wire 32 -! reg_array[17] [31:0] $end
     $var wire 32 .! reg_array[18] [31:0] $end
     $var wire 32 /! reg_array[19] [31:0] $end
     $var wire 32 { reg_array[1] [31:0] $end
     $var wire 32 0! reg_array[20] [31:0] $end
     $var wire 32 1! reg_array[21] [31:0] $end
     $var wire 32 2! reg_array[22] [31:0] $end
     $var wire 32 3! reg_array[23] [31:0] $end
     $var wire 32 4! reg_array[24] [31:0] $end
     $var wire 32 5! reg_array[25] [31:0] $end
     $var wire 32 6! reg_array[26] [31:0] $end
     $var wire 32 7! reg_array[27] [31:0] $end
     $var wire 32 8! reg_array[28] [31:0] $end
     $var wire 32 9! reg_array[29] [31:0] $end
     $var wire 32 | reg_array[2] [31:0] $end
     $var wire 32 :! reg_array[30] [31:0] $end
     $var wire 32 ;! reg_array[31] [31:0] $end
     $var wire 32 } reg_array[3] [31:0] $end
     $var wire 32 ~ reg_array[4] [31:0] $end
     $var wire 32 !! reg_array[5] [31:0] $end
     $var wire 32 "! reg_array[6] [31:0] $end
     $var wire 32 #! reg_array[7] [31:0] $end
     $var wire 32 $! reg_array[8] [31:0] $end
     $var wire 32 %! reg_array[9] [31:0] $end
     $var wire  5 ` rs1 [4:0] $end
     $var wire  5 a rs2 [4:0] $end
    $upscope $end
   $upscope $end
   $scope module top_execute $end
    $var wire  4 A ALUctrl [3:0] $end
    $var wire 32 d ALUop2 [31:0] $end
    $var wire 32 C ALUout [31:0] $end
    $var wire  1 ; ALUsrc $end
    $var wire 32 A! DATA_WIDTH [31:0] $end
    $var wire  1 c EQ $end
    $var wire 32 6 ImmOp [31:0] $end
    $var wire 32 D PCTarget_E [31:0] $end
    $var wire 32 8 PC_E [31:0] $end
    $var wire  1 < PCsrc_E $end
    $var wire 32 4 RD1 [31:0] $end
    $var wire 32 5 RD2 [31:0] $end
    $var wire  1 b branch_E $end
    $var wire  1 3 jalr $end
    $var wire  1 : jump_E $end
    $var wire 32 5 writeData_E [31:0] $end
    $scope module ALU $end
     $var wire  4 A ALUctrl [3:0] $end
     $var wire 32 4 ALUop1 [31:0] $end
     $var wire 32 d ALUop2 [31:0] $end
     $var wire 32 A! DATA_WIDTH [31:0] $end
     $var wire  1 c EQ $end
     $var wire 32 C SUM [31:0] $end
    $upscope $end
    $scope module pc_src $end
     $var wire  1 b BranchE $end
     $var wire  1 : JumpE $end
     $var wire  1 < PCSrcE $end
     $var wire  1 c ZeroE $end
     $var wire  1 e and_result $end
    $upscope $end
   $upscope $end
   $scope module top_fetch $end
    $var wire 32 % PCPlus4_F [31:0] $end
    $var wire 32 D PCTarget_E [31:0] $end
    $var wire 32 $ PC_F [31:0] $end
    $var wire  1 < PCsrc_E $end
    $var wire 32 A! WIDTH [31:0] $end
    $var wire  1 <! clk $end
    $var wire 32 # instr_F [31:0] $end
    $var wire 32 f next_PC [31:0] $end
    $var wire  1 =! rst $end
    $scope module PC_Reg $end
     $var wire 32 A! DATA_LENGTH [31:0] $end
     $var wire 32 $ PC [31:0] $end
     $var wire  1 <! clk $end
     $var wire 32 f next_PC [31:0] $end
     $var wire  1 =! rst $end
    $upscope $end
    $scope module add_inc $end
     $var wire 32 A! DATA_LENGTH [31:0] $end
     $var wire 32 E! N [31:0] $end
     $var wire 32 $ in [31:0] $end
     $var wire 32 % out [31:0] $end
    $upscope $end
    $scope module instr_mem $end
     $var wire 32 $ A [31:0] $end
     $var wire 32 A! ADDRESS_WIDTH [31:0] $end
     $var wire 32 F! DATA_WIDTH [31:0] $end
     $var wire 32 A! INSTRUCTION_WIDTH [31:0] $end
     $var wire 32 # RD [31:0] $end
     $var wire  8 g byte1 [7:0] $end
     $var wire  8 h byte2 [7:0] $end
     $var wire  8 i byte3 [7:0] $end
     $var wire  8 j byte4 [7:0] $end
    $upscope $end
    $scope module mux $end
     $var wire 32 A! WIDTH [31:0] $end
     $var wire 32 % d_0 [31:0] $end
     $var wire 32 D d_1 [31:0] $end
     $var wire 32 f dout [31:0] $end
     $var wire  1 < s $end
    $upscope $end
   $upscope $end
   $scope module top_memory $end
    $var wire 32 E ALUResult_M [31:0] $end
    $var wire 32 A! WIDTH [31:0] $end
    $var wire  1 <! clk $end
    $var wire 32 q dout [31:0] $end
    $var wire  1 p lb $end
    $var wire  1 o lh $end
    $var wire  1 n lw $end
    $var wire 32 M readData_M [31:0] $end
    $var wire  1 m sb $end
    $var wire  1 l sh $end
    $var wire  1 k sw $end
    $var wire 32 F writeData_M [31:0] $end
    $scope module hbw $end
     $var wire 32 F! BYTE_LEN [31:0] $end
     $var wire 32 A! CPU_WORD [31:0] $end
     $var wire 32 G! HALF_LEN [31:0] $end
     $var wire  8 u b [7:0] $end
     $var wire 32 s be [31:0] $end
     $var wire 32 q data [31:0] $end
     $var wire 32 M dout [31:0] $end
     $var wire 16 t h [15:0] $end
     $var wire 32 r he [31:0] $end
     $var wire  1 p lb $end
     $var wire  1 o lh $end
     $var wire  1 n lw $end
     $scope module ze $end
      $var wire 32 F! BYTE_LEN [31:0] $end
      $var wire 32 G! HALF_LEN [31:0] $end
      $var wire 32 A! LEN [31:0] $end
      $var wire 32 s be [31:0] $end
      $var wire  8 u byte_input [7:0] $end
      $var wire 16 t half_input [15:0] $end
      $var wire 32 r he [31:0] $end
     $upscope $end
    $upscope $end
    $scope module ram $end
     $var wire 32 A! ADDRESS_LENGTH [31:0] $end
     $var wire 32 F! WORD_LENGTH [31:0] $end
     $var wire 32 E a [31:0] $end
     $var wire  1 <! clk $end
     $var wire  8 v d0 [7:0] $end
     $var wire  8 w d1 [7:0] $end
     $var wire  8 x d2 [7:0] $end
     $var wire  8 y d3 [7:0] $end
     $var wire 32 q rd [31:0] $end
     $var wire  1 m sb $end
     $var wire  1 l sh $end
     $var wire  1 k sw $end
     $var wire 32 F wd [31:0] $end
    $upscope $end
   $upscope $end
   $scope module top_writeback $end
    $var wire 32 N ALUResult_W [31:0] $end
    $var wire 32 P PCPlus4_W [31:0] $end
    $var wire 32 A! WIDTH [31:0] $end
    $var wire 32 O readData_W [31:0] $end
    $var wire  2 R resultSrc_W [1:0] $end
    $var wire 32 T result_W [31:0] $end
   $upscope $end
  $upscope $end
 $upscope $end
$enddefinitions $end


#0
b00000000000000000000000000000000 #
b00000000000000000000000000000000 $
b00000000000000000000000000000100 %
b00000000000000000000000000000000 &
b00000000000000000000000000000000 '
b00000000000000000000000000000000 (
b00000000000000000000000000000000 )
0*
0+
0,
b00 -
b000 .
b000 /
b100 0
b0000 1
b00000 2
03
b00000000000000000000000000000000 4
b00000000000000000000000000000000 5
b00000000000000000000000000000000 6
b00000000000000000000000000000000 7
b00000000000000000000000000000000 8
09
0:
0;
0<
b00 =
b000 >
b000 ?
b000 @
b0000 A
b00000 B
b00000000000000000000000000000000 C
b00000000000000000000000000000000 D
b00000000000000000000000000000000 E
b00000000000000000000000000000000 F
b00000000000000000000000000000000 G
0H
b00 I
b000 J
b000 K
b00000 L
b00000000000000000000000000000000 M
b00000000000000000000000000000000 N
b00000000000000000000000000000000 O
b00000000000000000000000000000000 P
0Q
b00 R
b00000 S
b00000000000000000000000000000000 T
b000 U
b000000000000 V
b00000000000000000000 W
b00000000000000000000 X
b0000000 Y
b000 Z
b0000000 [
0\
b10 ]
0^
b00000000000000000000000000000000 _
b00000 `
b00000 a
0b
0c
b00000000000000000000000000000000 d
0e
b00000000000000000000000000000100 f
b00000000 g
b00000000 h
b00000000 i
b00000000 j
0k
0l
0m
0n
0o
0p
b00000000000000000000000000000000 q
b00000000000000000000000000000000 r
b00000000000000000000000000000000 s
b0000000000000000 t
b00000000 u
b00000000 v
b00000000 w
b00000000 x
b00000000 y
b00000000000000000000000000000000 z
b00000000000000000000000000000000 {
b00000000000000000000000000000000 |
b00000000000000000000000000000000 }
b00000000000000000000000000000000 ~
b00000000000000000000000000000000 !!
b00000000000000000000000000000000 "!
b00000000000000000000000000000000 #!
b00000000000000000000000000000000 $!
b00000000000000000000000000000000 %!
b00000000000000000000000000000000 &!
b00000000000000000000000000000000 '!
b00000000000000000000000000000000 (!
b00000000000000000000000000000000 )!
b00000000000000000000000000000000 *!
b00000000000000000000000000000000 +!
b00000000000000000000000000000000 ,!
b00000000000000000000000000000000 -!
b00000000000000000000000000000000 .!
b00000000000000000000000000000000 /!
b00000000000000000000000000000000 0!
b00000000000000000000000000000000 1!
b00000000000000000000000000000000 2!
b00000000000000000000000000000000 3!
b00000000000000000000000000000000 4!
b00000000000000000000000000000000 5!
b00000000000000000000000000000000 6!
b00000000000000000000000000000000 7!
b00000000000000000000000000000000 8!
b00000000000000000000000000000000 9!
b00000000000000000000000000000000 :!
b00000000000000000000000000000000 ;!
1<!
1=!
b00000000000000000000000000000000 >!
b00000000000000000000000000000000 ?!
b00000000000000000000000000000000 @!
b00000000000000000000000000100000 A!
b00000000000000000000000000001100 B!
b00000000000000000000000000010100 C!
b00000000000000000000000000000101 D!
b00000000000000000000000000000100 E!
b00000000000000000000000000001000 F!
b00000000000000000000000000010000 G!
#1
b00000001000000000000000011101111 #
1c
b11101111 g
b00000001 j
0<!
#2
1<!
#3
0<!
#4
1<!
#5
0<!
#6
1<!
0=!
#7
0<!
#8
b00000000000000000000000000010011 #
b00000000000000000000000000000100 $
b00000000000000000000000000001000 %
b00000001000000000000000011101111 &
b00000000000000000000000000000100 (
b00000000000000000000000000001000 )
1*
1+
b10 -
b00001 2
b100 @
b100 U
b00000000000000001000 X
b1101111 Y
b00000000000000000000000000001000 _
b10000 a
b00000000000000000000000000001000 f
b00010011 g
b00000000 j
1<!
#9
0<!
#10
b00000000000000000000000000001000 $
b00000000000000000000000000001100 %
b00000000000000000000000000010011 &
b00000000000000000000000000000100 '
b00000000000000000000000000001000 (
b00000000000000000000000000000000 )
0+
1,
b00 -
b00000 2
b00000000000000000000000000001000 6
b00000000000000000000000000000100 7
19
1:
1<
b10 =
b00001 B
b00000000000000000000000000010000 D
b100 K
b000 U
b00000000000000000000 X
b0010011 Y
b00000000000000000000000000000010 _
b00000 a
b00000000000000000000000000010000 f
1n
1<!
#11
0<!
#12
b00000000000000000000000000010000 $
b00000000000000000000000000010100 %
b00000000000000000000000000001000 '
b00000000000000000000000000001100 (
b00000000000000000000000000000000 6
b00000000000000000000000000001000 7
b00000000000000000000000000000100 8
0:
1;
0<
b00 =
b00000 B
b00000000000000000000000000000100 D
b00000000000000000000000000000100 G
1H
b10 I
b00001 L
b00000000000000000000000000010100 f
1<!
#13
0<!
#14
b00000000000000000000000000010100 $
b00000000000000000000000000011000 %
b00000000000000000000000000010000 '
b00000000000000000000000000010100 (
b00000000000000000000000000001100 7
b00000000000000000000000000001000 8
b00000000000000000000000000001000 D
b00000000000000000000000000001000 G
b00 I
b00000 L
b00000000000000000000000000000100 P
1Q
b10 R
b00001 S
b00000000000000000000000000000100 T
b00000000000000000000000000011000 f
1<!
#15
b00000000000000000000000000000100 {
0<!
#16
b00001111111101000000010000010011 #
b00000000000000000000000000011000 $
b00000000000000000000000000011100 %
b00000000000000000000000000010100 '
b00000000000000000000000000011000 (
b00000000000000000000000000010100 7
b00000000000000000000000000010000 8
b00000000000000000000000000010000 D
b00000000000000000000000000001100 G
b00000000000000000000000000001000 P
b00 R
b00000 S
b00000000000000000000000000000000 T
b00000000000000000000000000011100 f
b00000100 h
b11110100 i
b00001111 j
1<!
#17
0<!
#18
b00000000000000000000000000010011 #
b00000000000000000000000000011100 $
b00000000000000000000000000100000 %
b00001111111101000000010000010011 &
b00000000000000000000000000011000 '
b00000000000000000000000000011100 (
b00000000000000000000000011111111 )
b01000 2
b00000000000000000000000000011000 7
b00000000000000000000000000010100 8
b00000000000000000000000000010100 D
b00000000000000000000000000010100 G
b00000000000000000000000000001100 P
b000011111111 V
b0000111 [
b01000 `
b11111 a
b00000000000000000000000000100000 f
b00000000 h
b00000000 i
b00000000 j
1<!
#19
0<!
#20
b00000000000000000000000000100000 $
b00000000000000000000000000100100 %
b00000000000000000000000000010011 &
b00000000000000000000000000011100 '
b00000000000000000000000000100000 (
b00000000000000000000000000000000 )
b00000 2
b00000000000000000000000011111111 6
b00000000000000000000000000011100 7
b00000000000000000000000000011000 8
b01000 B
b00000000000000000000000011111111 C
b00000000000000000000001000010110 D
b00000000000000000000000000011000 G
b00000000000000000000000000010100 P
b000000000000 V
b0000000 [
b00000 `
b00000 a
0c
b00000000000000000000000011111111 d
b00000000000000000000000000100100 f
1<!
#21
0<!
#22
b00000011001000111000001110010011 #
b00000000000000000000000000100100 $
b00000000000000000000000000101000 %
b00000000000000000000000000100000 '
b00000000000000000000000000100100 (
b00000000000000000000000000000000 6
b00000000000000000000000000100000 7
b00000000000000000000000000011100 8
b00000 B
b00000000000000000000000000000000 C
b00000000000000000000000000011100 D
b00000000000000000000000011111111 E
b00000000000000000000000000011100 G
b01000 L
b00000000000000000000000000011000 P
1c
b00000000000000000000000000000000 d
b00000000000000000000000000101000 f
b10010011 g
b10000011 h
b00100011 i
b00000011 j
1<!
#23
0<!
#24
b00000000000000000000000000010011 #
b00000000000000000000000000101000 $
b00000000000000000000000000101100 %
b00000011001000111000001110010011 &
b00000000000000000000000000100100 '
b00000000000000000000000000101000 (
b00000000000000000000000000110010 )
b00111 2
b00000000000000000000000000100100 7
b00000000000000000000000000100000 8
b00000000000000000000000000100000 D
b00000000000000000000000000000000 E
b00000000000000000000000000100000 G
b00000 L
b00000000000000000000000011111111 N
b00000000000000000000000000011100 P
b01000 S
b00000000000000000000000011111111 T
b000000110010 V
b0000001 [
b00111 `
b10010 a
b00000000000000000000000000101100 f
b00010011 g
b00000000 h
b00000000 i
b00000000 j
1<!
#25
b00000000000000000000000011111111 $!
0<!
#26
b00000000000000000000000000101100 $
b00000000000000000000000000110000 %
b00000000000000000000000000010011 &
b00000000000000000000000000101000 '
b00000000000000000000000000101100 (
b00000000000000000000000000000000 )
b00000 2
b00000000000000000000000000110010 6
b00000000000000000000000000101000 7
b00000000000000000000000000100100 8
b00111 B
b00000000000000000000000000110010 C
b00000000000000000000000010001000 D
b00000000000000000000000000100100 G
b00000000000000000000000000000000 N
b00000000000000000000000000100000 P
b00000 S
b00000000000000000000000000000000 T
b000000000000 V
b0000000 [
b00000 `
b00000 a
0c
b00000000000000000000000000110010 d
b00000000000000000000000000110000 f
1<!
#27
0<!
#28
b00000000000000000000000000110000 $
b00000000000000000000000000110100 %
b00000000000000000000000000101100 '
b00000000000000000000000000110000 (
b00000000000000000000000000000000 6
b00000000000000000000000000101100 7
b00000000000000000000000000101000 8
b00000 B
b00000000000000000000000000000000 C
b00000000000000000000000000101000 D
b00000000000000000000000000110010 E
b00000000000000000000000000101000 G
b00111 L
b00000000000000000000000000100100 P
1c
b00000000000000000000000000000000 d
b00000000000000000000000000110100 f
1<!
#29
0<!
#30
b00000000000000000000000000110100 $
b00000000000000000000000000111000 %
b00000000000000000000000000110000 '
b00000000000000000000000000110100 (
b00000000000000000000000000110000 7
b00000000000000000000000000101100 8
b00000000000000000000000000101100 D
b00000000000000000000000000000000 E
b00000000000000000000000000101100 G
b00000 L
b00000000000000000000000000110010 N
b00000000000000000000000000101000 P
b00111 S
b00000000000000000000000000110010 T
b00000000000000000000000000111000 f
1<!
#31
b00000000000000000000000000110010 #!
0<!
#32
b00000000000101010000010100010011 #
b00000000000000000000000000111000 $
b00000000000000000000000000111100 %
b00000000000000000000000000110100 '
b00000000000000000000000000111000 (
b00000000000000000000000000110100 7
b00000000000000000000000000110000 8
b00000000000000000000000000110000 D
b00000000000000000000000000110000 G
b00000000000000000000000000000000 N
b00000000000000000000000000101100 P
b00000 S
b00000000000000000000000000000000 T
b00000000000000000000000000111100 f
b00000101 h
b00010101 i
1<!
#33
0<!
#34
b00000000000000000000000000010011 #
b00000000000000000000000000111100 $
b00000000000000000000000001000000 %
b00000000000101010000010100010011 &
b00000000000000000000000000111000 '
b00000000000000000000000000111100 (
b00000000000000000000000000000001 )
b01010 2
b00000000000000000000000000111000 7
b00000000000000000000000000110100 8
b00000000000000000000000000110100 D
b00000000000000000000000000110100 G
b00000000000000000000000000110000 P
b000000000001 V
b01010 `
b00001 a
b00000000000000000000000001000000 f
b00000000 h
b00000000 i
1<!
b00000000000000000000000000000100 @!
#35
0<!
#36
b00000000000000000000000001000000 $
b00000000000000000000000001000100 %
b00000000000000000000000000010011 &
b00000000000000000000000000111100 '
b00000000000000000000000001000000 (
b00000000000000000000000000000000 )
b00000 2
b00000000000000000000000000000100 5
b00000000000000000000000000000001 6
b00000000000000000000000000111100 7
b00000000000000000000000000111000 8
b01010 B
b00000000000000000000000000000001 C
b00000000000000000000000000111010 D
b00000000000000000000000000111000 G
b00000000000000000000000000110100 P
b000000000000 V
b00000 `
b00000 a
0c
b00000000000000000000000000000001 d
b00000000000000000000000001000100 f
1<!
b00000000000000000000000000000000 @!
#37
0<!
#38
b00000001000000000000001101101111 #
b00000000000000000000000001000100 $
b00000000000000000000000001001000 %
b00000000000000000000000001000000 '
b00000000000000000000000001000100 (
b00000000000000000000000000000000 5
b00000000000000000000000000000000 6
b00000000000000000000000001000000 7
b00000000000000000000000000111100 8
b00000 B
b00000000000000000000000000000000 C
b00000000000000000000000000111100 D
b00000000000000000000000000000001 E
b00000000000000000000000000000100 F
b00000000000000000000000000111100 G
b01010 L
b00000000000000000000000000111000 P
1c
b00000000000000000000000000000000 d
b00000000000000000000000001001000 f
b01101111 g
b00000011 h
b00000001 j
b00000100 v
1<!
#39
0<!
#40
b00000000000000000000000000010011 #
b00000000000000000000000001001000 $
b00000000000000000000000001001100 %
b00000001000000000000001101101111 &
b00000000000000000000000001000100 '
b00000000000000000000000001001000 (
b00000000000000000000000000001000 )
1+
0,
b10 -
b00110 2
b00000000000000000000000001000100 7
b00000000000000000000000001000000 8
b00000000000000000000000001000000 D
b00000000000000000000000000000000 E
b00000000000000000000000000000000 F
b00000000000000000000000001000000 G
b00000 L
b00000000000000000000000000000001 N
b00000000000000000000000000111100 P
b01010 S
b00000000000000000000000000000001 T
b100 U
b00000000000000001000 X
b1101111 Y
b00000000000000000000000000001000 _
b10000 a
b00000000000000000000000001001100 f
b00010011 g
b00000000 h
b00000000 j
b00000000 v
1<!
#41
b00000000000000000000000000000001 &!
0<!
b00000000000000000000000000000001 >!
#42
b00000000000000000000000001001100 $
b00000000000000000000000001010000 %
b00000000000000000000000000010011 &
b00000000000000000000000001001000 '
b00000000000000000000000001001100 (
b00000000000000000000000000000000 )
0+
1,
b00 -
b00000 2
b00000000000000000000000000001000 6
b00000000000000000000000001001000 7
b00000000000000000000000001000100 8
1:
0;
1<
b10 =
b00110 B
b00000000000000000000000001010100 D
b00000000000000000000000001000100 G
b00000000000000000000000000000000 N
b00000000000000000000000001000000 P
b00000 S
b00000000000000000000000000000000 T
b000 U
b00000000000000000000 X
b0010011 Y
b00000000000000000000000000000010 _
b00000 a
b00000000000000000000000001010100 f
1<!
#43
0<!
#44
b00000000000000000000000001010100 $
b00000000000000000000000001011000 %
b00000000000000000000000001001100 '
b00000000000000000000000001010000 (
b00000000000000000000000000000000 6
b00000000000000000000000001001100 7
b00000000000000000000000001001000 8
0:
1;
0<
b00 =
b00000 B
b00000000000000000000000001001000 D
b00000000000000000000000001001000 G
b10 I
b00110 L
b00000000000000000000000001000100 P
b00000000000000000000000001011000 f
1<!
#45
0<!
#46
b00000000000000000000000001011000 $
b00000000000000000000000001011100 %
b00000000000000000000000001010100 '
b00000000000000000000000001011000 (
b00000000000000000000000001010000 7
b00000000000000000000000001001100 8
b00000000000000000000000001001100 D
b00000000000000000000000001001100 G
b00 I
b00000 L
b00000000000000000000000001001000 P
b10 R
b00110 S
b00000000000000000000000001001000 T
b00000000000000000000000001011100 f
1<!
#47
b00000000000000000000000001001000 "!
0<!
