top.vcd
$version Generated by VerilatedVcd $end
$date Sat Dec  3 21:18:19 2022 $end
$timescale 1ps $end

 $scope module TOP $end
  $var wire 32 @! a0 [31:0] $end
  $var wire  1 >! clk $end
  $var wire  1 ?! rst $end
  $scope module top $end
   $var wire  3 B! ALUctrl [2:0] $end
   $var wire  1 ` ALUsrc $end
   $var wire  1 f EQ $end
   $var wire 32 g ImmOp [31:0] $end
   $var wire  1 b ImmSrc $end
   $var wire 32 ^ PC [31:0] $end
   $var wire 32 _ PCPlus4_F [31:0] $end
   $var wire 32 \ PCTarget_E [31:0] $end
   $var wire 32 ^ PC_F [31:0] $end
   $var wire  1 [ PCsrc $end
   $var wire  1 [ PCsrc_E $end
   $var wire  1 ` RegWrite $end
   $var wire  1 a RegWriteSrc $end
   $var wire 32 A! WIDTH [31:0] $end
   $var wire 32 @! a0 [31:0] $end
   $var wire  1 >! clk $end
   $var wire 32 h instr [31:0] $end
   $var wire 32 ] instr_F [31:0] $end
   $var wire  5 e rd [4:0] $end
   $var wire  5 c rs1 [4:0] $end
   $var wire  5 d rs2 [4:0] $end
   $var wire  1 ?! rst $end
   $scope module aluTop $end
    $var wire  3 B! ALUctrl [2:0] $end
    $var wire 32 j ALUop1 [31:0] $end
    $var wire 32 k ALUop2 [31:0] $end
    $var wire 32 i ALUout [31:0] $end
    $var wire  1 ` ALUsrc $end
    $var wire 32 A! DATA_WIDTH [31:0] $end
    $var wire  1 f EQ $end
    $var wire 32 g ImmOp [31:0] $end
    $var wire  1 ` RegWrite $end
    $var wire  1 a RegWriteSrc $end
    $var wire 32 @! a0 [31:0] $end
    $var wire  1 >! clk $end
    $var wire 32 n memOut [31:0] $end
    $var wire  5 e rd [4:0] $end
    $var wire 32 l regOp2 [31:0] $end
    $var wire 32 m regWriteData [31:0] $end
    $var wire  5 c rs1 [4:0] $end
    $var wire  5 d rs2 [4:0] $end
    $scope module ALU $end
     $var wire  3 B! ALUctrl [2:0] $end
     $var wire 32 j ALUop1 [31:0] $end
     $var wire 32 k ALUop2 [31:0] $end
     $var wire 32 A! DATA_WIDTH [31:0] $end
     $var wire  1 f EQ $end
     $var wire 32 i SUM [31:0] $end
    $upscope $end
    $scope module RegFile $end
     $var wire 32 C! ADDRESS_WIDTH [31:0] $end
     $var wire 32 A! DATA_WIDTH [31:0] $end
     $var wire 32 j RD1 [31:0] $end
     $var wire 32 l RD2 [31:0] $end
     $var wire 32 m WD3 [31:0] $end
     $var wire  1 ` WE3 $end
     $var wire 32 @! a0 [31:0] $end
     $var wire  1 >! clk $end
     $var wire  5 e rd [4:0] $end
     $var wire 32 o reg_array[0] [31:0] $end
     $var wire 32 y reg_array[10] [31:0] $end
     $var wire 32 z reg_array[11] [31:0] $end
     $var wire 32 { reg_array[12] [31:0] $end
     $var wire 32 | reg_array[13] [31:0] $end
     $var wire 32 } reg_array[14] [31:0] $end
     $var wire 32 ~ reg_array[15] [31:0] $end
     $var wire 32 !! reg_array[16] [31:0] $end
     $var wire 32 "! reg_array[17] [31:0] $end
     $var wire 32 #! reg_array[18] [31:0] $end
     $var wire 32 $! reg_array[19] [31:0] $end
     $var wire 32 p reg_array[1] [31:0] $end
     $var wire 32 %! reg_array[20] [31:0] $end
     $var wire 32 &! reg_array[21] [31:0] $end
     $var wire 32 '! reg_array[22] [31:0] $end
     $var wire 32 (! reg_array[23] [31:0] $end
     $var wire 32 )! reg_array[24] [31:0] $end
     $var wire 32 *! reg_array[25] [31:0] $end
     $var wire 32 +! reg_array[26] [31:0] $end
     $var wire 32 ,! reg_array[27] [31:0] $end
     $var wire 32 -! reg_array[28] [31:0] $end
     $var wire 32 .! reg_array[29] [31:0] $end
     $var wire 32 q reg_array[2] [31:0] $end
     $var wire 32 /! reg_array[30] [31:0] $end
     $var wire 32 0! reg_array[31] [31:0] $end
     $var wire 32 r reg_array[3] [31:0] $end
     $var wire 32 s reg_array[4] [31:0] $end
     $var wire 32 t reg_array[5] [31:0] $end
     $var wire 32 u reg_array[6] [31:0] $end
     $var wire 32 v reg_array[7] [31:0] $end
     $var wire 32 w reg_array[8] [31:0] $end
     $var wire 32 x reg_array[9] [31:0] $end
     $var wire  5 c rs1 [4:0] $end
     $var wire  5 d rs2 [4:0] $end
    $upscope $end
    $scope module ram $end
     $var wire 32 A! ADDRESS_LENGTH [31:0] $end
     $var wire 32 i a [31:0] $end
     $var wire  1 >! clk $end
     $var wire 32 n rd [31:0] $end
     $var wire 32 E! wd [31:0] $end
     $var wire  1 D! we $end
    $upscope $end
   $upscope $end
   $scope module top_cme $end
    $var wire  3 B! ALUctrl [2:0] $end
    $var wire  1 ` ALUsrc $end
    $var wire  1 f EQ $end
    $var wire 32 g ImmOp [31:0] $end
    $var wire  1 b ImmSrc $end
    $var wire 32 ^ PC [31:0] $end
    $var wire  1 [ PCsrc $end
    $var wire  1 ` RegWrite $end
    $var wire  1 a RegWriteSrc $end
    $var wire 32 A! WIDTH [31:0] $end
    $var wire 32 h instr [31:0] $end
    $scope module ControlUnit $end
     $var wire  3 B! ALUctrl [2:0] $end
     $var wire  1 ` ALUsrc $end
     $var wire  1 f EQ $end
     $var wire  1 b ImmSrc $end
     $var wire  1 [ PCsrc $end
     $var wire  1 ` RegWrite $end
     $var wire  1 a RegWriteSrc $end
     $var wire  3 1! funct3 [14:12] $end
     $var wire 32 3! instr [31:0] $end
     $var wire  7 2! opcode [6:0] $end
    $upscope $end
    $scope module InstructionMemory $end
     $var wire 32 ^ A [31:0] $end
     $var wire 32 A! ADDRESS_WIDTH [31:0] $end
     $var wire 32 F! DATA_WIDTH [31:0] $end
     $var wire 32 A! INSTRUCTION_WIDTH [31:0] $end
     $var wire 32 h RD [31:0] $end
     $var wire  8 4! byte1 [7:0] $end
     $var wire  8 5! byte2 [7:0] $end
     $var wire  8 6! byte3 [7:0] $end
     $var wire  8 7! byte4 [7:0] $end
     $var wire  8 # rom_array[0] [7:0] $end
     $var wire  8 - rom_array[10] [7:0] $end
     $var wire  8 . rom_array[11] [7:0] $end
     $var wire  8 / rom_array[12] [7:0] $end
     $var wire  8 0 rom_array[13] [7:0] $end
     $var wire  8 1 rom_array[14] [7:0] $end
     $var wire  8 2 rom_array[15] [7:0] $end
     $var wire  8 3 rom_array[16] [7:0] $end
     $var wire  8 4 rom_array[17] [7:0] $end
     $var wire  8 5 rom_array[18] [7:0] $end
     $var wire  8 6 rom_array[19] [7:0] $end
     $var wire  8 $ rom_array[1] [7:0] $end
     $var wire  8 7 rom_array[20] [7:0] $end
     $var wire  8 8 rom_array[21] [7:0] $end
     $var wire  8 9 rom_array[22] [7:0] $end
     $var wire  8 : rom_array[23] [7:0] $end
     $var wire  8 ; rom_array[24] [7:0] $end
     $var wire  8 < rom_array[25] [7:0] $end
     $var wire  8 = rom_array[26] [7:0] $end
     $var wire  8 > rom_array[27] [7:0] $end
     $var wire  8 % rom_array[2] [7:0] $end
     $var wire  8 & rom_array[3] [7:0] $end
     $var wire  8 ' rom_array[4] [7:0] $end
     $var wire  8 ( rom_array[5] [7:0] $end
     $var wire  8 ) rom_array[6] [7:0] $end
     $var wire  8 * rom_array[7] [7:0] $end
     $var wire  8 + rom_array[8] [7:0] $end
     $var wire  8 , rom_array[9] [7:0] $end
    $upscope $end
    $scope module SignExtend $end
     $var wire 32 g ImmOp [31:0] $end
     $var wire  1 b ImmSrc $end
     $var wire 32 A! data_width [31:0] $end
     $var wire 12 8! imm [11:0] $end
     $var wire 32 G! imm_width [31:0] $end
     $var wire 32 h instruction [31:0] $end
    $upscope $end
   $upscope $end
   $scope module top_fetch $end
    $var wire 32 _ PCPlus4_F [31:0] $end
    $var wire 32 \ PCTarget_E [31:0] $end
    $var wire 32 ^ PC_F [31:0] $end
    $var wire  1 [ PCsrc_E $end
    $var wire 32 A! WIDTH [31:0] $end
    $var wire  1 >! clk $end
    $var wire 32 ] instr_F [31:0] $end
    $var wire 32 9! next_PC [31:0] $end
    $var wire  1 ?! rst $end
    $scope module PC_Reg $end
     $var wire 32 A! DATA_LENGTH [31:0] $end
     $var wire 32 ^ PC [31:0] $end
     $var wire  1 >! clk $end
     $var wire 32 9! next_PC [31:0] $end
     $var wire  1 ?! rst $end
    $upscope $end
    $scope module add_inc $end
     $var wire 32 A! DATA_LENGTH [31:0] $end
     $var wire 32 H! N [31:0] $end
     $var wire 32 ^ in [31:0] $end
     $var wire 32 _ out [31:0] $end
    $upscope $end
    $scope module instr_mem $end
     $var wire 32 ^ A [31:0] $end
     $var wire 32 A! ADDRESS_WIDTH [31:0] $end
     $var wire 32 F! DATA_WIDTH [31:0] $end
     $var wire 32 A! INSTRUCTION_WIDTH [31:0] $end
     $var wire 32 ] RD [31:0] $end
     $var wire  8 :! byte1 [7:0] $end
     $var wire  8 ;! byte2 [7:0] $end
     $var wire  8 <! byte3 [7:0] $end
     $var wire  8 =! byte4 [7:0] $end
     $var wire  8 ? rom_array[0] [7:0] $end
     $var wire  8 I rom_array[10] [7:0] $end
     $var wire  8 J rom_array[11] [7:0] $end
     $var wire  8 K rom_array[12] [7:0] $end
     $var wire  8 L rom_array[13] [7:0] $end
     $var wire  8 M rom_array[14] [7:0] $end
     $var wire  8 N rom_array[15] [7:0] $end
     $var wire  8 O rom_array[16] [7:0] $end
     $var wire  8 P rom_array[17] [7:0] $end
     $var wire  8 Q rom_array[18] [7:0] $end
     $var wire  8 R rom_array[19] [7:0] $end
     $var wire  8 @ rom_array[1] [7:0] $end
     $var wire  8 S rom_array[20] [7:0] $end
     $var wire  8 T rom_array[21] [7:0] $end
     $var wire  8 U rom_array[22] [7:0] $end
     $var wire  8 V rom_array[23] [7:0] $end
     $var wire  8 W rom_array[24] [7:0] $end
     $var wire  8 X rom_array[25] [7:0] $end
     $var wire  8 Y rom_array[26] [7:0] $end
     $var wire  8 Z rom_array[27] [7:0] $end
     $var wire  8 A rom_array[2] [7:0] $end
     $var wire  8 B rom_array[3] [7:0] $end
     $var wire  8 C rom_array[4] [7:0] $end
     $var wire  8 D rom_array[5] [7:0] $end
     $var wire  8 E rom_array[6] [7:0] $end
     $var wire  8 F rom_array[7] [7:0] $end
     $var wire  8 G rom_array[8] [7:0] $end
     $var wire  8 H rom_array[9] [7:0] $end
    $upscope $end
    $scope module mux $end
     $var wire 32 A! WIDTH [31:0] $end
     $var wire 32 _ d_0 [31:0] $end
     $var wire 32 \ d_1 [31:0] $end
     $var wire 32 9! dout [31:0] $end
     $var wire  1 [ s $end
    $upscope $end
   $upscope $end
  $upscope $end
 $upscope $end
$enddefinitions $end


#0
b00000000 #
b00000000 $
b00000000 %
b00000000 &
b00000000 '
b00000000 (
b00000000 )
b00000000 *
b00000000 +
b00000000 ,
b00000000 -
b00000000 .
b00000000 /
b00000000 0
b00000000 1
b00000000 2
b00000000 3
b00000000 4
b00000000 5
b00000000 6
b00000000 7
b00000000 8
b00000000 9
b00000000 :
b00000000 ;
b00000000 <
b00000000 =
b00000000 >
b00000000 ?
b00000000 @
b00000000 A
b00000000 B
b00000000 C
b00000000 D
b00000000 E
b00000000 F
b00000000 G
b00000000 H
b00000000 I
b00000000 J
b00000000 K
b00000000 L
b00000000 M
b00000000 N
b00000000 O
b00000000 P
b00000000 Q
b00000000 R
b00000000 S
b00000000 T
b00000000 U
b00000000 V
b00000000 W
b00000000 X
b00000000 Y
b00000000 Z
0[
b00000000000000000000000000000000 \
b00000000000000000000000000000000 ]
b00000000000000000000000000000000 ^
b00000000000000000000000000000100 _
0`
0a
0b
b00000 c
b00000 d
b00000 e
1f
b00000000000000000000000000000000 g
b00000000000000000000000000000000 h
b00000000000000000000000000000000 i
b00000000000000000000000000000000 j
b00000000000000000000000000000000 k
b00000000000000000000000000000000 l
b00000000000000000000000000000000 m
b00000000000000000000000000000000 n
b00000000000000000000000000000000 o
b00000000000000000000000000000000 p
b00000000000000000000000000000000 q
b00000000000000000000000000000000 r
b00000000000000000000000000000000 s
b00000000000000000000000000000000 t
b00000000000000000000000000000000 u
b00000000000000000000000000000000 v
b00000000000000000000000000000000 w
b00000000000000000000000000000000 x
b00000000000000000000000000000000 y
b00000000000000000000000000000000 z
b00000000000000000000000000000000 {
b00000000000000000000000000000000 |
b00000000000000000000000000000000 }
b00000000000000000000000000000000 ~
b00000000000000000000000000000000 !!
b00000000000000000000000000000000 "!
b00000000000000000000000000000000 #!
b00000000000000000000000000000000 $!
b00000000000000000000000000000000 %!
b00000000000000000000000000000000 &!
b00000000000000000000000000000000 '!
b00000000000000000000000000000000 (!
b00000000000000000000000000000000 )!
b00000000000000000000000000000000 *!
b00000000000000000000000000000000 +!
b00000000000000000000000000000000 ,!
b00000000000000000000000000000000 -!
b00000000000000000000000000000000 .!
b00000000000000000000000000000000 /!
b00000000000000000000000000000000 0!
b000 1!
b0000000 2!
b00000000000000000000000000000000 3!
b00000000 4!
b00000000 5!
b00000000 6!
b00000000 7!
b000000000000 8!
b00000000000000000000000000000100 9!
b00000000 :!
b00000000 ;!
b00000000 <!
b00000000 =!
1>!
1?!
b00000000000000000000000000000000 @!
b00000000000000000000000000100000 A!
b000 B!
b00000000000000000000000000000101 C!
0D!
b00000000000000000000000000000000 E!
b00000000000000000000000000001000 F!
b00000000000000000000000000001100 G!
b00000000000000000000000000000100 H!
#1
b00001111 #
b11110000 $
b00000011 %
b00010011 &
b00000101 )
b00010011 *
b00000101 -
b10010011 .
b00000101 0
b10100101 1
b00000011 2
b00010101 4
b10000101 5
b10010011 6
b11111110 7
b01100101 8
b10011100 9
b11100011 :
b11111110 ;
b00000011 <
b00011000 =
b11100011 >
b00001111 ?
b11110000 @
b00000011 A
b00010011 B
b00000101 E
b00010011 F
b00000101 I
b10010011 J
b00000101 L
b10100101 M
b00000011 N
b00010101 P
b10000101 Q
b10010011 R
b11111110 S
b01100101 T
b10011100 U
b11100011 V
b11111110 W
b00000011 X
b00011000 Y
b11100011 Z
b00000000000000000000000111111110 \
b00001111111100000000001100010011 ]
1`
b11111 d
b00110 e
0f
b00000000000000000000000011111111 g
b00001111111100000000001100010011 h
b00000000000000000000000011111111 i
b00000000000000000000000011111111 k
b00000000000000000000000011111111 m
b11111111111111111111111100000000 n
b0010011 2!
b00000000000000000000000000000001 3!
b00001111 4!
b11110000 5!
b00000011 6!
b00010011 7!
b000011111111 8!
b00001111 :!
b11110000 ;!
b00000011 <!
b00010011 =!
0>!
#2
b00000000000000000000000011111111 u
1>!
#3
0>!
#4
1>!
#5
0>!
#6
1>!
0?!
#7
0>!
#8
b00000000000000000000000000000100 \
b00000000000000000000010100010011 ]
b00000000000000000000000000000100 ^
b00000000000000000000000000001000 _
b00000 d
b01010 e
1f
b00000000000000000000000000000000 g
b00000000000000000000010100010011 h
b00000000000000000000000000000000 i
b00000000000000000000000000000000 k
b00000000000000000000000000000000 m
b00000000000000000000000000000000 n
b00000000 4!
b00000000 5!
b00000101 6!
b000000000000 8!
b00000000000000000000000000001000 9!
b00000000 :!
b00000000 ;!
b00000101 <!
1>!
#9
0>!
#10
b00000000000000000000000000001000 \
b00000000000000000000010110010011 ]
b00000000000000000000000000001000 ^
b00000000000000000000000000001100 _
b01011 e
b00000000000000000000010110010011 h
b10010011 7!
b00000000000000000000000000001100 9!
b10010011 =!
1>!
#11
0>!
#12
b00000000000000000000000000001100 \
b00000000000001011010010100000011 ]
b00000000000000000000000000001100 ^
b00000000000000000000000000010000 _
1a
b01011 c
b01010 e
b00000000000001011010010100000011 h
b010 1!
b0000011 2!
b00000000000000000000000000000011 3!
b00000101 5!
b10100101 6!
b00000011 7!
b00000000000000000000000000010000 9!
b00000101 ;!
b10100101 <!
b00000011 =!
1>!
#13
0>!
#14
b00000000000000000000000000010010 \
b00000000000101011000010110010011 ]
b00000000000000000000000000010000 ^
b00000000000000000000000000010100 _
0a
b00001 d
b01011 e
0f
b00000000000000000000000000000001 g
b00000000000101011000010110010011 h
b00000000000000000000000000000001 i
b00000000000000000000000000000001 k
b00000000000000000000000000000001 m
b00000000000000000000000001001111 n
b000 1!
b0010011 2!
b00000000000000000000000000000001 3!
b00010101 5!
b10000101 6!
b10010011 7!
b000000000001 8!
b00000000000000000000000000010100 9!
b00010101 ;!
b10000101 <!
b10010011 =!
1>!
#15
0>!
#16
1[
b00000000000000000000000000001100 \
b11111110011001011001110011100011 ]
b00000000000000000000000000010100 ^
b00000000000000000000000000011000 _
0`
1b
b00110 d
b11001 e
b11111111111111111111111111111100 g
b11111110011001011001110011100011 h
b00000000000000000000000100000000 i
b00000000000000000000000000000001 j
b00000000000000000000000011111111 k
b00000000000000000000000011111111 l
b00000000000000000000000100000000 m
b11111111111111111111111100001101 n
b00000000000000000000000000000001 z
b001 1!
b1100011 2!
b00000000000000000000000000000010 3!
b11111110 4!
b01100101 5!
b10011100 6!
b11100011 7!
b111111111100 8!
b00000000000000000000000000001100 9!
b11111110 :!
b01100101 ;!
b10011100 <!
b11100011 =!
1>!
#17
0>!
#18
0[
b00000000000001011010010100000011 ]
b00000000000000000000000000001100 ^
b00000000000000000000000000010000 _
1`
1a
0b
b00000 d
b01010 e
b00000000000000000000000000000000 g
b00000000000001011010010100000011 h
b00000000000000000000000000000001 i
b00000000000000000000000000000000 k
b00000000000000000000000000000000 l
b00000000000000000000000001001111 m
b00000000000000000000000001001111 n
b010 1!
b0000011 2!
b00000000000000000000000000000011 3!
b00000000 4!
b00000101 5!
b10100101 6!
b00000011 7!
b000000000000 8!
b00000000000000000000000000010000 9!
b00000000 :!
b00000101 ;!
b10100101 <!
b00000011 =!
1>!
#19
0>!
#20
b00000000000000000000000000010010 \
b00000000000101011000010110010011 ]
b00000000000000000000000000010000 ^
b00000000000000000000000000010100 _
0a
b00001 d
b01011 e
1f
b00000000000000000000000000000001 g
b00000000000101011000010110010011 h
b00000000000000000000000000000010 i
b00000000000000000000000000000001 k
b00000000000000000000000000000010 m
b00000000000000000000000010010110 n
b00000000000000000000000001001111 y
b000 1!
b0010011 2!
b00000000000000000000000000000001 3!
b00010101 5!
b10000101 6!
b10010011 7!
b000000000001 8!
b00000000000000000000000000010100 9!
b00010101 ;!
b10000101 <!
b10010011 =!
1>!
b00000000000000000000000001001111 @!
#21
0>!
#22
1[
b00000000000000000000000000001100 \
b11111110011001011001110011100011 ]
b00000000000000000000000000010100 ^
b00000000000000000000000000011000 _
0`
1b
b00110 d
b11001 e
0f
b11111111111111111111111111111100 g
b11111110011001011001110011100011 h
b00000000000000000000000100000001 i
b00000000000000000000000000000010 j
b00000000000000000000000011111111 k
b00000000000000000000000011111111 l
b00000000000000000000000100000001 m
b11111111111111111111111100110001 n
b00000000000000000000000000000010 z
b001 1!
b1100011 2!
b00000000000000000000000000000010 3!
b11111110 4!
b01100101 5!
b10011100 6!
b11100011 7!
b111111111100 8!
b00000000000000000000000000001100 9!
b11111110 :!
b01100101 ;!
b10011100 <!
b11100011 =!
1>!
#23
0>!
#24
0[
b00000000000001011010010100000011 ]
b00000000000000000000000000001100 ^
b00000000000000000000000000010000 _
1`
1a
0b
b00000 d
b01010 e
b00000000000000000000000000000000 g
b00000000000001011010010100000011 h
b00000000000000000000000000000010 i
b00000000000000000000000000000000 k
b00000000000000000000000000000000 l
b00000000000000000000000010010110 m
b00000000000000000000000010010110 n
b010 1!
b0000011 2!
b00000000000000000000000000000011 3!
b00000000 4!
b00000101 5!
b10100101 6!
b00000011 7!
b000000000000 8!
b00000000000000000000000000010000 9!
b00000000 :!
b00000101 ;!
b10100101 <!
b00000011 =!
1>!
#25
0>!
#26
b00000000000000000000000000010010 \
b00000000000101011000010110010011 ]
b00000000000000000000000000010000 ^
b00000000000000000000000000010100 _
0a
b00001 d
b01011 e
b00000000000000000000000000000001 g
b00000000000101011000010110010011 h
b00000000000000000000000000000011 i
b00000000000000000000000000000001 k
b00000000000000000000000000000011 m
b00000000000000000000000011001111 n
b00000000000000000000000010010110 y
b000 1!
b0010011 2!
b00000000000000000000000000000001 3!
b00010101 5!
b10000101 6!
b10010011 7!
b000000000001 8!
b00000000000000000000000000010100 9!
b00010101 ;!
b10000101 <!
b10010011 =!
1>!
b00000000000000000000000010010110 @!
#27
0>!
#28
1[
b00000000000000000000000000001100 \
b11111110011001011001110011100011 ]
b00000000000000000000000000010100 ^
b00000000000000000000000000011000 _
0`
1b
b00110 d
b11001 e
b11111111111111111111111111111100 g
b11111110011001011001110011100011 h
b00000000000000000000000100000010 i
b00000000000000000000000000000011 j
b00000000000000000000000011111111 k
b00000000000000000000000011111111 l
b00000000000000000000000100000010 m
b11111111111111111111111101101010 n
b00000000000000000000000000000011 z
b001 1!
b1100011 2!
b00000000000000000000000000000010 3!
b11111110 4!
b01100101 5!
b10011100 6!
b11100011 7!
b111111111100 8!
b00000000000000000000000000001100 9!
b11111110 :!
b01100101 ;!
b10011100 <!
b11100011 =!
1>!
#29
0>!
#30
0[
b00000000000001011010010100000011 ]
b00000000000000000000000000001100 ^
b00000000000000000000000000010000 _
1`
1a
0b
b00000 d
b01010 e
b00000000000000000000000000000000 g
b00000000000001011010010100000011 h
b00000000000000000000000000000011 i
b00000000000000000000000000000000 k
b00000000000000000000000000000000 l
b00000000000000000000000011001111 m
b00000000000000000000000011001111 n
b010 1!
b0000011 2!
b00000000000000000000000000000011 3!
b00000000 4!
b00000101 5!
b10100101 6!
b00000011 7!
b000000000000 8!
b00000000000000000000000000010000 9!
b00000000 :!
b00000101 ;!
b10100101 <!
b00000011 =!
1>!
#31
0>!
#32
b00000000000000000000000000010010 \
b00000000000101011000010110010011 ]
b00000000000000000000000000010000 ^
b00000000000000000000000000010100 _
0a
b00001 d
b01011 e
b00000000000000000000000000000001 g
b00000000000101011000010110010011 h
b00000000000000000000000000000100 i
b00000000000000000000000000000001 k
b00000000000000000000000000000100 m
b00000000000000000000000011110011 n
b00000000000000000000000011001111 y
b000 1!
b0010011 2!
b00000000000000000000000000000001 3!
b00010101 5!
b10000101 6!
b10010011 7!
b000000000001 8!
b00000000000000000000000000010100 9!
b00010101 ;!
b10000101 <!
b10010011 =!
1>!
b00000000000000000000000011001111 @!
#33
0>!
#34
1[
b00000000000000000000000000001100 \
b11111110011001011001110011100011 ]
b00000000000000000000000000010100 ^
b00000000000000000000000000011000 _
0`
1b
b00110 d
b11001 e
b11111111111111111111111111111100 g
b11111110011001011001110011100011 h
b00000000000000000000000100000011 i
b00000000000000000000000000000100 j
b00000000000000000000000011111111 k
b00000000000000000000000011111111 l
b00000000000000000000000100000011 m
b11111111111111111111111110110001 n
b00000000000000000000000000000100 z
b001 1!
b1100011 2!
b00000000000000000000000000000010 3!
b11111110 4!
b01100101 5!
b10011100 6!
b11100011 7!
b111111111100 8!
b00000000000000000000000000001100 9!
b11111110 :!
b01100101 ;!
b10011100 <!
b11100011 =!
1>!
#35
0>!
#36
0[
b00000000000001011010010100000011 ]
b00000000000000000000000000001100 ^
b00000000000000000000000000010000 _
1`
1a
0b
b00000 d
b01010 e
b00000000000000000000000000000000 g
b00000000000001011010010100000011 h
b00000000000000000000000000000100 i
b00000000000000000000000000000000 k
b00000000000000000000000000000000 l
b00000000000000000000000011110011 m
b00000000000000000000000011110011 n
b010 1!
b0000011 2!
b00000000000000000000000000000011 3!
b00000000 4!
b00000101 5!
b10100101 6!
b00000011 7!
b000000000000 8!
b00000000000000000000000000010000 9!
b00000000 :!
b00000101 ;!
b10100101 <!
b00000011 =!
1>!
#37
0>!
#38
b00000000000000000000000000010010 \
b00000000000101011000010110010011 ]
b00000000000000000000000000010000 ^
b00000000000000000000000000010100 _
0a
b00001 d
b01011 e
b00000000000000000000000000000001 g
b00000000000101011000010110010011 h
b00000000000000000000000000000101 i
b00000000000000000000000000000001 k
b00000000000000000000000000000101 m
b00000000000000000000000100000000 n
b00000000000000000000000011110011 y
b000 1!
b0010011 2!
b00000000000000000000000000000001 3!
b00010101 5!
b10000101 6!
b10010011 7!
b000000000001 8!
b00000000000000000000000000010100 9!
b00010101 ;!
b10000101 <!
b10010011 =!
1>!
b00000000000000000000000011110011 @!
#39
0>!
#40
1[
b00000000000000000000000000001100 \
b11111110011001011001110011100011 ]
b00000000000000000000000000010100 ^
b00000000000000000000000000011000 _
0`
1b
b00110 d
b11001 e
b11111111111111111111111111111100 g
b11111110011001011001110011100011 h
b00000000000000000000000100000100 i
b00000000000000000000000000000101 j
b00000000000000000000000011111111 k
b00000000000000000000000011111111 l
b00000000000000000000000100000100 m
b00000000000000000000000000000000 n
b00000000000000000000000000000101 z
b001 1!
b1100011 2!
b00000000000000000000000000000010 3!
b11111110 4!
b01100101 5!
b10011100 6!
b11100011 7!
b111111111100 8!
b00000000000000000000000000001100 9!
b11111110 :!
b01100101 ;!
b10011100 <!
b11100011 =!
1>!
#41
0>!
#42
0[
b00000000000001011010010100000011 ]
b00000000000000000000000000001100 ^
b00000000000000000000000000010000 _
1`
1a
0b
b00000 d
b01010 e
b00000000000000000000000000000000 g
b00000000000001011010010100000011 h
b00000000000000000000000000000101 i
b00000000000000000000000000000000 k
b00000000000000000000000000000000 l
b00000000000000000000000100000000 m
b00000000000000000000000100000000 n
b010 1!
b0000011 2!
b00000000000000000000000000000011 3!
b00000000 4!
b00000101 5!
b10100101 6!
b00000011 7!
b000000000000 8!
b00000000000000000000000000010000 9!
b00000000 :!
b00000101 ;!
b10100101 <!
b00000011 =!
1>!
#43
0>!
#44
b00000000000000000000000000010010 \
b00000000000101011000010110010011 ]
b00000000000000000000000000010000 ^
b00000000000000000000000000010100 _
0a
b00001 d
b01011 e
b00000000000000000000000000000001 g
b00000000000101011000010110010011 h
b00000000000000000000000000000110 i
b00000000000000000000000000000001 k
b00000000000000000000000000000110 m
b00000000000000000000000011110011 n
b00000000000000000000000100000000 y
b000 1!
b0010011 2!
b00000000000000000000000000000001 3!
b00010101 5!
b10000101 6!
b10010011 7!
b000000000001 8!
b00000000000000000000000000010100 9!
b00010101 ;!
b10000101 <!
b10010011 =!
1>!
b00000000000000000000000100000000 @!
#45
0>!
#46
1[
b00000000000000000000000000001100 \
b11111110011001011001110011100011 ]
b00000000000000000000000000010100 ^
b00000000000000000000000000011000 _
0`
1b
b00110 d
b11001 e
b11111111111111111111111111111100 g
b11111110011001011001110011100011 h
b00000000000000000000000100000101 i
b00000000000000000000000000000110 j
b00000000000000000000000011111111 k
b00000000000000000000000011111111 l
b00000000000000000000000100000101 m
b00000000000000000000000001001111 n
b00000000000000000000000000000110 z
b001 1!
b1100011 2!
b00000000000000000000000000000010 3!
b11111110 4!
b01100101 5!
b10011100 6!
b11100011 7!
b111111111100 8!
b00000000000000000000000000001100 9!
b11111110 :!
b01100101 ;!
b10011100 <!
b11100011 =!
1>!
#47
0>!
#48
0[
b00000000000001011010010100000011 ]
b00000000000000000000000000001100 ^
b00000000000000000000000000010000 _
1`
1a
0b
b00000 d
b01010 e
b00000000000000000000000000000000 g
b00000000000001011010010100000011 h
b00000000000000000000000000000110 i
b00000000000000000000000000000000 k
b00000000000000000000000000000000 l
b00000000000000000000000011110011 m
b00000000000000000000000011110011 n
b010 1!
b0000011 2!
b00000000000000000000000000000011 3!
b00000000 4!
b00000101 5!
b10100101 6!
b00000011 7!
b000000000000 8!
b00000000000000000000000000010000 9!
b00000000 :!
b00000101 ;!
b10100101 <!
b00000011 =!
1>!
#49
0>!
#50
b00000000000000000000000000010010 \
b00000000000101011000010110010011 ]
b00000000000000000000000000010000 ^
b00000000000000000000000000010100 _
0a
b00001 d
b01011 e
b00000000000000000000000000000001 g
b00000000000101011000010110010011 h
b00000000000000000000000000000111 i
b00000000000000000000000000000001 k
b00000000000000000000000000000111 m
b00000000000000000000000011001111 n
b00000000000000000000000011110011 y
b000 1!
b0010011 2!
b00000000000000000000000000000001 3!
b00010101 5!
b10000101 6!
b10010011 7!
b000000000001 8!
b00000000000000000000000000010100 9!
b00010101 ;!
b10000101 <!
b10010011 =!
1>!
b00000000000000000000000011110011 @!
#51
0>!
#52
1[
b00000000000000000000000000001100 \
b11111110011001011001110011100011 ]
b00000000000000000000000000010100 ^
b00000000000000000000000000011000 _
0`
1b
b00110 d
b11001 e
b11111111111111111111111111111100 g
b11111110011001011001110011100011 h
b00000000000000000000000100000110 i
b00000000000000000000000000000111 j
b00000000000000000000000011111111 k
b00000000000000000000000011111111 l
b00000000000000000000000100000110 m
b00000000000000000000000010010110 n
b00000000000000000000000000000111 z
b001 1!
b1100011 2!
b00000000000000000000000000000010 3!
b11111110 4!
b01100101 5!
b10011100 6!
b11100011 7!
b111111111100 8!
b00000000000000000000000000001100 9!
b11111110 :!
b01100101 ;!
b10011100 <!
b11100011 =!
1>!
#53
0>!
#54
0[
b00000000000001011010010100000011 ]
b00000000000000000000000000001100 ^
b00000000000000000000000000010000 _
1`
1a
0b
b00000 d
b01010 e
b00000000000000000000000000000000 g
b00000000000001011010010100000011 h
b00000000000000000000000000000111 i
b00000000000000000000000000000000 k
b00000000000000000000000000000000 l
b00000000000000000000000011001111 m
b00000000000000000000000011001111 n
b010 1!
b0000011 2!
b00000000000000000000000000000011 3!
b00000000 4!
b00000101 5!
b10100101 6!
b00000011 7!
b000000000000 8!
b00000000000000000000000000010000 9!
b00000000 :!
b00000101 ;!
b10100101 <!
b00000011 =!
1>!
#55
0>!
