top.vcd
$version Generated by VerilatedVcd $end
$date Wed Dec 14 14:09:51 2022 $end
$timescale 1ps $end

 $scope module TOP $end
  $var wire 32 E! a0 [31:0] $end
  $var wire  1 C! clk $end
  $var wire  1 D! rst $end
  $scope module top $end
   $var wire 32 H ALUResult_E [31:0] $end
   $var wire 32 J ALUResult_M [31:0] $end
   $var wire 32 T ALUResult_W [31:0] $end
   $var wire  4 4 ALUctrl_D [3:0] $end
   $var wire  4 F ALUctrl_E [3:0] $end
   $var wire  1 , ALUsrc_D $end
   $var wire  1 = ALUsrc_E $end
   $var wire  3 3 DMem_size_D [2:0] $end
   $var wire  3 E DMem_size_E [2:0] $end
   $var wire  3 Q DMem_size_M [2:0] $end
   $var wire 32 ) ImmExt_D [31:0] $end
   $var wire 32 8 ImmExt_E [31:0] $end
   $var wire 32 ( PCPlus4_D [31:0] $end
   $var wire 32 9 PCPlus4_E [31:0] $end
   $var wire 32 % PCPlus4_F [31:0] $end
   $var wire 32 L PCPlus4_M [31:0] $end
   $var wire 32 V PCPlus4_W [31:0] $end
   $var wire 32 I PCTarget_E [31:0] $end
   $var wire 32 ' PC_D [31:0] $end
   $var wire 32 : PC_E [31:0] $end
   $var wire 32 $ PC_F [31:0] $end
   $var wire  1 > PCsrc_E $end
   $var wire 32 F! RD1_D [31:0] $end
   $var wire 32 6 RD1_E [31:0] $end
   $var wire 32 G! RD2_D [31:0] $end
   $var wire 32 7 RD2_E [31:0] $end
   $var wire  3 2 R_size_D [2:0] $end
   $var wire  3 D R_size_E [2:0] $end
   $var wire  3 P R_size_M [2:0] $end
   $var wire  5 5 Rd_D [4:0] $end
   $var wire  5 G Rd_E [4:0] $end
   $var wire  5 R Rd_M [4:0] $end
   $var wire  5 Y Rd_W [4:0] $end
   $var wire 32 H! WIDTH [31:0] $end
   $var wire 32 E! a0 [31:0] $end
   $var wire  1 - branch_D $end
   $var wire  1 ? branch_E $end
   $var wire  1 C! clk $end
   $var wire 32 & instr_D [31:0] $end
   $var wire 32 # instr_F [31:0] $end
   $var wire  1 . jalr_D $end
   $var wire  1 @ jalr_E $end
   $var wire  1 + jump_D $end
   $var wire  1 < jump_E $end
   $var wire  1 0 load_extend_s_D $end
   $var wire  1 B load_extend_s_E $end
   $var wire  1 N load_extend_s_M $end
   $var wire  1 / lui_D $end
   $var wire  1 A lui_E $end
   $var wire 32 S readData_M [31:0] $end
   $var wire 32 U readData_W [31:0] $end
   $var wire  1 * regWrite_D $end
   $var wire  1 ; regWrite_E $end
   $var wire  1 M regWrite_M $end
   $var wire  1 W regWrite_W $end
   $var wire  2 1 resultSrc_D [1:0] $end
   $var wire  2 C resultSrc_E [1:0] $end
   $var wire  2 O resultSrc_M [1:0] $end
   $var wire  2 X resultSrc_W [1:0] $end
   $var wire 32 Z result_W [31:0] $end
   $var wire  1 D! rst $end
   $var wire 32 7 writeData_E [31:0] $end
   $var wire 32 K writeData_M [31:0] $end
   $scope module decode_execute_reg $end
    $var wire  4 4 ALUctrl_D [3:0] $end
    $var wire  4 F ALUctrl_E [3:0] $end
    $var wire  1 , ALUsrc_D $end
    $var wire  1 = ALUsrc_E $end
    $var wire  3 3 DMem_size_D [2:0] $end
    $var wire  3 E DMem_size_E [2:0] $end
    $var wire 32 ) ImmExt_D [31:0] $end
    $var wire 32 8 ImmExt_E [31:0] $end
    $var wire 32 ( PCPlus4_D [31:0] $end
    $var wire 32 9 PCPlus4_E [31:0] $end
    $var wire 32 ' PC_D [31:0] $end
    $var wire 32 : PC_E [31:0] $end
    $var wire 32 F! RD1_D [31:0] $end
    $var wire 32 6 RD1_E [31:0] $end
    $var wire 32 G! RD2_D [31:0] $end
    $var wire 32 7 RD2_E [31:0] $end
    $var wire  3 2 R_size_D [2:0] $end
    $var wire  3 D R_size_E [2:0] $end
    $var wire  5 5 Rd_D [4:0] $end
    $var wire  5 G Rd_E [4:0] $end
    $var wire 32 H! WIDTH [31:0] $end
    $var wire  1 - branch_D $end
    $var wire  1 ? branch_E $end
    $var wire  1 C! clk $end
    $var wire  1 . jalr_D $end
    $var wire  1 @ jalr_E $end
    $var wire  1 + jump_D $end
    $var wire  1 < jump_E $end
    $var wire  1 0 load_extend_s_D $end
    $var wire  1 B load_extend_s_E $end
    $var wire  1 / lui_D $end
    $var wire  1 A lui_E $end
    $var wire  1 * regWrite_D $end
    $var wire  1 ; regWrite_E $end
    $var wire  2 1 resultSrc_D [1:0] $end
    $var wire  2 C resultSrc_E [1:0] $end
    $var wire  1 D! rst $end
   $upscope $end
   $scope module execute_memory_reg $end
    $var wire 32 H ALUResult_E [31:0] $end
    $var wire 32 J ALUResult_M [31:0] $end
    $var wire  3 E DMem_size_E [2:0] $end
    $var wire  3 Q DMem_size_M [2:0] $end
    $var wire 32 9 PCPlus4_E [31:0] $end
    $var wire 32 L PCPlus4_M [31:0] $end
    $var wire  3 D R_size_E [2:0] $end
    $var wire  3 P R_size_M [2:0] $end
    $var wire  5 G Rd_E [4:0] $end
    $var wire  5 R Rd_M [4:0] $end
    $var wire 32 H! WIDTH [31:0] $end
    $var wire  1 C! clk $end
    $var wire  1 B load_extend_s_E $end
    $var wire  1 N load_extend_s_M $end
    $var wire  1 ; regWrite_E $end
    $var wire  1 M regWrite_M $end
    $var wire  2 C resultSrc_E [1:0] $end
    $var wire  2 O resultSrc_M [1:0] $end
    $var wire  1 D! rst $end
    $var wire 32 7 writeData_E [31:0] $end
    $var wire 32 K writeData_M [31:0] $end
   $upscope $end
   $scope module fetch_decode_reg $end
    $var wire 32 ( PCPlus4_D [31:0] $end
    $var wire 32 % PCPlus4_F [31:0] $end
    $var wire 32 ' PC_D [31:0] $end
    $var wire 32 $ PC_F [31:0] $end
    $var wire 32 H! WIDTH [31:0] $end
    $var wire  1 C! clk $end
    $var wire 32 & instr_D [31:0] $end
    $var wire 32 # instr_F [31:0] $end
    $var wire  1 D! rst $end
   $upscope $end
   $scope module memory_writeback_reg $end
    $var wire 32 J ALUResult_M [31:0] $end
    $var wire 32 T ALUResult_W [31:0] $end
    $var wire 32 L PCPlus4_M [31:0] $end
    $var wire 32 V PCPlus4_W [31:0] $end
    $var wire  5 R Rd_M [4:0] $end
    $var wire  5 Y Rd_W [4:0] $end
    $var wire 32 H! WIDTH [31:0] $end
    $var wire  1 C! clk $end
    $var wire 32 S readData_M [31:0] $end
    $var wire 32 U readData_W [31:0] $end
    $var wire  1 M regWrite_M $end
    $var wire  1 W regWrite_W $end
    $var wire  2 O resultSrc_M [1:0] $end
    $var wire  2 X resultSrc_W [1:0] $end
    $var wire  1 D! rst $end
   $upscope $end
   $scope module top_decode $end
    $var wire  4 4 ALUctrl_D [3:0] $end
    $var wire  1 , ALUsrc_D $end
    $var wire  3 3 DMem_size_D [2:0] $end
    $var wire 32 ) ImmExt_D [31:0] $end
    $var wire  3 [ ImmSrc_D [2:0] $end
    $var wire 32 F! RD1_D [31:0] $end
    $var wire 32 G! RD2_D [31:0] $end
    $var wire  3 2 R_size_D [2:0] $end
    $var wire  5 5 Rd_D [4:0] $end
    $var wire  5 Y Rd_W [4:0] $end
    $var wire 32 H! WIDTH [31:0] $end
    $var wire 32 E! a0 [31:0] $end
    $var wire  1 - branch_D $end
    $var wire  1 C! clk $end
    $var wire 32 & instr_D [31:0] $end
    $var wire  1 . jalr $end
    $var wire  1 + jump_D $end
    $var wire  1 0 load_extend_s $end
    $var wire  1 / lui $end
    $var wire  1 * regWrite_D $end
    $var wire  1 W regWrite_W $end
    $var wire  2 1 resultSrc_D [1:0] $end
    $var wire 32 Z result_W [31:0] $end
    $var wire  1 D! rst $end
    $scope module SignExtend $end
     $var wire 32 ) ImmExtD [31:0] $end
     $var wire  3 [ ImmSrcD [2:0] $end
     $var wire 32 & InstrD [31:0] $end
     $var wire 32 H! data_width [31:0] $end
     $var wire 32 I! imm_width1 [31:0] $end
     $var wire 32 J! imm_width2 [31:0] $end
     $var wire 32 J! imm_width3 [31:0] $end
     $scope module unnamedblk1 $end
      $var wire 12 \ imm_type_1 [11:0] $end
      $var wire 20 ^ imm_type_jal [19:0] $end
      $var wire 20 ] imm_type_lui [19:0] $end
      $var wire  7 _ opcode [6:0] $end
     $upscope $end
    $upscope $end
    $scope module control_unit $end
     $var wire  4 4 ALUControlD [3:0] $end
     $var wire  1 , ALUsrcD $end
     $var wire  1 - BranchD $end
     $var wire  3 3 DMem_size [2:0] $end
     $var wire  3 [ ImmSrcD [2:0] $end
     $var wire  1 + JumpD $end
     $var wire  3 2 R_size [2:0] $end
     $var wire  1 * RegWriteD $end
     $var wire  2 1 ResultSrcD [1:0] $end
     $var wire  3 ` funct3 [2:0] $end
     $var wire  7 a funct7 [6:0] $end
     $var wire  2 b instr_type [1:0] $end
     $var wire  1 . jalr $end
     $var wire  1 0 load_extend_s $end
     $var wire  1 / lui $end
     $var wire  7 _ opcode [6:0] $end
     $scope module alu_control $end
      $var wire  4 4 ALUControlD [3:0] $end
      $var wire  2 b ALUOp [1:0] $end
      $var wire  3 ` funct3 [2:0] $end
      $var wire  1 c funct7_bit $end
     $upscope $end
     $scope module main_control $end
      $var wire  2 b ALUOp [1:0] $end
      $var wire  1 , ALUsrcD $end
      $var wire  1 - BranchD $end
      $var wire  3 3 DMem_size [2:0] $end
      $var wire  3 [ ImmSrcD [2:0] $end
      $var wire  1 + JumpD $end
      $var wire  3 2 R_size [2:0] $end
      $var wire  1 * RegWriteD $end
      $var wire  2 1 ResultSrcD [1:0] $end
      $var wire  3 ` funct3 [14:12] $end
      $var wire 32 d instr [31:0] $end
      $var wire  1 . jalr_o $end
      $var wire  1 0 load_extend_s $end
      $var wire  1 / lui_o $end
      $var wire  7 _ opcode [6:0] $end
     $upscope $end
    $upscope $end
    $scope module register $end
     $var wire 32 K! ADDRESS_WIDTH [31:0] $end
     $var wire 32 H! DATA_WIDTH [31:0] $end
     $var wire 32 F! RD1 [31:0] $end
     $var wire 32 G! RD2 [31:0] $end
     $var wire 32 Z WD3 [31:0] $end
     $var wire  1 W WE3 $end
     $var wire 32 E! a0 [31:0] $end
     $var wire  1 C! clk $end
     $var wire 32 B! i [31:0] $end
     $var wire  5 Y rd [4:0] $end
     $var wire 32 ,! reg_array[10] [31:0] $end
     $var wire 32 -! reg_array[11] [31:0] $end
     $var wire 32 .! reg_array[12] [31:0] $end
     $var wire 32 /! reg_array[13] [31:0] $end
     $var wire 32 0! reg_array[14] [31:0] $end
     $var wire 32 1! reg_array[15] [31:0] $end
     $var wire 32 2! reg_array[16] [31:0] $end
     $var wire 32 3! reg_array[17] [31:0] $end
     $var wire 32 4! reg_array[18] [31:0] $end
     $var wire 32 5! reg_array[19] [31:0] $end
     $var wire 32 #! reg_array[1] [31:0] $end
     $var wire 32 6! reg_array[20] [31:0] $end
     $var wire 32 7! reg_array[21] [31:0] $end
     $var wire 32 8! reg_array[22] [31:0] $end
     $var wire 32 9! reg_array[23] [31:0] $end
     $var wire 32 :! reg_array[24] [31:0] $end
     $var wire 32 ;! reg_array[25] [31:0] $end
     $var wire 32 <! reg_array[26] [31:0] $end
     $var wire 32 =! reg_array[27] [31:0] $end
     $var wire 32 >! reg_array[28] [31:0] $end
     $var wire 32 ?! reg_array[29] [31:0] $end
     $var wire 32 $! reg_array[2] [31:0] $end
     $var wire 32 @! reg_array[30] [31:0] $end
     $var wire 32 A! reg_array[31] [31:0] $end
     $var wire 32 %! reg_array[3] [31:0] $end
     $var wire 32 &! reg_array[4] [31:0] $end
     $var wire 32 '! reg_array[5] [31:0] $end
     $var wire 32 (! reg_array[6] [31:0] $end
     $var wire 32 )! reg_array[7] [31:0] $end
     $var wire 32 *! reg_array[8] [31:0] $end
     $var wire 32 +! reg_array[9] [31:0] $end
     $var wire  5 e rs1 [4:0] $end
     $var wire  5 f rs2 [4:0] $end
     $var wire  1 D! rst $end
    $upscope $end
   $upscope $end
   $scope module top_execute $end
    $var wire  4 F ALUctrl [3:0] $end
    $var wire 32 h ALUop2 [31:0] $end
    $var wire 32 i ALUout1 [31:0] $end
    $var wire 32 H ALUout2 [31:0] $end
    $var wire  1 = ALUsrc $end
    $var wire 32 H! DATA_WIDTH [31:0] $end
    $var wire  1 g EQ $end
    $var wire 32 8 ImmOp [31:0] $end
    $var wire 32 I PCTarget_E [31:0] $end
    $var wire 32 : PC_E [31:0] $end
    $var wire  1 > PCsrc_E $end
    $var wire 32 6 RD1 [31:0] $end
    $var wire 32 7 RD2 [31:0] $end
    $var wire  1 ? branch_E $end
    $var wire  1 @ jalr $end
    $var wire  1 < jump_E $end
    $var wire  1 A lui $end
    $var wire 32 7 writeData_E [31:0] $end
    $scope module ALU $end
     $var wire  4 F ALUctrl [3:0] $end
     $var wire 32 6 ALUop1 [31:0] $end
     $var wire 32 h ALUop2 [31:0] $end
     $var wire 32 H! DATA_WIDTH [31:0] $end
     $var wire  1 g EQ $end
     $var wire 32 i SUM [31:0] $end
    $upscope $end
    $scope module pc_src $end
     $var wire  1 ? BranchE $end
     $var wire  1 < JumpE $end
     $var wire  1 > PCSrcE $end
     $var wire  1 g ZeroE $end
     $var wire  1 j and_result $end
    $upscope $end
   $upscope $end
   $scope module top_fetch $end
    $var wire 32 % PCPlus4_F [31:0] $end
    $var wire 32 I PCTarget_E [31:0] $end
    $var wire 32 $ PC_F [31:0] $end
    $var wire  1 > PCsrc_E $end
    $var wire 32 H! WIDTH [31:0] $end
    $var wire  1 C! clk $end
    $var wire 32 # instr_F [31:0] $end
    $var wire 32 k next_PC [31:0] $end
    $var wire  1 D! rst $end
    $scope module PC_Reg $end
     $var wire 32 H! DATA_LENGTH [31:0] $end
     $var wire 32 $ PC [31:0] $end
     $var wire  1 C! clk $end
     $var wire 32 k next_PC [31:0] $end
     $var wire  1 D! rst $end
    $upscope $end
    $scope module add_inc $end
     $var wire 32 H! DATA_LENGTH [31:0] $end
     $var wire 32 L! N [31:0] $end
     $var wire 32 $ in [31:0] $end
     $var wire 32 % out [31:0] $end
    $upscope $end
    $scope module instr_mem $end
     $var wire 32 $ A [31:0] $end
     $var wire 32 H! ADDRESS_WIDTH [31:0] $end
     $var wire 32 M! DATA_WIDTH [31:0] $end
     $var wire 32 H! INSTRUCTION_WIDTH [31:0] $end
     $var wire 32 # RD [31:0] $end
     $var wire  8 l byte1 [7:0] $end
     $var wire  8 m byte2 [7:0] $end
     $var wire  8 n byte3 [7:0] $end
     $var wire  8 o byte4 [7:0] $end
    $upscope $end
    $scope module mux $end
     $var wire 32 H! WIDTH [31:0] $end
     $var wire 32 % d_0 [31:0] $end
     $var wire 32 I d_1 [31:0] $end
     $var wire 32 k dout [31:0] $end
     $var wire  1 > s $end
    $upscope $end
   $upscope $end
   $scope module top_memory $end
    $var wire 32 J ALUResult_M [31:0] $end
    $var wire 32 H! WIDTH [31:0] $end
    $var wire  1 C! clk $end
    $var wire 32 v dout [31:0] $end
    $var wire  1 u lb $end
    $var wire  1 t lh $end
    $var wire  1 s lw $end
    $var wire 32 S readData_M [31:0] $end
    $var wire  1 N s $end
    $var wire  1 r sb $end
    $var wire  1 q sh $end
    $var wire  1 p sw $end
    $var wire 32 K writeData_M [31:0] $end
    $scope module hbw $end
     $var wire 32 M! BYTE_LEN [31:0] $end
     $var wire 32 H! CPU_WORD [31:0] $end
     $var wire 32 N! HALF_LEN [31:0] $end
     $var wire  8 z b [7:0] $end
     $var wire 32 x be [31:0] $end
     $var wire 32 v data [31:0] $end
     $var wire 32 S dout [31:0] $end
     $var wire 16 y h [15:0] $end
     $var wire 32 w he [31:0] $end
     $var wire  1 u lb $end
     $var wire  1 t lh $end
     $var wire  1 s lw $end
     $var wire  1 N s $end
     $scope module h_e $end
      $var wire 32 N! HALF_LEN [31:0] $end
      $var wire 32 H! WORD_LENGTH [31:0] $end
      $var wire 16 y din [15:0] $end
      $var wire 32 w dout [31:0] $end
      $var wire  1 N s $end
      $var wire  1 { sign $end
     $upscope $end
     $scope module s_e $end
      $var wire 32 M! BYTE_LEN [31:0] $end
      $var wire 32 H! WORD_LENGTH [31:0] $end
      $var wire  8 z din [7:0] $end
      $var wire 32 x dout [31:0] $end
      $var wire  1 N s $end
      $var wire  1 | sign $end
     $upscope $end
    $upscope $end
    $scope module ram $end
     $var wire 32 H! ADDRESS_LENGTH [31:0] $end
     $var wire 32 M! WORD_LENGTH [31:0] $end
     $var wire 32 J a [31:0] $end
     $var wire  1 C! clk $end
     $var wire  8 } d0 [7:0] $end
     $var wire  8 ~ d1 [7:0] $end
     $var wire  8 !! d2 [7:0] $end
     $var wire  8 "! d3 [7:0] $end
     $var wire 32 v rd [31:0] $end
     $var wire  1 r sb $end
     $var wire  1 q sh $end
     $var wire  1 p sw $end
     $var wire 32 K wd [31:0] $end
    $upscope $end
   $upscope $end
   $scope module top_writeback $end
    $var wire 32 T ALUResult_W [31:0] $end
    $var wire 32 V PCPlus4_W [31:0] $end
    $var wire 32 H! WIDTH [31:0] $end
    $var wire 32 U readData_W [31:0] $end
    $var wire  2 X resultSrc_W [1:0] $end
    $var wire 32 Z result_W [31:0] $end
   $upscope $end
  $upscope $end
 $upscope $end
$enddefinitions $end


#973160
b00000000000000000000000000010011 #
b00000000000000000000000011101100 $
b00000000000000000000000011110000 %
b11111110110001011001100011100011 &
b00000000000000000000000011101000 '
b00000000000000000000000011101100 (
b11111111111111111111111111111000 )
0*
0+
0,
1-
0.
0/
00
b00 1
b000 2
b100 3
b0001 4
b10001 5
b00000000000000000000000000000000 6
b00000000000000000000000000000000 7
b00000000000000000000000000000000 8
b00000000000000000000000011101000 9
b00000000000000000000000011100100 :
1;
0<
1=
0>
0?
0@
0A
0B
b00 C
b000 D
b100 E
b0000 F
b00000 G
b00000000000000000000000000000000 H
b00000000000000000000000011100100 I
b00000000000000000000000000000000 J
b00000000000000000000000000000000 K
b00000000000000000000000011100100 L
1M
0N
b00 O
b000 P
b100 Q
b00000 R
b00000000000000000000000000000000 S
b00000000000000000000000000000010 T
b00000000000000000000000000000000 U
b00000000000000000000000011100000 V
1W
b00 X
b01011 Y
b00000000000000000000000000000010 Z
b011 [
b111111111000 \
b00000000000000000000 ]
b00000000000000000000 ^
b1100011 _
b001 `
b1111111 a
b01 b
1c
b00000000000000000000000000000111 d
b01011 e
b01100 f
1g
b00000000000000000000000000000000 h
b00000000000000000000000000000000 i
0j
b00000000000000000000000011110000 k
b00010011 l
b00000000 m
b00000000 n
b00000000 o
0p
0q
0r
1s
0t
0u
b00000000000000000000000000000000 v
b00000000000000000000000000000000 w
b00000000000000000000000000000000 x
b0000000000000000 y
b00000000 z
0{
0|
b00000000 }
b00000000 ~
b00000000 !!
b00000000 "!
b00000000000000000000000000011100 #!
b00000000000000000000000000000000 $!
b00000000000000000000000000000000 %!
b00000000000000000000000000000000 &!
b00000000000000000000000011000111 '!
b00000000000000000000000011001000 (!
b00000000000000000000000000000000 )!
b00000000000000000000000000000000 *!
b00000000000000000000000000000000 +!
b00000000000000000000000000100100 ,!
b00000000000000000000000000000001 -!
b00000000000000000000000011111111 .!
b00000000000000000000000100000000 /!
b00000000000000000000000011001000 0!
b00000000000000010110001110101000 1!
b00000000000000000000000111000111 2!
b00000000000000000000000000000000 3!
b00000000000000000000000000000000 4!
b00000000000000000000000000000000 5!
b00000000000000000000000000000000 6!
b00000000000000000000000000000000 7!
b00000000000000000000000000000000 8!
b00000000000000000000000000000000 9!
b00000000000000000000000000000000 :!
b00000000000000000000000000000000 ;!
b00000000000000000000000000000000 <!
b00000000000000000000000000000000 =!
b00000000000000000000000000000000 >!
b00000000000000000000000000000000 ?!
b00000000000000000000000000000000 @!
b00000000000000000000000000000000 A!
b00000000000000000000000000000000 B!
1C!
0D!
b00000000000000000000000000100100 E!
b00000000000000000000000000000001 F!
b00000000000000000000000011111111 G!
b00000000000000000000000000100000 H!
b00000000000000000000000000001100 I!
b00000000000000000000000000010100 J!
b00000000000000000000000000000101 K!
b00000000000000000000000000000100 L!
b00000000000000000000000000001000 M!
b00000000000000000000000000010000 N!
#973162
b00000000000000000000000011110000 $
b00000000000000000000000011110100 %
b00000000000000000000000000010011 &
b00000000000000000000000011101100 '
b00000000000000000000000011110000 (
b00000000000000000000000000000000 )
1*
1,
0-
b0000 4
b00000 5
b00000000000000000000000000000010 6
b00000000000000000000000011111111 7
b11111111111111111111111111111000 8
b00000000000000000000000011101100 9
b00000000000000000000000011101000 :
0;
0=
1>
1?
b0001 F
b10001 G
b00000000000000000000000011011000 I
b00000000000000000000000011101000 L
b00000000000000000000000000000000 T
b00000000000000000000000011100100 V
b00000 Y
b00000000000000000000000000000000 Z
b000 [
b000000000000 \
b0010011 _
b000 `
b0000000 a
b11 b
0c
b00000000000000000000000000000010 d
b00000 e
b00000 f
b00000000000000000000000011111111 h
1j
b00000000000000000000000011011000 k
b00000000000000000000000000000010 -!
b00000000000000000000000000000000 F!
b00000000000000000000000000000000 G!
#973164
b00010000000001011100010100000011 #
b00000000000000000000000011011000 $
b00000000000000000000000011011100 %
b00000000000000000000000011110000 '
b00000000000000000000000011110100 (
b00000000000000000000000000000000 6
b00000000000000000000000000000000 7
b00000000000000000000000000000000 8
b00000000000000000000000011110000 9
b00000000000000000000000011101100 :
1;
1=
0>
0?
b0000 F
b00000 G
b00000000000000000000000011101100 I
b00000000000000000000000011111111 K
b00000000000000000000000011101100 L
0M
b10001 R
b00000000000000000000000011101000 V
b00000000000000000000000000000000 h
0j
b00000000000000000000000011011100 k
b00000011 l
b11000101 m
b00000101 n
b00010000 o
b11111111 }
#973166
b00000000000101011000010110010011 #
b00000000000000000000000011011100 $
b00000000000000000000000011100000 %
b00010000000001011100010100000011 &
b00000000000000000000000011011000 '
b00000000000000000000000011011100 (
b00000000000000000000000100000000 )
b01 1
b001 3
b01010 5
b00000000000000000000000011110100 9
b00000000000000000000000011110000 :
b00000000000000000000000011110000 I
b00000000000000000000000000000000 K
b00000000000000000000000011110000 L
1M
b00000 R
b00000000000000000000000011101100 V
0W
b10001 Y
b000100000000 \
b0000011 _
b100 `
b0001000 a
b00 b
b00000000000000000000000000000100 d
b01011 e
b00000000000000000000000011100000 k
b10010011 l
b10000101 m
b00010101 n
b00000000 o
b00000000 }
b00000000000000000000000000000010 F!
#973168
b00000000000000000000000000010011 #
b00000000000000000000000011100000 $
b00000000000000000000000011100100 %
b00000000000101011000010110010011 &
b00000000000000000000000011011100 '
b00000000000000000000000011100000 (
b00000000000000000000000000000001 )
b00 1
b100 3
b01011 5
b00000000000000000000000000000010 6
b00000000000000000000000100000000 8
b00000000000000000000000011011100 9
b00000000000000000000000011011000 :
b01 C
b001 E
b01010 G
b00000000000000000000000100000010 H
b00000000000000000000001011011000 I
b00000000000000000000000011110100 L
b00000000000000000000000011110000 V
1W
b00000 Y
b000000000001 \
b0010011 _
b000 `
b0000000 a
b11 b
b00000000000000000000000000000010 d
b00001 f
0g
b00000000000000000000000100000000 h
b00000000000000000000000100000010 i
b00000000000000000000000011100100 k
b00010011 l
b00000000 m
b00000000 n
b00000000000000000000000000011100 G!
#973170
b00000000000000000000000011100100 $
b00000000000000000000000011101000 %
b00000000000000000000000000010011 &
b00000000000000000000000011100000 '
b00000000000000000000000011100100 (
b00000000000000000000000000000000 )
b00000 5
b00000000000000000000000000011100 7
b00000000000000000000000000000001 8
b00000000000000000000000011100000 9
b00000000000000000000000011011100 :
b00 C
b100 E
b01011 G
b00000000000000000000000000000011 H
b00000000000000000000000011011110 I
b00000000000000000000000100000010 J
b00000000000000000000000011011100 L
b01 O
b001 Q
b01010 R
b00000000000000000000000000101011 S
b00000000000000000000000011110100 V
b000000000000 \
b00000 e
b00000 f
b00000000000000000000000000000001 h
b00000000000000000000000000000011 i
b00000000000000000000000011101000 k
0s
1u
b01000101001110010010111000101011 v
b00000000000000000010111000101011 w
b00000000000000000000000000101011 x
b0010111000101011 y
b00101011 z
b00000000000000000000000000000000 F!
b00000000000000000000000000000000 G!
#973172
b11111110110001011001100011100011 #
b00000000000000000000000011101000 $
b00000000000000000000000011101100 %
b00000000000000000000000011100100 '
b00000000000000000000000011101000 (
b00000000000000000000000000000000 6
b00000000000000000000000000000000 7
b00000000000000000000000000000000 8
b00000000000000000000000011100100 9
b00000000000000000000000011100000 :
b00000 G
b00000000000000000000000000000000 H
b00000000000000000000000011100000 I
b00000000000000000000000000000011 J
b00000000000000000000000000011100 K
b00000000000000000000000011100000 L
b00 O
b100 Q
b01011 R
b00000000000000000000000000000000 S
b00000000000000000000000100000010 T
b00000000000000000000000000101011 U
b00000000000000000000000011011100 V
b01 X
b01010 Y
b00000000000000000000000000101011 Z
1g
b00000000000000000000000000000000 h
b00000000000000000000000000000000 i
b00000000000000000000000011101100 k
b11100011 l
b10011000 m
b11000101 n
b11111110 o
1s
0u
b00000000000000000000000000000000 v
b00000000000000000000000000000000 w
b00000000000000000000000000000000 x
b0000000000000000 y
b00000000 z
b00011100 }
#973174
b00000000000000000000000000010011 #
b00000000000000000000000011101100 $
b00000000000000000000000011110000 %
b11111110110001011001100011100011 &
b00000000000000000000000011101000 '
b00000000000000000000000011101100 (
b11111111111111111111111111111000 )
0*
0,
1-
b0001 4
b10001 5
b00000000000000000000000011101000 9
b00000000000000000000000011100100 :
b00000000000000000000000011100100 I
b00000000000000000000000000000000 J
b00000000000000000000000000000000 K
b00000000000000000000000011100100 L
b00000 R
b00000000000000000000000000000011 T
b00000000000000000000000000000000 U
b00000000000000000000000011100000 V
b00 X
b01011 Y
b00000000000000000000000000000011 Z
b011 [
b111111111000 \
b1100011 _
b001 `
b1111111 a
b01 b
1c
b00000000000000000000000000000111 d
b01011 e
b01100 f
b00000000000000000000000011110000 k
b00010011 l
b00000000 m
b00000000 n
b00000000 o
b00000000 }
b00000000000000000000000000101011 ,!
b00000000000000000000000000101011 E!
b00000000000000000000000000000010 F!
b00000000000000000000000011111111 G!
#973176
b00000000000000000000000011110000 $
b00000000000000000000000011110100 %
b00000000000000000000000000010011 &
b00000000000000000000000011101100 '
b00000000000000000000000011110000 (
b00000000000000000000000000000000 )
1*
1,
0-
b0000 4
b00000 5
b00000000000000000000000000000011 6
b00000000000000000000000011111111 7
b11111111111111111111111111111000 8
b00000000000000000000000011101100 9
b00000000000000000000000011101000 :
0;
0=
1>
1?
b0001 F
b10001 G
b00000000000000000000000011011000 I
b00000000000000000000000011101000 L
b00000000000000000000000000000000 T
b00000000000000000000000011100100 V
b00000 Y
b00000000000000000000000000000000 Z
b000 [
b000000000000 \
b0010011 _
b000 `
b0000000 a
b11 b
0c
b00000000000000000000000000000010 d
b00000 e
b00000 f
b00000000000000000000000011111111 h
1j
b00000000000000000000000011011000 k
b00000000000000000000000000000011 -!
b00000000000000000000000000000000 F!
b00000000000000000000000000000000 G!
#973178
b00010000000001011100010100000011 #
b00000000000000000000000011011000 $
b00000000000000000000000011011100 %
b00000000000000000000000011110000 '
b00000000000000000000000011110100 (
b00000000000000000000000000000000 6
b00000000000000000000000000000000 7
b00000000000000000000000000000000 8
b00000000000000000000000011110000 9
b00000000000000000000000011101100 :
1;
1=
0>
0?
b0000 F
b00000 G
b00000000000000000000000011101100 I
b00000000000000000000000011111111 K
b00000000000000000000000011101100 L
0M
b10001 R
b00000000000000000000000011101000 V
b00000000000000000000000000000000 h
0j
b00000000000000000000000011011100 k
b00000011 l
b11000101 m
b00000101 n
b00010000 o
b11111111 }
#973180
b00000000000101011000010110010011 #
b00000000000000000000000011011100 $
b00000000000000000000000011100000 %
b00010000000001011100010100000011 &
b00000000000000000000000011011000 '
b00000000000000000000000011011100 (
b00000000000000000000000100000000 )
b01 1
b001 3
b01010 5
b00000000000000000000000011110100 9
b00000000000000000000000011110000 :
b00000000000000000000000011110000 I
b00000000000000000000000000000000 K
b00000000000000000000000011110000 L
1M
b00000 R
b00000000000000000000000011101100 V
0W
b10001 Y
b000100000000 \
b0000011 _
b100 `
b0001000 a
b00 b
b00000000000000000000000000000100 d
b01011 e
b00000000000000000000000011100000 k
b10010011 l
b10000101 m
b00010101 n
b00000000 o
b00000000 }
b00000000000000000000000000000011 F!
#973182
b00000000000000000000000000010011 #
b00000000000000000000000011100000 $
b00000000000000000000000011100100 %
b00000000000101011000010110010011 &
b00000000000000000000000011011100 '
b00000000000000000000000011100000 (
b00000000000000000000000000000001 )
b00 1
b100 3
b01011 5
b00000000000000000000000000000011 6
b00000000000000000000000100000000 8
b00000000000000000000000011011100 9
b00000000000000000000000011011000 :
b01 C
b001 E
b01010 G
b00000000000000000000000100000011 H
b00000000000000000000001011011000 I
b00000000000000000000000011110100 L
b00000000000000000000000011110000 V
1W
b00000 Y
b000000000001 \
b0010011 _
b000 `
b0000000 a
b11 b
b00000000000000000000000000000010 d
b00001 f
0g
b00000000000000000000000100000000 h
b00000000000000000000000100000011 i
b00000000000000000000000011100100 k
b00010011 l
b00000000 m
b00000000 n
b00000000000000000000000000011100 G!
#973184
b00000000000000000000000011100100 $
b00000000000000000000000011101000 %
b00000000000000000000000000010011 &
b00000000000000000000000011100000 '
b00000000000000000000000011100100 (
b00000000000000000000000000000000 )
b00000 5
b00000000000000000000000000011100 7
b00000000000000000000000000000001 8
b00000000000000000000000011100000 9
b00000000000000000000000011011100 :
b00 C
b100 E
b01011 G
b00000000000000000000000000000100 H
b00000000000000000000000011011110 I
b00000000000000000000000100000011 J
b00000000000000000000000011011100 L
b01 O
b001 Q
b01010 R
b00000000000000000000000000101110 S
b00000000000000000000000011110100 V
b000000000000 \
b00000 e
b00000 f
b00000000000000000000000000000001 h
b00000000000000000000000000000100 i
b00000000000000000000000011101000 k
0s
1u
b01000100010001010011100100101110 v
b00000000000000000011100100101110 w
b00000000000000000000000000101110 x
b0011100100101110 y
b00101110 z
b00000000000000000000000000000000 F!
b00000000000000000000000000000000 G!
