top.vcd
$version Generated by VerilatedVcd $end
$date Mon Dec 12 17:57:03 2022 $end
$timescale 1ps $end

 $scope module TOP $end
  $var wire 32 ;! a0 [31:0] $end
  $var wire  1 9! clk $end
  $var wire  1 :! rst $end
  $scope module top $end
   $var wire 32 B ALUResult_E [31:0] $end
   $var wire 32 D ALUResult_M [31:0] $end
   $var wire 32 M ALUResult_W [31:0] $end
   $var wire  4 1 ALUctrl_D [3:0] $end
   $var wire  4 @ ALUctrl_E [3:0] $end
   $var wire  1 , ALUsrc_D $end
   $var wire  1 : ALUsrc_E $end
   $var wire  3 0 DMem_size_D [2:0] $end
   $var wire  3 ? DMem_size_E [2:0] $end
   $var wire  3 J DMem_size_M [2:0] $end
   $var wire 32 ) ImmExt_D [31:0] $end
   $var wire 32 5 ImmExt_E [31:0] $end
   $var wire 32 ( PCPlus4_D [31:0] $end
   $var wire 32 6 PCPlus4_E [31:0] $end
   $var wire 32 % PCPlus4_F [31:0] $end
   $var wire 32 F PCPlus4_M [31:0] $end
   $var wire 32 O PCPlus4_W [31:0] $end
   $var wire 32 C PCTarget_E [31:0] $end
   $var wire 32 ' PC_D [31:0] $end
   $var wire 32 7 PC_E [31:0] $end
   $var wire 32 $ PC_F [31:0] $end
   $var wire  1 ; PCsrc_E $end
   $var wire 32 <! RD1_D [31:0] $end
   $var wire 32 3 RD1_E [31:0] $end
   $var wire 32 =! RD2_D [31:0] $end
   $var wire 32 4 RD2_E [31:0] $end
   $var wire  3 / R_size_D [2:0] $end
   $var wire  3 > R_size_E [2:0] $end
   $var wire  3 I R_size_M [2:0] $end
   $var wire  5 2 Rd_D [4:0] $end
   $var wire  5 A Rd_E [4:0] $end
   $var wire  5 K Rd_M [4:0] $end
   $var wire  5 R Rd_W [4:0] $end
   $var wire 32 >! WIDTH [31:0] $end
   $var wire 32 ;! a0 [31:0] $end
   $var wire  1 - branch_D $end
   $var wire  1 < branch_E $end
   $var wire  1 9! clk $end
   $var wire 32 & instr_D [31:0] $end
   $var wire 32 # instr_F [31:0] $end
   $var wire  1 + jump_D $end
   $var wire  1 9 jump_E $end
   $var wire 32 L readData_M [31:0] $end
   $var wire 32 N readData_W [31:0] $end
   $var wire  1 * regWrite_D $end
   $var wire  1 8 regWrite_E $end
   $var wire  1 G regWrite_M $end
   $var wire  1 P regWrite_W $end
   $var wire  2 . resultSrc_D [1:0] $end
   $var wire  2 = resultSrc_E [1:0] $end
   $var wire  2 H resultSrc_M [1:0] $end
   $var wire  2 Q resultSrc_W [1:0] $end
   $var wire 32 S result_W [31:0] $end
   $var wire  1 :! rst $end
   $var wire 32 4 writeData_E [31:0] $end
   $var wire 32 E writeData_M [31:0] $end
   $scope module decode_execute_reg $end
    $var wire  4 1 ALUctrl_D [3:0] $end
    $var wire  4 @ ALUctrl_E [3:0] $end
    $var wire  1 , ALUsrc_D $end
    $var wire  1 : ALUsrc_E $end
    $var wire  3 0 DMem_size_D [2:0] $end
    $var wire  3 ? DMem_size_E [2:0] $end
    $var wire 32 ) ImmExt_D [31:0] $end
    $var wire 32 5 ImmExt_E [31:0] $end
    $var wire 32 ( PCPlus4_D [31:0] $end
    $var wire 32 6 PCPlus4_E [31:0] $end
    $var wire 32 ' PC_D [31:0] $end
    $var wire 32 7 PC_E [31:0] $end
    $var wire 32 <! RD1_D [31:0] $end
    $var wire 32 3 RD1_E [31:0] $end
    $var wire 32 =! RD2_D [31:0] $end
    $var wire 32 4 RD2_E [31:0] $end
    $var wire  3 / R_size_D [2:0] $end
    $var wire  3 > R_size_E [2:0] $end
    $var wire  5 2 Rd_D [4:0] $end
    $var wire  5 A Rd_E [4:0] $end
    $var wire 32 >! WIDTH [31:0] $end
    $var wire  1 - branch_D $end
    $var wire  1 < branch_E $end
    $var wire  1 9! clk $end
    $var wire  1 + jump_D $end
    $var wire  1 9 jump_E $end
    $var wire  1 * regWrite_D $end
    $var wire  1 8 regWrite_E $end
    $var wire  2 . resultSrc_D [1:0] $end
    $var wire  2 = resultSrc_E [1:0] $end
    $var wire  1 :! rst $end
   $upscope $end
   $scope module execute_memory_reg $end
    $var wire 32 B ALUResult_E [31:0] $end
    $var wire 32 D ALUResult_M [31:0] $end
    $var wire  3 ? DMem_size_E [2:0] $end
    $var wire  3 J DMem_size_M [2:0] $end
    $var wire 32 6 PCPlus4_E [31:0] $end
    $var wire 32 F PCPlus4_M [31:0] $end
    $var wire  3 > R_size_E [2:0] $end
    $var wire  3 I R_size_M [2:0] $end
    $var wire  5 A Rd_E [4:0] $end
    $var wire  5 K Rd_M [4:0] $end
    $var wire 32 >! WIDTH [31:0] $end
    $var wire  1 9! clk $end
    $var wire  1 8 regWrite_E $end
    $var wire  1 G regWrite_M $end
    $var wire  2 = resultSrc_E [1:0] $end
    $var wire  2 H resultSrc_M [1:0] $end
    $var wire  1 :! rst $end
    $var wire 32 4 writeData_E [31:0] $end
    $var wire 32 E writeData_M [31:0] $end
   $upscope $end
   $scope module fetch_decode_reg $end
    $var wire 32 ( PCPlus4_D [31:0] $end
    $var wire 32 % PCPlus4_F [31:0] $end
    $var wire 32 ' PC_D [31:0] $end
    $var wire 32 $ PC_F [31:0] $end
    $var wire 32 >! WIDTH [31:0] $end
    $var wire  1 9! clk $end
    $var wire 32 & instr_D [31:0] $end
    $var wire 32 # instr_F [31:0] $end
    $var wire  1 :! rst $end
   $upscope $end
   $scope module memory_writeback_reg $end
    $var wire 32 D ALUResult_M [31:0] $end
    $var wire 32 M ALUResult_W [31:0] $end
    $var wire 32 F PCPlus4_M [31:0] $end
    $var wire 32 O PCPlus4_W [31:0] $end
    $var wire  5 K Rd_M [4:0] $end
    $var wire  5 R Rd_W [4:0] $end
    $var wire 32 >! WIDTH [31:0] $end
    $var wire  1 9! clk $end
    $var wire 32 L readData_M [31:0] $end
    $var wire 32 N readData_W [31:0] $end
    $var wire  1 G regWrite_M $end
    $var wire  1 P regWrite_W $end
    $var wire  2 H resultSrc_M [1:0] $end
    $var wire  2 Q resultSrc_W [1:0] $end
    $var wire  1 :! rst $end
   $upscope $end
   $scope module top_decode $end
    $var wire  4 1 ALUctrl_D [3:0] $end
    $var wire  1 , ALUsrc_D $end
    $var wire  3 0 DMem_size_D [2:0] $end
    $var wire 32 ) ImmExt_D [31:0] $end
    $var wire  3 T ImmSrc_D [2:0] $end
    $var wire 32 <! RD1_D [31:0] $end
    $var wire 32 =! RD2_D [31:0] $end
    $var wire  3 / R_size_D [2:0] $end
    $var wire  5 2 Rd_D [4:0] $end
    $var wire  5 R Rd_W [4:0] $end
    $var wire 32 >! WIDTH [31:0] $end
    $var wire 32 ;! a0 [31:0] $end
    $var wire  1 - branch_D $end
    $var wire  1 9! clk $end
    $var wire 32 & instr_D [31:0] $end
    $var wire  1 + jump_D $end
    $var wire  1 * regWrite_D $end
    $var wire  1 P regWrite_W $end
    $var wire  2 . resultSrc_D [1:0] $end
    $var wire 32 S result_W [31:0] $end
    $var wire  1 :! rst $end
    $scope module SignExtend $end
     $var wire 32 ) ImmExtD [31:0] $end
     $var wire  3 T ImmSrcD [2:0] $end
     $var wire 32 & InstrD [31:0] $end
     $var wire 32 >! data_width [31:0] $end
     $var wire 32 ?! imm_width1 [31:0] $end
     $var wire 32 @! imm_width2 [31:0] $end
     $var wire 32 @! imm_width3 [31:0] $end
     $scope module unnamedblk1 $end
      $var wire 12 U imm_type_1 [11:0] $end
      $var wire 20 W imm_type_jal [19:0] $end
      $var wire 20 V imm_type_lui [19:0] $end
      $var wire  7 X opcode [6:0] $end
     $upscope $end
    $upscope $end
    $scope module control_unit $end
     $var wire  4 1 ALUControlD [3:0] $end
     $var wire  1 , ALUsrcD $end
     $var wire  1 - BranchD $end
     $var wire  3 0 DMem_size [2:0] $end
     $var wire  3 T ImmSrcD [2:0] $end
     $var wire  1 + JumpD $end
     $var wire  3 / R_size [2:0] $end
     $var wire  1 * RegWriteD $end
     $var wire  2 . ResultSrcD [1:0] $end
     $var wire  3 Y funct3 [2:0] $end
     $var wire  7 Z funct7 [6:0] $end
     $var wire  2 [ instr_type [1:0] $end
     $var wire  7 X opcode [6:0] $end
     $scope module alu_control $end
      $var wire  4 1 ALUControlD [3:0] $end
      $var wire  2 [ ALUOp [1:0] $end
      $var wire  3 Y funct3 [2:0] $end
      $var wire  1 \ funct7_bit $end
     $upscope $end
     $scope module main_control $end
      $var wire  2 [ ALUOp [1:0] $end
      $var wire  1 , ALUsrcD $end
      $var wire  1 - BranchD $end
      $var wire  3 0 DMem_size [2:0] $end
      $var wire  3 T ImmSrcD [2:0] $end
      $var wire  1 + JumpD $end
      $var wire  3 / R_size [2:0] $end
      $var wire  1 * RegWriteD $end
      $var wire  2 . ResultSrcD [1:0] $end
      $var wire  3 Y funct3 [14:12] $end
      $var wire 32 ] instr [31:0] $end
      $var wire  7 X opcode [6:0] $end
     $upscope $end
    $upscope $end
    $scope module register $end
     $var wire 32 A! ADDRESS_WIDTH [31:0] $end
     $var wire 32 >! DATA_WIDTH [31:0] $end
     $var wire 32 <! RD1 [31:0] $end
     $var wire 32 =! RD2 [31:0] $end
     $var wire 32 S WD3 [31:0] $end
     $var wire  1 P WE3 $end
     $var wire 32 ;! a0 [31:0] $end
     $var wire  1 9! clk $end
     $var wire  5 R rd [4:0] $end
     $var wire 32 w reg_array[0] [31:0] $end
     $var wire 32 #! reg_array[10] [31:0] $end
     $var wire 32 $! reg_array[11] [31:0] $end
     $var wire 32 %! reg_array[12] [31:0] $end
     $var wire 32 &! reg_array[13] [31:0] $end
     $var wire 32 '! reg_array[14] [31:0] $end
     $var wire 32 (! reg_array[15] [31:0] $end
     $var wire 32 )! reg_array[16] [31:0] $end
     $var wire 32 *! reg_array[17] [31:0] $end
     $var wire 32 +! reg_array[18] [31:0] $end
     $var wire 32 ,! reg_array[19] [31:0] $end
     $var wire 32 x reg_array[1] [31:0] $end
     $var wire 32 -! reg_array[20] [31:0] $end
     $var wire 32 .! reg_array[21] [31:0] $end
     $var wire 32 /! reg_array[22] [31:0] $end
     $var wire 32 0! reg_array[23] [31:0] $end
     $var wire 32 1! reg_array[24] [31:0] $end
     $var wire 32 2! reg_array[25] [31:0] $end
     $var wire 32 3! reg_array[26] [31:0] $end
     $var wire 32 4! reg_array[27] [31:0] $end
     $var wire 32 5! reg_array[28] [31:0] $end
     $var wire 32 6! reg_array[29] [31:0] $end
     $var wire 32 y reg_array[2] [31:0] $end
     $var wire 32 7! reg_array[30] [31:0] $end
     $var wire 32 8! reg_array[31] [31:0] $end
     $var wire 32 z reg_array[3] [31:0] $end
     $var wire 32 { reg_array[4] [31:0] $end
     $var wire 32 | reg_array[5] [31:0] $end
     $var wire 32 } reg_array[6] [31:0] $end
     $var wire 32 ~ reg_array[7] [31:0] $end
     $var wire 32 !! reg_array[8] [31:0] $end
     $var wire 32 "! reg_array[9] [31:0] $end
     $var wire  5 ^ rs1 [4:0] $end
     $var wire  5 _ rs2 [4:0] $end
    $upscope $end
   $upscope $end
   $scope module top_execute $end
    $var wire  4 @ ALUctrl [3:0] $end
    $var wire 32 a ALUop2 [31:0] $end
    $var wire 32 B ALUout [31:0] $end
    $var wire  1 : ALUsrc $end
    $var wire 32 >! DATA_WIDTH [31:0] $end
    $var wire  1 ` EQ $end
    $var wire 32 5 ImmOp [31:0] $end
    $var wire 32 C PCTarget_E [31:0] $end
    $var wire 32 7 PC_E [31:0] $end
    $var wire  1 ; PCsrc_E $end
    $var wire 32 3 RD1 [31:0] $end
    $var wire 32 4 RD2 [31:0] $end
    $var wire  1 < branch_E $end
    $var wire  1 9 jump_E $end
    $var wire 32 4 writeData_E [31:0] $end
    $scope module ALU $end
     $var wire  4 @ ALUctrl [3:0] $end
     $var wire 32 3 ALUop1 [31:0] $end
     $var wire 32 a ALUop2 [31:0] $end
     $var wire 32 >! DATA_WIDTH [31:0] $end
     $var wire  1 ` EQ $end
     $var wire 32 B SUM [31:0] $end
    $upscope $end
    $scope module pc_src $end
     $var wire  1 < BranchE $end
     $var wire  1 9 JumpE $end
     $var wire  1 ; PCSrcE $end
     $var wire  1 ` ZeroE $end
     $var wire  1 b and_result $end
    $upscope $end
   $upscope $end
   $scope module top_fetch $end
    $var wire 32 % PCPlus4_F [31:0] $end
    $var wire 32 C PCTarget_E [31:0] $end
    $var wire 32 $ PC_F [31:0] $end
    $var wire  1 ; PCsrc_E $end
    $var wire 32 >! WIDTH [31:0] $end
    $var wire  1 9! clk $end
    $var wire 32 # instr_F [31:0] $end
    $var wire 32 c next_PC [31:0] $end
    $var wire  1 :! rst $end
    $scope module PC_Reg $end
     $var wire 32 >! DATA_LENGTH [31:0] $end
     $var wire 32 $ PC [31:0] $end
     $var wire  1 9! clk $end
     $var wire 32 c next_PC [31:0] $end
     $var wire  1 :! rst $end
    $upscope $end
    $scope module add_inc $end
     $var wire 32 >! DATA_LENGTH [31:0] $end
     $var wire 32 B! N [31:0] $end
     $var wire 32 $ in [31:0] $end
     $var wire 32 % out [31:0] $end
    $upscope $end
    $scope module instr_mem $end
     $var wire 32 $ A [31:0] $end
     $var wire 32 >! ADDRESS_WIDTH [31:0] $end
     $var wire 32 C! DATA_WIDTH [31:0] $end
     $var wire 32 >! INSTRUCTION_WIDTH [31:0] $end
     $var wire 32 # RD [31:0] $end
     $var wire  8 d byte1 [7:0] $end
     $var wire  8 e byte2 [7:0] $end
     $var wire  8 f byte3 [7:0] $end
     $var wire  8 g byte4 [7:0] $end
    $upscope $end
    $scope module mux $end
     $var wire 32 >! WIDTH [31:0] $end
     $var wire 32 % d_0 [31:0] $end
     $var wire 32 C d_1 [31:0] $end
     $var wire 32 c dout [31:0] $end
     $var wire  1 ; s $end
    $upscope $end
   $upscope $end
   $scope module top_memory $end
    $var wire 32 D ALUResult_M [31:0] $end
    $var wire 32 >! WIDTH [31:0] $end
    $var wire  1 9! clk $end
    $var wire 32 n dout [31:0] $end
    $var wire  1 m lb $end
    $var wire  1 l lh $end
    $var wire  1 k lw $end
    $var wire 32 L readData_M [31:0] $end
    $var wire  1 j sb $end
    $var wire  1 i sh $end
    $var wire  1 h sw $end
    $var wire 32 E writeData_M [31:0] $end
    $scope module hbw $end
     $var wire 32 C! BYTE_LEN [31:0] $end
     $var wire 32 >! CPU_WORD [31:0] $end
     $var wire 32 D! HALF_LEN [31:0] $end
     $var wire  8 r b [7:0] $end
     $var wire 32 p be [31:0] $end
     $var wire 32 n data [31:0] $end
     $var wire 32 L dout [31:0] $end
     $var wire 16 q h [15:0] $end
     $var wire 32 o he [31:0] $end
     $var wire  1 m lb $end
     $var wire  1 l lh $end
     $var wire  1 k lw $end
     $scope module ze $end
      $var wire 32 C! BYTE_LEN [31:0] $end
      $var wire 32 D! HALF_LEN [31:0] $end
      $var wire 32 >! LEN [31:0] $end
      $var wire 32 p be [31:0] $end
      $var wire  8 r byte_input [7:0] $end
      $var wire 16 q half_input [15:0] $end
      $var wire 32 o he [31:0] $end
     $upscope $end
    $upscope $end
    $scope module ram $end
     $var wire 32 >! ADDRESS_LENGTH [31:0] $end
     $var wire 32 C! WORD_LENGTH [31:0] $end
     $var wire 32 D a [31:0] $end
     $var wire  1 9! clk $end
     $var wire  8 s d0 [7:0] $end
     $var wire  8 t d1 [7:0] $end
     $var wire  8 u d2 [7:0] $end
     $var wire  8 v d3 [7:0] $end
     $var wire 32 n rd [31:0] $end
     $var wire  1 j sb $end
     $var wire  1 i sh $end
     $var wire  1 h sw $end
     $var wire 32 E wd [31:0] $end
    $upscope $end
   $upscope $end
   $scope module top_writeback $end
    $var wire 32 M ALUResult_W [31:0] $end
    $var wire 32 O PCPlus4_W [31:0] $end
    $var wire 32 >! WIDTH [31:0] $end
    $var wire 32 N readData_W [31:0] $end
    $var wire  2 Q resultSrc_W [1:0] $end
    $var wire 32 S result_W [31:0] $end
   $upscope $end
  $upscope $end
 $upscope $end
$enddefinitions $end


#0
b00000000000000000000000000000000 #
b00000000000000000000000000000000 $
b00000000000000000000000000000100 %
b00000000000000000000000000000000 &
b00000000000000000000000000000000 '
b00000000000000000000000000000000 (
b00000000000000000000000000000000 )
0*
0+
0,
0-
b00 .
b000 /
b100 0
b0000 1
b00000 2
b00000000000000000000000000000000 3
b00000000000000000000000000000000 4
b00000000000000000000000000000000 5
b00000000000000000000000000000000 6
b00000000000000000000000000000000 7
08
09
0:
0;
0<
b00 =
b000 >
b000 ?
b0000 @
b00000 A
b00000000000000000000000000000000 B
b00000000000000000000000000000000 C
b00000000000000000000000000000000 D
b00000000000000000000000000000000 E
b00000000000000000000000000000000 F
0G
b00 H
b000 I
b000 J
b00000 K
b00000000000000000000000000000000 L
b00000000000000000000000000000000 M
b00000000000000000000000000000000 N
b00000000000000000000000000000000 O
0P
b00 Q
b00000 R
b00000000000000000000000000000000 S
b000 T
b000000000000 U
b00000000000000000000 V
b00000000000000000000 W
b0000000 X
b000 Y
b0000000 Z
b10 [
0\
b00000000000000000000000000000000 ]
b00000 ^
b00000 _
0`
b00000000000000000000000000000000 a
0b
b00000000000000000000000000000100 c
b00000000 d
b00000000 e
b00000000 f
b00000000 g
0h
0i
0j
0k
0l
0m
b00000000000000000000000000000000 n
b00000000000000000000000000000000 o
b00000000000000000000000000000000 p
b0000000000000000 q
b00000000 r
b00000000 s
b00000000 t
b00000000 u
b00000000 v
b00000000000000000000000000000000 w
b00000000000000000000000000000000 x
b00000000000000000000000000000000 y
b00000000000000000000000000000000 z
b00000000000000000000000000000000 {
b00000000000000000000000000000000 |
b00000000000000000000000000000000 }
b00000000000000000000000000000000 ~
b00000000000000000000000000000000 !!
b00000000000000000000000000000000 "!
b00000000000000000000000000000000 #!
b00000000000000000000000000000000 $!
b00000000000000000000000000000000 %!
b00000000000000000000000000000000 &!
b00000000000000000000000000000000 '!
b00000000000000000000000000000000 (!
b00000000000000000000000000000000 )!
b00000000000000000000000000000000 *!
b00000000000000000000000000000000 +!
b00000000000000000000000000000000 ,!
b00000000000000000000000000000000 -!
b00000000000000000000000000000000 .!
b00000000000000000000000000000000 /!
b00000000000000000000000000000000 0!
b00000000000000000000000000000000 1!
b00000000000000000000000000000000 2!
b00000000000000000000000000000000 3!
b00000000000000000000000000000000 4!
b00000000000000000000000000000000 5!
b00000000000000000000000000000000 6!
b00000000000000000000000000000000 7!
b00000000000000000000000000000000 8!
19!
1:!
b00000000000000000000000000000000 ;!
b00000000000000000000000000000000 <!
b00000000000000000000000000000000 =!
b00000000000000000000000000100000 >!
b00000000000000000000000000001100 ?!
b00000000000000000000000000010100 @!
b00000000000000000000000000000101 A!
b00000000000000000000000000000100 B!
b00000000000000000000000000001000 C!
b00000000000000000000000000010000 D!
#1
b00001111111100000000001100010011 #
1`
b00001111 d
b11110000 e
b00000011 f
b00010011 g
09!
#2
19!
#3
09!
#4
19!
#5
09!
#6
19!
0:!
#7
09!
#8
b00000000000000000000000000010011 #
b00000000000000000000000000000100 $
b00000000000000000000000000001000 %
b00001111111100000000001100010011 &
b00000000000000000000000000000100 (
b00000000000000000000000011111111 )
1*
1,
b00110 2
b100 ?
b000011111111 U
b0010011 X
b0000111 Z
b00000000000000000000000000000010 ]
b11111 _
b00000000000000000000000000001000 c
b00000000 d
b00000000 e
b00000000 f
19!
#9
09!
#10
b00000000000000000000000000001000 $
b00000000000000000000000000001100 %
b00000000000000000000000000010011 &
b00000000000000000000000000000100 '
b00000000000000000000000000001000 (
b00000000000000000000000000000000 )
b00000 2
b00000000000000000000000011111111 5
b00000000000000000000000000000100 6
18
1:
b00110 A
b00000000000000000000000011111111 B
b00000000000000000000000111111110 C
b100 J
b000000000000 U
b0000000 Z
b00000 _
0`
b00000000000000000000000011111111 a
b00000000000000000000000000001100 c
1k
19!
#11
09!
#12
b00000000000000000000010100010011 #
b00000000000000000000000000001100 $
b00000000000000000000000000010000 %
b00000000000000000000000000001000 '
b00000000000000000000000000001100 (
b00000000000000000000000000000000 5
b00000000000000000000000000001000 6
b00000000000000000000000000000100 7
b00000 A
b00000000000000000000000000000000 B
b00000000000000000000000000000100 C
b00000000000000000000000011111111 D
b00000000000000000000000000000100 F
1G
b00110 K
1`
b00000000000000000000000000000000 a
b00000000000000000000000000010000 c
b00000101 f
19!
#13
09!
#14
b00000000000000000000000000010011 #
b00000000000000000000000000010000 $
b00000000000000000000000000010100 %
b00000000000000000000010100010011 &
b00000000000000000000000000001100 '
b00000000000000000000000000010000 (
b01010 2
b00000000000000000000000000001100 6
b00000000000000000000000000001000 7
b00000000000000000000000000001000 C
b00000000000000000000000000000000 D
b00000000000000000000000000001000 F
b00000 K
b00000000000000000000000011111111 M
b00000000000000000000000000000100 O
1P
b00110 R
b00000000000000000000000011111111 S
b00000000000000000000000000010100 c
b00000000 f
19!
#15
b00000000000000000000000011111111 }
09!
#16
b00000000000000000000000000010100 $
b00000000000000000000000000011000 %
b00000000000000000000000000010011 &
b00000000000000000000000000010000 '
b00000000000000000000000000010100 (
b00000 2
b00000000000000000000000000010000 6
b00000000000000000000000000001100 7
b01010 A
b00000000000000000000000000001100 C
b00000000000000000000000000001100 F
b00000000000000000000000000000000 M
b00000000000000000000000000001000 O
b00000 R
b00000000000000000000000000000000 S
b00000000000000000000000000011000 c
19!
#17
09!
#18
b00000000000000000000010110010011 #
b00000000000000000000000000011000 $
b00000000000000000000000000011100 %
b00000000000000000000000000010100 '
b00000000000000000000000000011000 (
b00000000000000000000000000010100 6
b00000000000000000000000000010000 7
b00000 A
b00000000000000000000000000010000 C
b00000000000000000000000000010000 F
b01010 K
b00000000000000000000000000001100 O
b00000000000000000000000000011100 c
b00000101 f
b10010011 g
19!
#19
09!
#20
b00000000000000000000000000010011 #
b00000000000000000000000000011100 $
b00000000000000000000000000100000 %
b00000000000000000000010110010011 &
b00000000000000000000000000011000 '
b00000000000000000000000000011100 (
b01011 2
b00000000000000000000000000011000 6
b00000000000000000000000000010100 7
b00000000000000000000000000010100 C
b00000000000000000000000000010100 F
b00000 K
b00000000000000000000000000010000 O
b01010 R
b00000000000000000000000000100000 c
b00000000 f
b00010011 g
19!
#21
09!
#22
b00000000000000000000000000100000 $
b00000000000000000000000000100100 %
b00000000000000000000000000010011 &
b00000000000000000000000000011100 '
b00000000000000000000000000100000 (
b00000 2
b00000000000000000000000000011100 6
b00000000000000000000000000011000 7
b01011 A
b00000000000000000000000000011000 C
b00000000000000000000000000011000 F
b00000000000000000000000000010100 O
b00000 R
b00000000000000000000000000100100 c
19!
#23
09!
#24
b00000000000001011000010100010011 #
b00000000000000000000000000100100 $
b00000000000000000000000000101000 %
b00000000000000000000000000100000 '
b00000000000000000000000000100100 (
b00000000000000000000000000100000 6
b00000000000000000000000000011100 7
b00000 A
b00000000000000000000000000011100 C
b00000000000000000000000000011100 F
b01011 K
b00000000000000000000000000011000 O
b00000000000000000000000000101000 c
b00000101 e
b10000101 f
19!
#25
09!
#26
b00000000000000000000000000010011 #
b00000000000000000000000000101000 $
b00000000000000000000000000101100 %
b00000000000001011000010100010011 &
b00000000000000000000000000100100 '
b00000000000000000000000000101000 (
b01010 2
b00000000000000000000000000100100 6
b00000000000000000000000000100000 7
b00000000000000000000000000100000 C
b00000000000000000000000000100000 F
b00000 K
b00000000000000000000000000011100 O
b01011 R
b01011 ^
b00000000000000000000000000101100 c
b00000000 e
b00000000 f
19!
#27
09!
#28
b00000000000000000000000000101100 $
b00000000000000000000000000110000 %
b00000000000000000000000000010011 &
b00000000000000000000000000101000 '
b00000000000000000000000000101100 (
b00000 2
b00000000000000000000000000101000 6
b00000000000000000000000000100100 7
b01010 A
b00000000000000000000000000100100 C
b00000000000000000000000000100100 F
b00000000000000000000000000100000 O
b00000 R
b00000 ^
b00000000000000000000000000110000 c
19!
#29
09!
#30
b00000000000101011000010110010011 #
b00000000000000000000000000110000 $
b00000000000000000000000000110100 %
b00000000000000000000000000101100 '
b00000000000000000000000000110000 (
b00000000000000000000000000101100 6
b00000000000000000000000000101000 7
b00000 A
b00000000000000000000000000101000 C
b00000000000000000000000000101000 F
b01010 K
b00000000000000000000000000100100 O
b00000000000000000000000000110100 c
b00010101 e
b10000101 f
b10010011 g
19!
#31
09!
#32
b00000000000000000000000000010011 #
b00000000000000000000000000110100 $
b00000000000000000000000000111000 %
b00000000000101011000010110010011 &
b00000000000000000000000000110000 '
b00000000000000000000000000110100 (
b00000000000000000000000000000001 )
b01011 2
b00000000000000000000000000110000 6
b00000000000000000000000000101100 7
b00000000000000000000000000101100 C
b00000000000000000000000000101100 F
b00000 K
b00000000000000000000000000101000 O
b01010 R
b000000000001 U
b01011 ^
b00001 _
b00000000000000000000000000111000 c
b00000000 e
b00000000 f
b00010011 g
19!
#33
09!
#34
b00000000000000000000000000111000 $
b00000000000000000000000000111100 %
b00000000000000000000000000010011 &
b00000000000000000000000000110100 '
b00000000000000000000000000111000 (
b00000000000000000000000000000000 )
b00000 2
b00000000000000000000000000000001 5
b00000000000000000000000000110100 6
b00000000000000000000000000110000 7
b01011 A
b00000000000000000000000000000001 B
b00000000000000000000000000110010 C
b00000000000000000000000000110000 F
b00000000000000000000000000101100 O
b00000 R
b000000000000 U
b00000 ^
b00000 _
0`
b00000000000000000000000000000001 a
b00000000000000000000000000111100 c
19!
#35
09!
#36
b11111110011001011001010011100011 #
b00000000000000000000000000111100 $
b00000000000000000000000001000000 %
b00000000000000000000000000111000 '
b00000000000000000000000000111100 (
b00000000000000000000000000000000 5
b00000000000000000000000000111000 6
b00000000000000000000000000110100 7
b00000 A
b00000000000000000000000000000000 B
b00000000000000000000000000110100 C
b00000000000000000000000000000001 D
b00000000000000000000000000110100 F
b01011 K
b00000000000000000000000000110000 O
1`
b00000000000000000000000000000000 a
b00000000000000000000000001000000 c
b11111110 d
b01100101 e
b10010100 f
b11100011 g
19!
#37
09!
#38
b00000000000000000000000000010011 #
b00000000000000000000000001000000 $
b00000000000000000000000001000100 %
b11111110011001011001010011100011 &
b00000000000000000000000000111100 '
b00000000000000000000000001000000 (
b11111111111111111111111111110100 )
0*
0,
1-
b0001 1
b01001 2
b00000000000000000000000000111100 6
b00000000000000000000000000111000 7
b00000000000000000000000000111000 C
b00000000000000000000000000000000 D
b00000000000000000000000000111000 F
b00000 K
b00000000000000000000000000000001 M
b00000000000000000000000000110100 O
b01011 R
b00000000000000000000000000000001 S
b011 T
b111111110100 U
b1100011 X
b001 Y
b1111111 Z
b01 [
1\
b00000000000000000000000000000111 ]
b01011 ^
b00110 _
b00000000000000000000000001000100 c
b00000000 d
b00000000 e
b00000000 f
b00010011 g
19!
b00000000000000000000000011111111 =!
#39
b00000000000000000000000000000001 $!
09!
b00000000000000000000000000000001 <!
#40
b00000000000000000000000001000100 $
b00000000000000000000000001001000 %
b00000000000000000000000000010011 &
b00000000000000000000000001000000 '
b00000000000000000000000001000100 (
b00000000000000000000000000000000 )
1*
1,
0-
b0000 1
b00000 2
b00000000000000000000000000000001 3
b00000000000000000000000011111111 4
b11111111111111111111111111110100 5
b00000000000000000000000001000000 6
b00000000000000000000000000111100 7
08
0:
1;
1<
b0001 @
b01001 A
b00000000000000000000000000100100 C
b00000000000000000000000000111100 F
b00000000000000000000000000000000 M
b00000000000000000000000000111000 O
b00000 R
b00000000000000000000000000000000 S
b000 T
b000000000000 U
b0010011 X
b000 Y
b0000000 Z
b10 [
0\
b00000000000000000000000000000010 ]
b00000 ^
b00000 _
b00000000000000000000000011111111 a
1b
b00000000000000000000000000100100 c
19!
b00000000000000000000000000000000 <!
b00000000000000000000000000000000 =!
#41
09!
#42
b00000000000001011000010100010011 #
b00000000000000000000000000100100 $
b00000000000000000000000000101000 %
b00000000000000000000000001000100 '
b00000000000000000000000001001000 (
b00000000000000000000000000000000 3
b00000000000000000000000000000000 4
b00000000000000000000000000000000 5
b00000000000000000000000001000100 6
b00000000000000000000000001000000 7
18
1:
0;
0<
b0000 @
b00000 A
b00000000000000000000000001000000 C
b00000000000000000000000011111111 E
b00000000000000000000000001000000 F
0G
b01001 K
b00000000000000000000000000111100 O
b00000000000000000000000000000000 a
0b
b00000000000000000000000000101000 c
b00000101 e
b10000101 f
b11111111 s
19!
#43
09!
#44
b00000000000000000000000000010011 #
b00000000000000000000000000101000 $
b00000000000000000000000000101100 %
b00000000000001011000010100010011 &
b00000000000000000000000000100100 '
b00000000000000000000000000101000 (
b01010 2
b00000000000000000000000001001000 6
b00000000000000000000000001000100 7
b00000000000000000000000001000100 C
b00000000000000000000000000000000 E
b00000000000000000000000001000100 F
1G
b00000 K
b00000000000000000000000001000000 O
0P
b01001 R
b01011 ^
b00000000000000000000000000101100 c
b00000000 e
b00000000 f
b00000000 s
19!
b00000000000000000000000000000001 <!
#45
09!
#46
b00000000000000000000000000101100 $
b00000000000000000000000000110000 %
b00000000000000000000000000010011 &
b00000000000000000000000000101000 '
b00000000000000000000000000101100 (
b00000 2
b00000000000000000000000000000001 3
b00000000000000000000000000101000 6
b00000000000000000000000000100100 7
b01010 A
b00000000000000000000000000000001 B
b00000000000000000000000000100100 C
b00000000000000000000000001001000 F
b00000000000000000000000001000100 O
1P
b00000 R
b00000 ^
0`
b00000000000000000000000000110000 c
19!
b00000000000000000000000000000000 <!
#47
09!
#48
b00000000000101011000010110010011 #
b00000000000000000000000000110000 $
b00000000000000000000000000110100 %
b00000000000000000000000000101100 '
b00000000000000000000000000110000 (
b00000000000000000000000000000000 3
b00000000000000000000000000101100 6
b00000000000000000000000000101000 7
b00000 A
b00000000000000000000000000000000 B
b00000000000000000000000000101000 C
b00000000000000000000000000000001 D
b00000000000000000000000000101000 F
b01010 K
b00000000000000000000000001001000 O
1`
b00000000000000000000000000110100 c
b00010101 e
b10000101 f
b10010011 g
19!
#49
09!
