top.vcd
$version Generated by VerilatedVcd $end
$date Sun Dec  4 14:18:19 2022 $end
$timescale 1ps $end

 $scope module TOP $end
  $var wire 32 #! a0 [31:0] $end
  $var wire  1 !! clk $end
  $var wire  1 "! rst $end
  $scope module top $end
   $var wire 32 > ALUResult_E [31:0] $end
   $var wire 32 D ALUResult_M [31:0] $end
   $var wire 32 K ALUResult_W [31:0] $end
   $var wire  4 &! ALUctrl_D [3:0] $end
   $var wire  4 6 ALUctrl_E [3:0] $end
   $var wire  1 & ALUsrc_D $end
   $var wire  1 1 ALUsrc_E $end
   $var wire  1 0 EQ $end
   $var wire 32 - ImmExt_D [31:0] $end
   $var wire 32 < ImmExt_E [31:0] $end
   $var wire 32 / PCPlus4_D [31:0] $end
   $var wire 32 = PCPlus4_E [31:0] $end
   $var wire 32 % PCPlus4_F [31:0] $end
   $var wire 32 F PCPlus4_M [31:0] $end
   $var wire 32 M PCPlus4_W [31:0] $end
   $var wire 32 ? PCTarget_E [31:0] $end
   $var wire 32 . PC_D [31:0] $end
   $var wire 32 ; PC_E [31:0] $end
   $var wire 32 $ PC_F [31:0] $end
   $var wire  1 '! PCsrc_D $end
   $var wire  1 7 PCsrc_E $end
   $var wire 32 + RD1_D [31:0] $end
   $var wire 32 9 RD1_E [31:0] $end
   $var wire 32 , RD2_D [31:0] $end
   $var wire 32 : RD2_E [31:0] $end
   $var wire  5 ) Rd_D [4:0] $end
   $var wire  5 8 Rd_E [4:0] $end
   $var wire  5 C Rd_M [4:0] $end
   $var wire  5 J Rd_W [4:0] $end
   $var wire 32 $! WIDTH [31:0] $end
   $var wire 32 #! a0 [31:0] $end
   $var wire  3 ( branch_D [2:0] $end
   $var wire  3 5 branch_E [2:0] $end
   $var wire  1 !! clk $end
   $var wire 32 * instr_D [31:0] $end
   $var wire 32 # instr_F [31:0] $end
   $var wire  1 %! jump_D $end
   $var wire  1 4 jump_E $end
   $var wire  1 %! memWrite_D $end
   $var wire  1 3 memWrite_E $end
   $var wire  1 B memWrite_M $end
   $var wire 32 G readData_M [31:0] $end
   $var wire 32 L readData_W [31:0] $end
   $var wire  1 & regWrite_D $end
   $var wire  1 1 regWrite_E $end
   $var wire  1 @ regWrite_M $end
   $var wire  1 H regWrite_W $end
   $var wire  2 ' resultSrc_D [1:0] $end
   $var wire  2 2 resultSrc_E [1:0] $end
   $var wire  2 A resultSrc_M [1:0] $end
   $var wire  2 I resultSrc_W [1:0] $end
   $var wire 32 N result_W [31:0] $end
   $var wire  1 "! rst $end
   $var wire 32 : writeData_E [31:0] $end
   $var wire 32 E writeData_M [31:0] $end
   $scope module decode_execute_reg $end
    $var wire  3 (! ALUctrl_D [2:0] $end
    $var wire  3 O ALUctrl_E [2:0] $end
    $var wire  1 & ALUsrc_D $end
    $var wire  1 1 ALUsrc_E $end
    $var wire 32 - ImmExt_D [31:0] $end
    $var wire 32 < ImmExt_E [31:0] $end
    $var wire 32 / PCPlus4_D [31:0] $end
    $var wire 32 = PCPlus4_E [31:0] $end
    $var wire 32 . PC_D [31:0] $end
    $var wire 32 ; PC_E [31:0] $end
    $var wire 32 + RD1_D [31:0] $end
    $var wire 32 9 RD1_E [31:0] $end
    $var wire 32 , RD2_D [31:0] $end
    $var wire 32 : RD2_E [31:0] $end
    $var wire  5 ) Rd_D [4:0] $end
    $var wire  5 8 Rd_E [4:0] $end
    $var wire 32 $! WIDTH [31:0] $end
    $var wire  3 ( branch_D [2:0] $end
    $var wire  3 5 branch_E [2:0] $end
    $var wire  1 !! clk $end
    $var wire  1 %! jump_D $end
    $var wire  1 4 jump_E $end
    $var wire  1 %! memWrite_D $end
    $var wire  1 3 memWrite_E $end
    $var wire  1 & regWrite_D $end
    $var wire  1 1 regWrite_E $end
    $var wire  2 ' resultSrc_D [1:0] $end
    $var wire  2 2 resultSrc_E [1:0] $end
    $var wire  1 "! rst $end
   $upscope $end
   $scope module execute_memory_reg $end
    $var wire 32 > ALUResult_E [31:0] $end
    $var wire 32 D ALUResult_M [31:0] $end
    $var wire 32 = PCPlus4_E [31:0] $end
    $var wire 32 F PCPlus4_M [31:0] $end
    $var wire  5 8 Rd_E [4:0] $end
    $var wire  5 C Rd_M [4:0] $end
    $var wire 32 $! WIDTH [31:0] $end
    $var wire  1 !! clk $end
    $var wire  1 3 memWrite_E $end
    $var wire  1 B memWrite_M $end
    $var wire  1 1 regWrite_E $end
    $var wire  1 @ regWrite_M $end
    $var wire  2 2 resultSrc_E [1:0] $end
    $var wire  2 A resultSrc_M [1:0] $end
    $var wire  1 "! rst $end
    $var wire 32 : writeData_E [31:0] $end
    $var wire 32 E writeData_M [31:0] $end
   $upscope $end
   $scope module fetch_decode_reg $end
    $var wire 32 / PCPlus4_D [31:0] $end
    $var wire 32 % PCPlus4_F [31:0] $end
    $var wire 32 . PC_D [31:0] $end
    $var wire 32 $ PC_F [31:0] $end
    $var wire 32 $! WIDTH [31:0] $end
    $var wire  1 !! clk $end
    $var wire 32 * instr_D [31:0] $end
    $var wire 32 # instr_F [31:0] $end
    $var wire  1 "! rst $end
   $upscope $end
   $scope module memory_writeback_reg $end
    $var wire 32 D ALUResult_M [31:0] $end
    $var wire 32 K ALUResult_W [31:0] $end
    $var wire 32 F PCPlus4_M [31:0] $end
    $var wire 32 M PCPlus4_W [31:0] $end
    $var wire  5 C Rd_M [4:0] $end
    $var wire  5 J Rd_W [4:0] $end
    $var wire 32 $! WIDTH [31:0] $end
    $var wire  1 !! clk $end
    $var wire 32 G readData_M [31:0] $end
    $var wire 32 L readData_W [31:0] $end
    $var wire  1 @ regWrite_M $end
    $var wire  1 H regWrite_W $end
    $var wire  2 A resultSrc_M [1:0] $end
    $var wire  2 I resultSrc_W [1:0] $end
    $var wire  1 "! rst $end
   $upscope $end
   $scope module top_decode $end
    $var wire  4 &! ALUctrl_D [3:0] $end
    $var wire  1 & ALUsrc_D $end
    $var wire  1 0 EQ $end
    $var wire 32 - ImmExt_D [31:0] $end
    $var wire  3 ( ImmSrc_D [2:0] $end
    $var wire 32 + RD1_D [31:0] $end
    $var wire 32 , RD2_D [31:0] $end
    $var wire  5 ) Rd_D [4:0] $end
    $var wire  5 J Rd_W [4:0] $end
    $var wire 32 $! WIDTH [31:0] $end
    $var wire 32 #! a0 [31:0] $end
    $var wire  3 ( branch_D [2:0] $end
    $var wire  1 !! clk $end
    $var wire 32 * instr_D [31:0] $end
    $var wire  1 & regWrite_D $end
    $var wire  1 H regWrite_W $end
    $var wire  2 ' resultSrc_D [1:0] $end
    $var wire 32 N result_W [31:0] $end
    $var wire  1 "! rst $end
    $scope module SignExtend $end
     $var wire 32 - ImmOp [31:0] $end
     $var wire  1 P ImmSrc $end
     $var wire 32 $! data_width [31:0] $end
     $var wire 12 Q imm [11:0] $end
     $var wire 32 )! imm_width [31:0] $end
     $var wire 32 * instruction [31:0] $end
    $upscope $end
    $scope module control_unit $end
     $var wire  3 (! ALUctrl [2:0] $end
     $var wire  1 & ALUsrc $end
     $var wire  1 0 EQ $end
     $var wire  1 P ImmSrc $end
     $var wire  1 & RegWrite $end
     $var wire  1 T RegWriteSrc $end
     $var wire  3 ( branch [2:0] $end
     $var wire  3 R funct3 [14:12] $end
     $var wire 32 U instr [31:0] $end
     $var wire  7 S opcode [6:0] $end
    $upscope $end
    $scope module register $end
     $var wire 32 *! ADDRESS_WIDTH [31:0] $end
     $var wire 32 $! DATA_WIDTH [31:0] $end
     $var wire 32 + RD1 [31:0] $end
     $var wire 32 , RD2 [31:0] $end
     $var wire 32 N WD3 [31:0] $end
     $var wire  1 H WE3 $end
     $var wire 32 #! a0 [31:0] $end
     $var wire  1 !! clk $end
     $var wire  5 J rd [4:0] $end
     $var wire 32 X reg_array[0] [31:0] $end
     $var wire 32 b reg_array[10] [31:0] $end
     $var wire 32 c reg_array[11] [31:0] $end
     $var wire 32 d reg_array[12] [31:0] $end
     $var wire 32 e reg_array[13] [31:0] $end
     $var wire 32 f reg_array[14] [31:0] $end
     $var wire 32 g reg_array[15] [31:0] $end
     $var wire 32 h reg_array[16] [31:0] $end
     $var wire 32 i reg_array[17] [31:0] $end
     $var wire 32 j reg_array[18] [31:0] $end
     $var wire 32 k reg_array[19] [31:0] $end
     $var wire 32 Y reg_array[1] [31:0] $end
     $var wire 32 l reg_array[20] [31:0] $end
     $var wire 32 m reg_array[21] [31:0] $end
     $var wire 32 n reg_array[22] [31:0] $end
     $var wire 32 o reg_array[23] [31:0] $end
     $var wire 32 p reg_array[24] [31:0] $end
     $var wire 32 q reg_array[25] [31:0] $end
     $var wire 32 r reg_array[26] [31:0] $end
     $var wire 32 s reg_array[27] [31:0] $end
     $var wire 32 t reg_array[28] [31:0] $end
     $var wire 32 u reg_array[29] [31:0] $end
     $var wire 32 Z reg_array[2] [31:0] $end
     $var wire 32 v reg_array[30] [31:0] $end
     $var wire 32 w reg_array[31] [31:0] $end
     $var wire 32 [ reg_array[3] [31:0] $end
     $var wire 32 \ reg_array[4] [31:0] $end
     $var wire 32 ] reg_array[5] [31:0] $end
     $var wire 32 ^ reg_array[6] [31:0] $end
     $var wire 32 _ reg_array[7] [31:0] $end
     $var wire 32 ` reg_array[8] [31:0] $end
     $var wire 32 a reg_array[9] [31:0] $end
     $var wire  5 V rs1 [4:0] $end
     $var wire  5 W rs2 [4:0] $end
    $upscope $end
   $upscope $end
   $scope module top_execute $end
    $var wire  4 6 ALUctrl [3:0] $end
    $var wire 32 x ALUop2 [31:0] $end
    $var wire 32 > ALUout [31:0] $end
    $var wire  1 1 ALUsrc $end
    $var wire 32 $! DATA_WIDTH [31:0] $end
    $var wire  1 0 EQ $end
    $var wire 32 < ImmOp [31:0] $end
    $var wire 32 9 RD1 [31:0] $end
    $var wire 32 : RD2 [31:0] $end
    $var wire 32 #! a0 [31:0] $end
    $var wire  1 !! clk $end
    $scope module ALU $end
     $var wire  3 O ALUctrl [2:0] $end
     $var wire 32 9 ALUop1 [31:0] $end
     $var wire 32 x ALUop2 [31:0] $end
     $var wire 32 $! DATA_WIDTH [31:0] $end
     $var wire  1 0 EQ $end
     $var wire 32 > SUM [31:0] $end
    $upscope $end
   $upscope $end
   $scope module top_fetch $end
    $var wire 32 % PCPlus4_F [31:0] $end
    $var wire 32 ? PCTarget_E [31:0] $end
    $var wire 32 $ PC_F [31:0] $end
    $var wire  1 7 PCsrc_E $end
    $var wire 32 $! WIDTH [31:0] $end
    $var wire  1 !! clk $end
    $var wire 32 # instr_F [31:0] $end
    $var wire 32 y next_PC [31:0] $end
    $var wire  1 "! rst $end
    $scope module PC_Reg $end
     $var wire 32 $! DATA_LENGTH [31:0] $end
     $var wire 32 $ PC [31:0] $end
     $var wire  1 !! clk $end
     $var wire 32 y next_PC [31:0] $end
     $var wire  1 "! rst $end
    $upscope $end
    $scope module add_inc $end
     $var wire 32 $! DATA_LENGTH [31:0] $end
     $var wire 32 +! N [31:0] $end
     $var wire 32 $ in [31:0] $end
     $var wire 32 % out [31:0] $end
    $upscope $end
    $scope module instr_mem $end
     $var wire 32 $ A [31:0] $end
     $var wire 32 $! ADDRESS_WIDTH [31:0] $end
     $var wire 32 ,! DATA_WIDTH [31:0] $end
     $var wire 32 $! INSTRUCTION_WIDTH [31:0] $end
     $var wire 32 # RD [31:0] $end
     $var wire  8 z byte1 [7:0] $end
     $var wire  8 { byte2 [7:0] $end
     $var wire  8 | byte3 [7:0] $end
     $var wire  8 } byte4 [7:0] $end
    $upscope $end
    $scope module mux $end
     $var wire 32 $! WIDTH [31:0] $end
     $var wire 32 % d_0 [31:0] $end
     $var wire 32 ? d_1 [31:0] $end
     $var wire 32 y dout [31:0] $end
     $var wire  1 7 s $end
    $upscope $end
   $upscope $end
   $scope module top_memory $end
    $var wire 32 D ALUResult_M [31:0] $end
    $var wire 32 $! WIDTH [31:0] $end
    $var wire  1 !! clk $end
    $var wire 32 ~ memWrite_M [31:0] $end
    $var wire 32 G readData_M [31:0] $end
    $var wire  1 "! rst $end
    $var wire 32 E writeData_M [31:0] $end
    $scope module ram $end
     $var wire 32 $! ADDRESS_LENGTH [31:0] $end
     $var wire 32 D a [31:0] $end
     $var wire  1 !! clk $end
     $var wire 32 G rd [31:0] $end
     $var wire 32 E wd [31:0] $end
     $var wire  1 B we $end
    $upscope $end
   $upscope $end
   $scope module top_writeback $end
    $var wire 32 K ALUResult_W [31:0] $end
    $var wire 32 M PCPlus4_W [31:0] $end
    $var wire 32 $! WIDTH [31:0] $end
    $var wire 32 L readData_W [31:0] $end
    $var wire  2 I resultSrc_W [1:0] $end
    $var wire 32 N result_W [31:0] $end
   $upscope $end
  $upscope $end
 $upscope $end
$enddefinitions $end


#0
b00000000000000000000000000000000 #
b00000000000000000000000000000000 $
b00000000000000000000000000000100 %
0&
b00 '
b000 (
b00000 )
b00000000000000000000000000000000 *
b00000000000000000000000000000000 +
b00000000000000000000000000000000 ,
b00000000000000000000000000000000 -
b00000000000000000000000000000000 .
b00000000000000000000000000000000 /
10
01
b00 2
03
04
b000 5
b0000 6
07
b00000 8
b00000000000000000000000000000000 9
b00000000000000000000000000000000 :
b00000000000000000000000000000000 ;
b00000000000000000000000000000000 <
b00000000000000000000000000000000 =
b00000000000000000000000000000000 >
b00000000000000000000000000000000 ?
0@
b00 A
0B
b00000 C
b00000000000000000000000000000000 D
b00000000000000000000000000000000 E
b00000000000000000000000000000000 F
b00000000000000000000000000000000 G
0H
b00 I
b00000 J
b00000000000000000000000000000000 K
b00000000000000000000000000000000 L
b00000000000000000000000000000000 M
b00000000000000000000000000000000 N
b000 O
0P
b000000000000 Q
b000 R
b0000000 S
0T
b00000000000000000000000000000000 U
b00000 V
b00000 W
b00000000000000000000000000000000 X
b00000000000000000000000000000000 Y
b00000000000000000000000000000000 Z
b00000000000000000000000000000000 [
b00000000000000000000000000000000 \
b00000000000000000000000000000000 ]
b00000000000000000000000000000000 ^
b00000000000000000000000000000000 _
b00000000000000000000000000000000 `
b00000000000000000000000000000000 a
b00000000000000000000000000000000 b
b00000000000000000000000000000000 c
b00000000000000000000000000000000 d
b00000000000000000000000000000000 e
b00000000000000000000000000000000 f
b00000000000000000000000000000000 g
b00000000000000000000000000000000 h
b00000000000000000000000000000000 i
b00000000000000000000000000000000 j
b00000000000000000000000000000000 k
b00000000000000000000000000000000 l
b00000000000000000000000000000000 m
b00000000000000000000000000000000 n
b00000000000000000000000000000000 o
b00000000000000000000000000000000 p
b00000000000000000000000000000000 q
b00000000000000000000000000000000 r
b00000000000000000000000000000000 s
b00000000000000000000000000000000 t
b00000000000000000000000000000000 u
b00000000000000000000000000000000 v
b00000000000000000000000000000000 w
b00000000000000000000000000000000 x
b00000000000000000000000000000100 y
b00000000 z
b00000000 {
b00000000 |
b00000000 }
b00000000000000000000000000000000 ~
1!!
1"!
b00000000000000000000000000000000 #!
b00000000000000000000000000100000 $!
0%!
b0000 &!
0'!
b000 (!
b00000000000000000000000000001100 )!
b00000000000000000000000000000101 *!
b00000000000000000000000000000100 +!
b00000000000000000000000000001000 ,!
#1
b00001111111100000000001100010011 #
b00001111 z
b11110000 {
b00000011 |
b00010011 }
0!!
#2
1!!
#3
0!!
#4
1!!
#5
0!!
#6
1!!
0"!
#7
0!!
#8
b00000000000000000000000000010011 #
b00000000000000000000000000000100 $
b00000000000000000000000000001000 %
1&
b00110 )
b00001111111100000000001100010011 *
b00000000000000000000000011111111 -
b00000000000000000000000000000100 /
b000011111111 Q
b0010011 S
b00000000000000000000000000000001 U
b11111 W
b00000000000000000000000000001000 y
b00000000 z
b00000000 {
b00000000 |
1!!
#9
0!!
#10
b00000000000000000000000000001000 $
b00000000000000000000000000001100 %
b00000 )
b00000000000000000000000000010011 *
b00000000000000000000000000000000 -
b00000000000000000000000000000100 .
b00000000000000000000000000001000 /
00
11
b00110 8
b00000000000000000000000011111111 <
b00000000000000000000000000000100 =
b00000000000000000000000011111111 >
b00000000000000000000000111111110 ?
b000000000000 Q
b00000 W
b00000000000000000000000011111111 x
b00000000000000000000000000001100 y
1!!
#11
0!!
#12
b00000000000000000000000000001100 $
b00000000000000000000000000010000 %
b00000000000000000000000000001000 .
b00000000000000000000000000001100 /
10
b00000 8
b00000000000000000000000000000100 ;
b00000000000000000000000000000000 <
b00000000000000000000000000001000 =
b00000000000000000000000000000000 >
b00000000000000000000000000000100 ?
1@
b00110 C
b00000000000000000000000011111111 D
b00000000000000000000000000000100 F
b11111111111111111111111100000000 G
b00000000000000000000000000000000 x
b00000000000000000000000000010000 y
1!!
#13
0!!
#14
b00000000000000000000000000010000 $
b00000000000000000000000000010100 %
b00000000000000000000000000001100 .
b00000000000000000000000000010000 /
b00000000000000000000000000001000 ;
b00000000000000000000000000001100 =
b00000000000000000000000000001000 ?
b00000 C
b00000000000000000000000000000000 D
b00000000000000000000000000001000 F
b00000000000000000000000000000000 G
1H
b00110 J
b00000000000000000000000011111111 K
b11111111111111111111111100000000 L
b00000000000000000000000000000100 M
b00000000000000000000000011111111 N
b00000000000000000000000000010100 y
1!!
#15
0!!
#16
b00000000000000000000010100010011 #
b00000000000000000000000000010100 $
b00000000000000000000000000011000 %
b00000000000000000000000000010000 .
b00000000000000000000000000010100 /
b00000000000000000000000000001100 ;
b00000000000000000000000000010000 =
b00000000000000000000000000001100 ?
b00000000000000000000000000001100 F
b00000 J
b00000000000000000000000000000000 K
b00000000000000000000000000000000 L
b00000000000000000000000000001000 M
b00000000000000000000000000000000 N
b00000000000000000000000011111111 ^
b00000000000000000000000000011000 y
b00000101 |
1!!
#17
0!!
#18
b00000000000000000000000000010011 #
b00000000000000000000000000011000 $
b00000000000000000000000000011100 %
b01010 )
b00000000000000000000010100010011 *
b00000000000000000000000000010100 .
b00000000000000000000000000011000 /
b00000000000000000000000000010000 ;
b00000000000000000000000000010100 =
b00000000000000000000000000010000 ?
b00000000000000000000000000010000 F
b00000000000000000000000000001100 M
b00000000000000000000000000011100 y
b00000000 |
1!!
#19
0!!
#20
b00000000000000000000000000011100 $
b00000000000000000000000000100000 %
b00000 )
b00000000000000000000000000010011 *
b00000000000000000000000000011000 .
b00000000000000000000000000011100 /
b01010 8
b00000000000000000000000000010100 ;
b00000000000000000000000000011000 =
b00000000000000000000000000010100 ?
b00000000000000000000000000010100 F
b00000000000000000000000000010000 M
b00000000000000000000000000100000 y
1!!
#21
0!!
#22
b00000000000000000000000000100000 $
b00000000000000000000000000100100 %
b00000000000000000000000000011100 .
b00000000000000000000000000100000 /
b00000 8
b00000000000000000000000000011000 ;
b00000000000000000000000000011100 =
b00000000000000000000000000011000 ?
b01010 C
b00000000000000000000000000011000 F
b00000000000000000000000000010100 M
b00000000000000000000000000100100 y
1!!
#23
0!!
#24
b00000000000000000000000000100100 $
b00000000000000000000000000101000 %
b00000000000000000000000000100000 .
b00000000000000000000000000100100 /
b00000000000000000000000000011100 ;
b00000000000000000000000000100000 =
b00000000000000000000000000011100 ?
b00000 C
b00000000000000000000000000011100 F
b01010 J
b00000000000000000000000000011000 M
b00000000000000000000000000101000 y
1!!
#25
0!!
#26
b00000000000000000000010110010011 #
b00000000000000000000000000101000 $
b00000000000000000000000000101100 %
b00000000000000000000000000100100 .
b00000000000000000000000000101000 /
b00000000000000000000000000100000 ;
b00000000000000000000000000100100 =
b00000000000000000000000000100000 ?
b00000000000000000000000000100000 F
b00000 J
b00000000000000000000000000011100 M
b00000000000000000000000000101100 y
b00000101 |
b10010011 }
1!!
#27
0!!
#28
b00000000000000000000000000010011 #
b00000000000000000000000000101100 $
b00000000000000000000000000110000 %
b01011 )
b00000000000000000000010110010011 *
b00000000000000000000000000101000 .
b00000000000000000000000000101100 /
b00000000000000000000000000100100 ;
b00000000000000000000000000101000 =
b00000000000000000000000000100100 ?
b00000000000000000000000000100100 F
b00000000000000000000000000100000 M
b00000000000000000000000000110000 y
b00000000 |
b00010011 }
1!!
#29
0!!
#30
b00000000000000000000000000110000 $
b00000000000000000000000000110100 %
b00000 )
b00000000000000000000000000010011 *
b00000000000000000000000000101100 .
b00000000000000000000000000110000 /
b01011 8
b00000000000000000000000000101000 ;
b00000000000000000000000000101100 =
b00000000000000000000000000101000 ?
b00000000000000000000000000101000 F
b00000000000000000000000000100100 M
b00000000000000000000000000110100 y
1!!
#31
0!!
#32
b00000000000000000000000000110100 $
b00000000000000000000000000111000 %
b00000000000000000000000000110000 .
b00000000000000000000000000110100 /
b00000 8
b00000000000000000000000000101100 ;
b00000000000000000000000000110000 =
b00000000000000000000000000101100 ?
b01011 C
b00000000000000000000000000101100 F
b00000000000000000000000000101000 M
b00000000000000000000000000111000 y
1!!
#33
0!!
#34
b00000000000000000000000000111000 $
b00000000000000000000000000111100 %
b00000000000000000000000000110100 .
b00000000000000000000000000111000 /
b00000000000000000000000000110000 ;
b00000000000000000000000000110100 =
b00000000000000000000000000110000 ?
b00000 C
b00000000000000000000000000110000 F
b01011 J
b00000000000000000000000000101100 M
b00000000000000000000000000111100 y
1!!
#35
0!!
#36
b00000000000001011010010100000011 #
b00000000000000000000000000111100 $
b00000000000000000000000001000000 %
b00000000000000000000000000111000 .
b00000000000000000000000000111100 /
b00000000000000000000000000110100 ;
b00000000000000000000000000111000 =
b00000000000000000000000000110100 ?
b00000000000000000000000000110100 F
b00000 J
b00000000000000000000000000110000 M
b00000000000000000000000001000000 y
b00000101 {
b10100101 |
b00000011 }
1!!
#37
0!!
#38
b00000000000000000000000000010011 #
b00000000000000000000000001000000 $
b00000000000000000000000001000100 %
b01 '
b01010 )
b00000000000001011010010100000011 *
b00000000000000000000000000111100 .
b00000000000000000000000001000000 /
b00000000000000000000000000111000 ;
b00000000000000000000000000111100 =
b00000000000000000000000000111000 ?
b00000000000000000000000000111000 F
b00000000000000000000000000110100 M
b010 R
b0000011 S
1T
b00000000000000000000000000000011 U
b01011 V
b00000000000000000000000001000100 y
b00000000 {
b00000000 |
b00010011 }
1!!
#39
0!!
#40
b00000000000000000000000001000100 $
b00000000000000000000000001001000 %
b00 '
b00000 )
b00000000000000000000000000010011 *
b00000000000000000000000001000000 .
b00000000000000000000000001000100 /
b01 2
b01010 8
b00000000000000000000000000111100 ;
b00000000000000000000000001000000 =
b00000000000000000000000000111100 ?
b00000000000000000000000000111100 F
b00000000000000000000000000111000 M
b000 R
b0010011 S
0T
b00000000000000000000000000000001 U
b00000 V
b00000000000000000000000001001000 y
1!!
#41
0!!
#42
b00000000000000000000000001001000 $
b00000000000000000000000001001100 %
b00000000000000000000000001000100 .
b00000000000000000000000001001000 /
b00 2
b00000 8
b00000000000000000000000001000000 ;
b00000000000000000000000001000100 =
b00000000000000000000000001000000 ?
b01 A
b01010 C
b00000000000000000000000001000000 F
b00000000000000000000000000111100 M
b00000000000000000000000001001100 y
1!!
#43
0!!
#44
b00000000000000000000000001001100 $
b00000000000000000000000001010000 %
b00000000000000000000000001001000 .
b00000000000000000000000001001100 /
b00000000000000000000000001000100 ;
b00000000000000000000000001001000 =
b00000000000000000000000001000100 ?
b00 A
b00000 C
b00000000000000000000000001000100 F
b01 I
b01010 J
b00000000000000000000000001000000 M
b00000000000000000000000001010000 y
1!!
#45
0!!
#46
b00000000000101011000010110010011 #
b00000000000000000000000001010000 $
b00000000000000000000000001010100 %
b00000000000000000000000001001100 .
b00000000000000000000000001010000 /
b00000000000000000000000001001000 ;
b00000000000000000000000001001100 =
b00000000000000000000000001001000 ?
b00000000000000000000000001001000 F
b00 I
b00000 J
b00000000000000000000000001000100 M
b00000000000000000000000001010100 y
b00010101 {
b10000101 |
b10010011 }
1!!
#47
0!!
#48
b00000000000000000000000000010011 #
b00000000000000000000000001010100 $
b00000000000000000000000001011000 %
b01011 )
b00000000000101011000010110010011 *
b00000000000000000000000000000001 -
b00000000000000000000000001010000 .
b00000000000000000000000001010100 /
b00000000000000000000000001001100 ;
b00000000000000000000000001010000 =
b00000000000000000000000001001100 ?
b00000000000000000000000001001100 F
b00000000000000000000000001001000 M
b000000000001 Q
b01011 V
b00001 W
b00000000000000000000000001011000 y
b00000000 {
b00000000 |
b00010011 }
1!!
#49
0!!
#50
b00000000000000000000000001011000 $
b00000000000000000000000001011100 %
b00000 )
b00000000000000000000000000010011 *
b00000000000000000000000000000000 -
b00000000000000000000000001010100 .
b00000000000000000000000001011000 /
00
b01011 8
b00000000000000000000000001010000 ;
b00000000000000000000000000000001 <
b00000000000000000000000001010100 =
b00000000000000000000000000000001 >
b00000000000000000000000001010010 ?
b00000000000000000000000001010000 F
b00000000000000000000000001001100 M
b000000000000 Q
b00000 V
b00000 W
b00000000000000000000000000000001 x
b00000000000000000000000001011100 y
1!!
#51
0!!
#52
b00000000000000000000000001011100 $
b00000000000000000000000001100000 %
b00000000000000000000000001011000 .
b00000000000000000000000001011100 /
10
b00000 8
b00000000000000000000000001010100 ;
b00000000000000000000000000000000 <
b00000000000000000000000001011000 =
b00000000000000000000000000000000 >
b00000000000000000000000001010100 ?
b01011 C
b00000000000000000000000000000001 D
b00000000000000000000000001010100 F
b00000000000000000000000001001111 G
b00000000000000000000000001010000 M
b00000000000000000000000000000000 x
b00000000000000000000000001100000 y
1!!
#53
0!!
#54
b00000000000000000000000001100000 $
b00000000000000000000000001100100 %
b00000000000000000000000001011100 .
b00000000000000000000000001100000 /
b00000000000000000000000001011000 ;
b00000000000000000000000001011100 =
b00000000000000000000000001011000 ?
b00000 C
b00000000000000000000000000000000 D
b00000000000000000000000001011000 F
b00000000000000000000000000000000 G
b01011 J
b00000000000000000000000000000001 K
b00000000000000000000000001001111 L
b00000000000000000000000001010100 M
b00000000000000000000000000000001 N
b00000000000000000000000001100100 y
1!!
#55
0!!
#56
b11111100011001010001110011100011 #
b00000000000000000000000001100100 $
b00000000000000000000000001101000 %
b00000000000000000000000001100000 .
b00000000000000000000000001100100 /
b00000000000000000000000001011100 ;
b00000000000000000000000001100000 =
b00000000000000000000000001011100 ?
b00000000000000000000000001011100 F
b00000 J
b00000000000000000000000000000000 K
b00000000000000000000000000000000 L
b00000000000000000000000001011000 M
b00000000000000000000000000000000 N
b00000000000000000000000000000001 c
b00000000000000000000000001101000 y
b11111100 z
b01100101 {
b00011100 |
b11100011 }
1!!
#57
0!!
#58
b00000000000000000000000000010011 #
b00000000000000000000000001101000 $
b00000000000000000000000001101100 %
0&
b001 (
b11001 )
b11111100011001010001110011100011 *
b00000000000000000000000011111111 ,
b11111111111111111111111111101100 -
b00000000000000000000000001100100 .
b00000000000000000000000001101000 /
b00000000000000000000000001100000 ;
b00000000000000000000000001100100 =
b00000000000000000000000001100000 ?
b00000000000000000000000001100000 F
b00000000000000000000000001011100 M
1P
b111111101100 Q
b001 R
b1100011 S
b00000000000000000000000000000010 U
b01010 V
b00110 W
b00000000000000000000000001101100 y
b00000000 z
b00000000 {
b00000000 |
b00010011 }
1!!
#59
0!!
#60
b00000000000000000000000001101100 $
b00000000000000000000000001110000 %
1&
b000 (
b00000 )
b00000000000000000000000000010011 *
b00000000000000000000000000000000 ,
b00000000000000000000000000000000 -
b00000000000000000000000001101000 .
b00000000000000000000000001101100 /
00
01
b001 5
17
b11001 8
b00000000000000000000000011111111 :
b00000000000000000000000001100100 ;
b11111111111111111111111111101100 <
b00000000000000000000000001101000 =
b00000000000000000000000011111111 >
b00000000000000000000000000111100 ?
b00000000000000000000000001100100 F
b00000000000000000000000001100000 M
0P
b000000000000 Q
b000 R
b0010011 S
b00000000000000000000000000000001 U
b00000 V
b00000 W
b00000000000000000000000011111111 x
b00000000000000000000000000111100 y
1!!
#61
0!!
#62
b00000000000001011010010100000011 #
b00000000000000000000000000111100 $
b00000000000000000000000001000000 %
b00000000000000000000000001101100 .
b00000000000000000000000001110000 /
10
11
b000 5
07
b00000 8
b00000000000000000000000000000000 :
b00000000000000000000000001101000 ;
b00000000000000000000000000000000 <
b00000000000000000000000001101100 =
b00000000000000000000000000000000 >
b00000000000000000000000001101000 ?
0@
b11001 C
b00000000000000000000000011111111 D
b00000000000000000000000011111111 E
b00000000000000000000000001101000 F
b11111111111111111111111100000000 G
b00000000000000000000000001100100 M
b00000000000000000000000000000000 x
b00000000000000000000000001000000 y
b00000101 {
b10100101 |
b00000011 }
1!!
#63
0!!
#64
b00000000000000000000000000010011 #
b00000000000000000000000001000000 $
b00000000000000000000000001000100 %
b01 '
b01010 )
b00000000000001011010010100000011 *
b00000000000000000000000000000001 +
b00000000000000000000000000111100 .
b00000000000000000000000001000000 /
b00000000000000000000000001101100 ;
b00000000000000000000000001110000 =
b00000000000000000000000001101100 ?
1@
b00000 C
b00000000000000000000000000000000 D
b00000000000000000000000000000000 E
b00000000000000000000000001101100 F
b00000000000000000000000000000000 G
0H
b11001 J
b00000000000000000000000011111111 K
b11111111111111111111111100000000 L
b00000000000000000000000001101000 M
b00000000000000000000000011111111 N
b010 R
b0000011 S
1T
b00000000000000000000000000000011 U
b01011 V
b00000000000000000000000001000100 y
b00000000 {
b00000000 |
b00010011 }
1!!
#65
0!!
#66
b00000000000000000000000001000100 $
b00000000000000000000000001001000 %
b00 '
b00000 )
b00000000000000000000000000010011 *
b00000000000000000000000000000000 +
b00000000000000000000000001000000 .
b00000000000000000000000001000100 /
00
b01 2
b01010 8
b00000000000000000000000000000001 9
b00000000000000000000000000111100 ;
b00000000000000000000000001000000 =
b00000000000000000000000000000001 >
b00000000000000000000000000111100 ?
b00000000000000000000000001110000 F
1H
b00000 J
b00000000000000000000000000000000 K
b00000000000000000000000000000000 L
b00000000000000000000000001101100 M
b00000000000000000000000000000000 N
b000 R
b0010011 S
0T
b00000000000000000000000000000001 U
b00000 V
b00000000000000000000000001001000 y
1!!
#67
0!!
