execute/Valu.vcd
$version Generated by VerilatedVcd $end
$date Fri Dec  9 18:25:55 2022 $end
$timescale 1ps $end

 $scope module TOP $end
  $var wire  4 ' ALUctrl [3:0] $end
  $var wire 32 - ALUout [31:0] $end
  $var wire  1 & ALUsrc $end
  $var wire 32 * ImmOp [31:0] $end
  $var wire  1 . PCsrc_E $end
  $var wire 32 ( RD1 [31:0] $end
  $var wire 32 ) RD2 [31:0] $end
  $var wire  1 , branch_E $end
  $var wire  1 + jump_E $end
  $scope module top_execute $end
   $var wire  4 ' ALUctrl [3:0] $end
   $var wire 32 $ ALUop2 [31:0] $end
   $var wire 32 - ALUout [31:0] $end
   $var wire  1 & ALUsrc $end
   $var wire 32 / DATA_WIDTH [31:0] $end
   $var wire  1 # EQ $end
   $var wire 32 * ImmOp [31:0] $end
   $var wire  1 . PCsrc_E $end
   $var wire 32 ( RD1 [31:0] $end
   $var wire 32 ) RD2 [31:0] $end
   $var wire  1 , branch_E $end
   $var wire  1 + jump_E $end
   $scope module ALU $end
    $var wire  4 ' ALUctrl [3:0] $end
    $var wire 32 ( ALUop1 [31:0] $end
    $var wire 32 $ ALUop2 [31:0] $end
    $var wire 32 / DATA_WIDTH [31:0] $end
    $var wire  1 # EQ $end
    $var wire 32 - SUM [31:0] $end
   $upscope $end
   $scope module pc_src $end
    $var wire  1 , BranchE $end
    $var wire  1 + JumpE $end
    $var wire  1 . PCSrcE $end
    $var wire  1 # ZeroE $end
    $var wire  1 % and_result $end
   $upscope $end
  $upscope $end
 $upscope $end
$enddefinitions $end


#0
0#
b00000000000000000000000000000000 $
0%
0&
b0000 '
b00000000000000000000000000000011 (
b00000000000000000000000000000100 )
b00000000000000000000000000000010 *
0+
0,
b00000000000000000000000000000000 -
0.
b00000000000000000000000000100000 /
#1
b00000000000000000000000000000100 $
b00000000000000000000000000000111 -
#2
#3
#4
b0001 '
#5
1#
b00000000000000000000000000110000 -
#6
b1000 '
#7
0#
b11111111111111111111111111111111 -
#8
b0010 '
#9
b00000000000000000000000000000000 -
#10
b0011 '
#11
b00000000000000000000000000000111 -
#12
b0101 '
#13
b00000000000000000000000000000001 -
#14
b0100 '
#15
1#
b00000000000000000000000000000111 -
#16
b0110 '
#17
b00000000000000000000000000000000 -
